{
  "results": {
    "Ceval-valid-accountant": {
      "acc": 0.30612244897959184,
      "acc_stderr": 0.06652247352247599,
      "acc_norm": 0.30612244897959184,
      "acc_norm_stderr": 0.06652247352247599
    },
    "Ceval-valid-advanced_mathematics": {
      "acc": 0.21052631578947367,
      "acc_stderr": 0.0960916767552923,
      "acc_norm": 0.21052631578947367,
      "acc_norm_stderr": 0.0960916767552923
    },
    "Ceval-valid-art_studies": {
      "acc": 0.18181818181818182,
      "acc_stderr": 0.06818181818181816,
      "acc_norm": 0.18181818181818182,
      "acc_norm_stderr": 0.06818181818181816
    },
    "Ceval-valid-basic_medicine": {
      "acc": 0.10526315789473684,
      "acc_stderr": 0.0723351864143449,
      "acc_norm": 0.10526315789473684,
      "acc_norm_stderr": 0.0723351864143449
    },
    "Ceval-valid-business_administration": {
      "acc": 0.36363636363636365,
      "acc_stderr": 0.08503766788122592,
      "acc_norm": 0.36363636363636365,
      "acc_norm_stderr": 0.08503766788122592
    },
    "Ceval-valid-chinese_language_and_literature": {
      "acc": 0.2608695652173913,
      "acc_stderr": 0.09361833424764436,
      "acc_norm": 0.2608695652173913,
      "acc_norm_stderr": 0.09361833424764436
    },
    "Ceval-valid-civil_servant": {
      "acc": 0.23404255319148937,
      "acc_stderr": 0.062426763436828826,
      "acc_norm": 0.23404255319148937,
      "acc_norm_stderr": 0.062426763436828826
    },
    "Ceval-valid-clinical_medicine": {
      "acc": 0.45454545454545453,
      "acc_stderr": 0.10865714630312667,
      "acc_norm": 0.45454545454545453,
      "acc_norm_stderr": 0.10865714630312667
    },
    "Ceval-valid-college_chemistry": {
      "acc": 0.4583333333333333,
      "acc_stderr": 0.10389457216622949,
      "acc_norm": 0.4583333333333333,
      "acc_norm_stderr": 0.10389457216622949
    },
    "Ceval-valid-college_economics": {
      "acc": 0.2909090909090909,
      "acc_stderr": 0.06180629713445796,
      "acc_norm": 0.2909090909090909,
      "acc_norm_stderr": 0.06180629713445796
    },
    "Ceval-valid-college_physics": {
      "acc": 0.3684210526315789,
      "acc_stderr": 0.11369720523522558,
      "acc_norm": 0.3684210526315789,
      "acc_norm_stderr": 0.11369720523522558
    },
    "Ceval-valid-college_programming": {
      "acc": 0.24324324324324326,
      "acc_stderr": 0.07150679219093488,
      "acc_norm": 0.24324324324324326,
      "acc_norm_stderr": 0.07150679219093488
    },
    "Ceval-valid-computer_architecture": {
      "acc": 0.047619047619047616,
      "acc_stderr": 0.04761904761904762,
      "acc_norm": 0.047619047619047616,
      "acc_norm_stderr": 0.04761904761904762
    },
    "Ceval-valid-computer_network": {
      "acc": 0.21052631578947367,
      "acc_stderr": 0.0960916767552923,
      "acc_norm": 0.21052631578947367,
      "acc_norm_stderr": 0.0960916767552923
    },
    "Ceval-valid-discrete_mathematics": {
      "acc": 0.375,
      "acc_stderr": 0.125,
      "acc_norm": 0.375,
      "acc_norm_stderr": 0.125
    },
    "Ceval-valid-education_science": {
      "acc": 0.27586206896551724,
      "acc_stderr": 0.08446516354424752,
      "acc_norm": 0.27586206896551724,
      "acc_norm_stderr": 0.08446516354424752
    },
    "Ceval-valid-electrical_engineer": {
      "acc": 0.2972972972972973,
      "acc_stderr": 0.07617808344724214,
      "acc_norm": 0.2972972972972973,
      "acc_norm_stderr": 0.07617808344724214
    },
    "Ceval-valid-environmental_impact_assessment_engineer": {
      "acc": 0.1935483870967742,
      "acc_stderr": 0.07213122508063838,
      "acc_norm": 0.1935483870967742,
      "acc_norm_stderr": 0.07213122508063838
    },
    "Ceval-valid-fire_engineer": {
      "acc": 0.25806451612903225,
      "acc_stderr": 0.07988892740217943,
      "acc_norm": 0.25806451612903225,
      "acc_norm_stderr": 0.07988892740217943
    },
    "Ceval-valid-high_school_biology": {
      "acc": 0.15789473684210525,
      "acc_stderr": 0.08594700851870798,
      "acc_norm": 0.15789473684210525,
      "acc_norm_stderr": 0.08594700851870798
    },
    "Ceval-valid-high_school_chemistry": {
      "acc": 0.3684210526315789,
      "acc_stderr": 0.1136972052352256,
      "acc_norm": 0.3684210526315789,
      "acc_norm_stderr": 0.1136972052352256
    },
    "Ceval-valid-high_school_chinese": {
      "acc": 0.10526315789473684,
      "acc_stderr": 0.07233518641434492,
      "acc_norm": 0.10526315789473684,
      "acc_norm_stderr": 0.07233518641434492
    },
    "Ceval-valid-high_school_geography": {
      "acc": 0.2631578947368421,
      "acc_stderr": 0.10379087338771256,
      "acc_norm": 0.2631578947368421,
      "acc_norm_stderr": 0.10379087338771256
    },
    "Ceval-valid-high_school_history": {
      "acc": 0.2,
      "acc_stderr": 0.09176629354822471,
      "acc_norm": 0.2,
      "acc_norm_stderr": 0.09176629354822471
    },
    "Ceval-valid-high_school_mathematics": {
      "acc": 0.3888888888888889,
      "acc_stderr": 0.11823563735376173,
      "acc_norm": 0.3888888888888889,
      "acc_norm_stderr": 0.11823563735376173
    },
    "Ceval-valid-high_school_physics": {
      "acc": 0.2631578947368421,
      "acc_stderr": 0.10379087338771256,
      "acc_norm": 0.2631578947368421,
      "acc_norm_stderr": 0.10379087338771256
    },
    "Ceval-valid-high_school_politics": {
      "acc": 0.10526315789473684,
      "acc_stderr": 0.0723351864143449,
      "acc_norm": 0.10526315789473684,
      "acc_norm_stderr": 0.0723351864143449
    },
    "Ceval-valid-ideological_and_moral_cultivation": {
      "acc": 0.3157894736842105,
      "acc_stderr": 0.10956136839295434,
      "acc_norm": 0.3157894736842105,
      "acc_norm_stderr": 0.10956136839295434
    },
    "Ceval-valid-law": {
      "acc": 0.08333333333333333,
      "acc_stderr": 0.05763033956734371,
      "acc_norm": 0.08333333333333333,
      "acc_norm_stderr": 0.05763033956734371
    },
    "Ceval-valid-legal_professional": {
      "acc": 0.17391304347826086,
      "acc_stderr": 0.08081046758996392,
      "acc_norm": 0.17391304347826086,
      "acc_norm_stderr": 0.08081046758996392
    },
    "Ceval-valid-logic": {
      "acc": 0.3181818181818182,
      "acc_stderr": 0.10163945352271771,
      "acc_norm": 0.3181818181818182,
      "acc_norm_stderr": 0.10163945352271771
    },
    "Ceval-valid-mao_zedong_thought": {
      "acc": 0.125,
      "acc_stderr": 0.06895966054592131,
      "acc_norm": 0.125,
      "acc_norm_stderr": 0.06895966054592131
    },
    "Ceval-valid-marxism": {
      "acc": 0.15789473684210525,
      "acc_stderr": 0.08594700851870798,
      "acc_norm": 0.15789473684210525,
      "acc_norm_stderr": 0.08594700851870798
    },
    "Ceval-valid-metrology_engineer": {
      "acc": 0.20833333333333334,
      "acc_stderr": 0.08468112965594378,
      "acc_norm": 0.20833333333333334,
      "acc_norm_stderr": 0.08468112965594378
    },
    "Ceval-valid-middle_school_biology": {
      "acc": 0.23809523809523808,
      "acc_stderr": 0.09523809523809523,
      "acc_norm": 0.23809523809523808,
      "acc_norm_stderr": 0.09523809523809523
    },
    "Ceval-valid-middle_school_chemistry": {
      "acc": 0.4,
      "acc_stderr": 0.11239029738980327,
      "acc_norm": 0.4,
      "acc_norm_stderr": 0.11239029738980327
    },
    "Ceval-valid-middle_school_geography": {
      "acc": 0.25,
      "acc_stderr": 0.1305582419667734,
      "acc_norm": 0.25,
      "acc_norm_stderr": 0.1305582419667734
    },
    "Ceval-valid-middle_school_history": {
      "acc": 0.3181818181818182,
      "acc_stderr": 0.10163945352271772,
      "acc_norm": 0.3181818181818182,
      "acc_norm_stderr": 0.10163945352271772
    },
    "Ceval-valid-middle_school_mathematics": {
      "acc": 0.21052631578947367,
      "acc_stderr": 0.0960916767552923,
      "acc_norm": 0.21052631578947367,
      "acc_norm_stderr": 0.0960916767552923
    },
    "Ceval-valid-middle_school_physics": {
      "acc": 0.3157894736842105,
      "acc_stderr": 0.10956136839295434,
      "acc_norm": 0.3157894736842105,
      "acc_norm_stderr": 0.10956136839295434
    },
    "Ceval-valid-middle_school_politics": {
      "acc": 0.19047619047619047,
      "acc_stderr": 0.08780518530755134,
      "acc_norm": 0.19047619047619047,
      "acc_norm_stderr": 0.08780518530755134
    },
    "Ceval-valid-modern_chinese_history": {
      "acc": 0.391304347826087,
      "acc_stderr": 0.10405096111532161,
      "acc_norm": 0.391304347826087,
      "acc_norm_stderr": 0.10405096111532161
    },
    "Ceval-valid-operating_system": {
      "acc": 0.3684210526315789,
      "acc_stderr": 0.11369720523522558,
      "acc_norm": 0.3684210526315789,
      "acc_norm_stderr": 0.11369720523522558
    },
    "Ceval-valid-physician": {
      "acc": 0.14285714285714285,
      "acc_stderr": 0.05050762722761052,
      "acc_norm": 0.14285714285714285,
      "acc_norm_stderr": 0.05050762722761052
    },
    "Ceval-valid-plant_protection": {
      "acc": 0.18181818181818182,
      "acc_stderr": 0.08416546361568647,
      "acc_norm": 0.18181818181818182,
      "acc_norm_stderr": 0.08416546361568647
    },
    "Ceval-valid-probability_and_statistics": {
      "acc": 0.16666666666666666,
      "acc_stderr": 0.0903876907577734,
      "acc_norm": 0.16666666666666666,
      "acc_norm_stderr": 0.0903876907577734
    },
    "Ceval-valid-professional_tour_guide": {
      "acc": 0.1724137931034483,
      "acc_stderr": 0.07138609234576078,
      "acc_norm": 0.1724137931034483,
      "acc_norm_stderr": 0.07138609234576078
    },
    "Ceval-valid-sports_science": {
      "acc": 0.10526315789473684,
      "acc_stderr": 0.0723351864143449,
      "acc_norm": 0.10526315789473684,
      "acc_norm_stderr": 0.0723351864143449
    },
    "Ceval-valid-tax_accountant": {
      "acc": 0.3877551020408163,
      "acc_stderr": 0.07032677934739909,
      "acc_norm": 0.3877551020408163,
      "acc_norm_stderr": 0.07032677934739909
    },
    "Ceval-valid-teacher_qualification": {
      "acc": 0.25,
      "acc_stderr": 0.06603381797442179,
      "acc_norm": 0.25,
      "acc_norm_stderr": 0.06603381797442179
    },
    "Ceval-valid-urban_and_rural_planner": {
      "acc": 0.2608695652173913,
      "acc_stderr": 0.06545849153992007,
      "acc_norm": 0.2608695652173913,
      "acc_norm_stderr": 0.06545849153992007
    },
    "Ceval-valid-veterinary_medicine": {
      "acc": 0.17391304347826086,
      "acc_stderr": 0.08081046758996392,
      "acc_norm": 0.17391304347826086,
      "acc_norm_stderr": 0.08081046758996392
    }
  },
  "versions": {
    "Ceval-valid-accountant": 1,
    "Ceval-valid-advanced_mathematics": 1,
    "Ceval-valid-art_studies": 1,
    "Ceval-valid-basic_medicine": 1,
    "Ceval-valid-business_administration": 1,
    "Ceval-valid-chinese_language_and_literature": 1,
    "Ceval-valid-civil_servant": 1,
    "Ceval-valid-clinical_medicine": 1,
    "Ceval-valid-college_chemistry": 1,
    "Ceval-valid-college_economics": 1,
    "Ceval-valid-college_physics": 1,
    "Ceval-valid-college_programming": 1,
    "Ceval-valid-computer_architecture": 1,
    "Ceval-valid-computer_network": 1,
    "Ceval-valid-discrete_mathematics": 1,
    "Ceval-valid-education_science": 1,
    "Ceval-valid-electrical_engineer": 1,
    "Ceval-valid-environmental_impact_assessment_engineer": 1,
    "Ceval-valid-fire_engineer": 1,
    "Ceval-valid-high_school_biology": 1,
    "Ceval-valid-high_school_chemistry": 1,
    "Ceval-valid-high_school_chinese": 1,
    "Ceval-valid-high_school_geography": 1,
    "Ceval-valid-high_school_history": 1,
    "Ceval-valid-high_school_mathematics": 1,
    "Ceval-valid-high_school_physics": 1,
    "Ceval-valid-high_school_politics": 1,
    "Ceval-valid-ideological_and_moral_cultivation": 1,
    "Ceval-valid-law": 1,
    "Ceval-valid-legal_professional": 1,
    "Ceval-valid-logic": 1,
    "Ceval-valid-mao_zedong_thought": 1,
    "Ceval-valid-marxism": 1,
    "Ceval-valid-metrology_engineer": 1,
    "Ceval-valid-middle_school_biology": 1,
    "Ceval-valid-middle_school_chemistry": 1,
    "Ceval-valid-middle_school_geography": 1,
    "Ceval-valid-middle_school_history": 1,
    "Ceval-valid-middle_school_mathematics": 1,
    "Ceval-valid-middle_school_physics": 1,
    "Ceval-valid-middle_school_politics": 1,
    "Ceval-valid-modern_chinese_history": 1,
    "Ceval-valid-operating_system": 1,
    "Ceval-valid-physician": 1,
    "Ceval-valid-plant_protection": 1,
    "Ceval-valid-probability_and_statistics": 1,
    "Ceval-valid-professional_tour_guide": 1,
    "Ceval-valid-sports_science": 1,
    "Ceval-valid-tax_accountant": 1,
    "Ceval-valid-teacher_qualification": 1,
    "Ceval-valid-urban_and_rural_planner": 1,
    "Ceval-valid-veterinary_medicine": 1
  },
  "config": {
    "model": "transnormer2",
    "model_args": "path=/cpfs01/user/shenxuyang/LLM/Models/transnormerLLM-410m/hf/410m-432000,max_length=2048,dtype=bfloat16",
    "num_fewshot": 5,
    "batch_size": "auto",
    "batch_sizes": [
      32
    ],
    "device": "cuda:1",
    "no_cache": false,
    "limit": null,
    "bootstrap_iters": 100000,
    "description_dict": {}
  }
}