{
  "results": {
    "Ceval-valid-accountant": {
      "acc": 0.22448979591836735,
      "acc_stderr": 0.06022425581505364,
      "acc_norm": 0.22448979591836735,
      "acc_norm_stderr": 0.06022425581505364
    },
    "Ceval-valid-advanced_mathematics": {
      "acc": 0.2631578947368421,
      "acc_stderr": 0.10379087338771256,
      "acc_norm": 0.2631578947368421,
      "acc_norm_stderr": 0.10379087338771256
    },
    "Ceval-valid-art_studies": {
      "acc": 0.30303030303030304,
      "acc_stderr": 0.08124094920275461,
      "acc_norm": 0.30303030303030304,
      "acc_norm_stderr": 0.08124094920275461
    },
    "Ceval-valid-basic_medicine": {
      "acc": 0.21052631578947367,
      "acc_stderr": 0.0960916767552923,
      "acc_norm": 0.21052631578947367,
      "acc_norm_stderr": 0.0960916767552923
    },
    "Ceval-valid-business_administration": {
      "acc": 0.18181818181818182,
      "acc_stderr": 0.06818181818181816,
      "acc_norm": 0.18181818181818182,
      "acc_norm_stderr": 0.06818181818181816
    },
    "Ceval-valid-chinese_language_and_literature": {
      "acc": 0.21739130434782608,
      "acc_stderr": 0.08793911249520549,
      "acc_norm": 0.21739130434782608,
      "acc_norm_stderr": 0.08793911249520549
    },
    "Ceval-valid-civil_servant": {
      "acc": 0.2765957446808511,
      "acc_stderr": 0.06595297051445341,
      "acc_norm": 0.2765957446808511,
      "acc_norm_stderr": 0.06595297051445341
    },
    "Ceval-valid-clinical_medicine": {
      "acc": 0.3181818181818182,
      "acc_stderr": 0.10163945352271772,
      "acc_norm": 0.3181818181818182,
      "acc_norm_stderr": 0.10163945352271772
    },
    "Ceval-valid-college_chemistry": {
      "acc": 0.20833333333333334,
      "acc_stderr": 0.08468112965594378,
      "acc_norm": 0.20833333333333334,
      "acc_norm_stderr": 0.08468112965594378
    },
    "Ceval-valid-college_economics": {
      "acc": 0.3090909090909091,
      "acc_stderr": 0.06288639360110458,
      "acc_norm": 0.3090909090909091,
      "acc_norm_stderr": 0.06288639360110458
    },
    "Ceval-valid-college_physics": {
      "acc": 0.42105263157894735,
      "acc_stderr": 0.11637279966159299,
      "acc_norm": 0.42105263157894735,
      "acc_norm_stderr": 0.11637279966159299
    },
    "Ceval-valid-college_programming": {
      "acc": 0.24324324324324326,
      "acc_stderr": 0.07150679219093488,
      "acc_norm": 0.24324324324324326,
      "acc_norm_stderr": 0.07150679219093488
    },
    "Ceval-valid-computer_architecture": {
      "acc": 0.2857142857142857,
      "acc_stderr": 0.10101525445522108,
      "acc_norm": 0.2857142857142857,
      "acc_norm_stderr": 0.10101525445522108
    },
    "Ceval-valid-computer_network": {
      "acc": 0.15789473684210525,
      "acc_stderr": 0.08594700851870798,
      "acc_norm": 0.15789473684210525,
      "acc_norm_stderr": 0.08594700851870798
    },
    "Ceval-valid-discrete_mathematics": {
      "acc": 0.3125,
      "acc_stderr": 0.11967838846954226,
      "acc_norm": 0.3125,
      "acc_norm_stderr": 0.11967838846954226
    },
    "Ceval-valid-education_science": {
      "acc": 0.2413793103448276,
      "acc_stderr": 0.080869237238335,
      "acc_norm": 0.2413793103448276,
      "acc_norm_stderr": 0.080869237238335
    },
    "Ceval-valid-electrical_engineer": {
      "acc": 0.1891891891891892,
      "acc_stderr": 0.06527647182968213,
      "acc_norm": 0.1891891891891892,
      "acc_norm_stderr": 0.06527647182968213
    },
    "Ceval-valid-environmental_impact_assessment_engineer": {
      "acc": 0.16129032258064516,
      "acc_stderr": 0.06715051611181073,
      "acc_norm": 0.16129032258064516,
      "acc_norm_stderr": 0.06715051611181073
    },
    "Ceval-valid-fire_engineer": {
      "acc": 0.1935483870967742,
      "acc_stderr": 0.07213122508063838,
      "acc_norm": 0.1935483870967742,
      "acc_norm_stderr": 0.07213122508063838
    },
    "Ceval-valid-high_school_biology": {
      "acc": 0.42105263157894735,
      "acc_stderr": 0.11637279966159299,
      "acc_norm": 0.42105263157894735,
      "acc_norm_stderr": 0.11637279966159299
    },
    "Ceval-valid-high_school_chemistry": {
      "acc": 0.2631578947368421,
      "acc_stderr": 0.10379087338771256,
      "acc_norm": 0.2631578947368421,
      "acc_norm_stderr": 0.10379087338771256
    },
    "Ceval-valid-high_school_chinese": {
      "acc": 0.2631578947368421,
      "acc_stderr": 0.10379087338771256,
      "acc_norm": 0.2631578947368421,
      "acc_norm_stderr": 0.10379087338771256
    },
    "Ceval-valid-high_school_geography": {
      "acc": 0.10526315789473684,
      "acc_stderr": 0.07233518641434492,
      "acc_norm": 0.10526315789473684,
      "acc_norm_stderr": 0.07233518641434492
    },
    "Ceval-valid-high_school_history": {
      "acc": 0.15,
      "acc_stderr": 0.0819178021909125,
      "acc_norm": 0.15,
      "acc_norm_stderr": 0.0819178021909125
    },
    "Ceval-valid-high_school_mathematics": {
      "acc": 0.2222222222222222,
      "acc_stderr": 0.10083169033033672,
      "acc_norm": 0.2222222222222222,
      "acc_norm_stderr": 0.10083169033033672
    },
    "Ceval-valid-high_school_physics": {
      "acc": 0.15789473684210525,
      "acc_stderr": 0.08594700851870798,
      "acc_norm": 0.15789473684210525,
      "acc_norm_stderr": 0.08594700851870798
    },
    "Ceval-valid-high_school_politics": {
      "acc": 0.3157894736842105,
      "acc_stderr": 0.10956136839295433,
      "acc_norm": 0.3157894736842105,
      "acc_norm_stderr": 0.10956136839295433
    },
    "Ceval-valid-ideological_and_moral_cultivation": {
      "acc": 0.3157894736842105,
      "acc_stderr": 0.10956136839295434,
      "acc_norm": 0.3157894736842105,
      "acc_norm_stderr": 0.10956136839295434
    },
    "Ceval-valid-law": {
      "acc": 0.20833333333333334,
      "acc_stderr": 0.08468112965594378,
      "acc_norm": 0.20833333333333334,
      "acc_norm_stderr": 0.08468112965594378
    },
    "Ceval-valid-legal_professional": {
      "acc": 0.08695652173913043,
      "acc_stderr": 0.06007385040937022,
      "acc_norm": 0.08695652173913043,
      "acc_norm_stderr": 0.06007385040937022
    },
    "Ceval-valid-logic": {
      "acc": 0.2727272727272727,
      "acc_stderr": 0.0971859061499725,
      "acc_norm": 0.2727272727272727,
      "acc_norm_stderr": 0.0971859061499725
    },
    "Ceval-valid-mao_zedong_thought": {
      "acc": 0.3333333333333333,
      "acc_stderr": 0.0982946374365981,
      "acc_norm": 0.3333333333333333,
      "acc_norm_stderr": 0.0982946374365981
    },
    "Ceval-valid-marxism": {
      "acc": 0.2631578947368421,
      "acc_stderr": 0.10379087338771256,
      "acc_norm": 0.2631578947368421,
      "acc_norm_stderr": 0.10379087338771256
    },
    "Ceval-valid-metrology_engineer": {
      "acc": 0.20833333333333334,
      "acc_stderr": 0.08468112965594378,
      "acc_norm": 0.20833333333333334,
      "acc_norm_stderr": 0.08468112965594378
    },
    "Ceval-valid-middle_school_biology": {
      "acc": 0.2857142857142857,
      "acc_stderr": 0.10101525445522108,
      "acc_norm": 0.2857142857142857,
      "acc_norm_stderr": 0.10101525445522108
    },
    "Ceval-valid-middle_school_chemistry": {
      "acc": 0.35,
      "acc_stderr": 0.10942433098048308,
      "acc_norm": 0.35,
      "acc_norm_stderr": 0.10942433098048308
    },
    "Ceval-valid-middle_school_geography": {
      "acc": 0.16666666666666666,
      "acc_stderr": 0.11236664374387369,
      "acc_norm": 0.16666666666666666,
      "acc_norm_stderr": 0.11236664374387369
    },
    "Ceval-valid-middle_school_history": {
      "acc": 0.3181818181818182,
      "acc_stderr": 0.10163945352271771,
      "acc_norm": 0.3181818181818182,
      "acc_norm_stderr": 0.10163945352271771
    },
    "Ceval-valid-middle_school_mathematics": {
      "acc": 0.10526315789473684,
      "acc_stderr": 0.0723351864143449,
      "acc_norm": 0.10526315789473684,
      "acc_norm_stderr": 0.0723351864143449
    },
    "Ceval-valid-middle_school_physics": {
      "acc": 0.3684210526315789,
      "acc_stderr": 0.11369720523522561,
      "acc_norm": 0.3684210526315789,
      "acc_norm_stderr": 0.11369720523522561
    },
    "Ceval-valid-middle_school_politics": {
      "acc": 0.2857142857142857,
      "acc_stderr": 0.10101525445522108,
      "acc_norm": 0.2857142857142857,
      "acc_norm_stderr": 0.10101525445522108
    },
    "Ceval-valid-modern_chinese_history": {
      "acc": 0.2608695652173913,
      "acc_stderr": 0.09361833424764435,
      "acc_norm": 0.2608695652173913,
      "acc_norm_stderr": 0.09361833424764435
    },
    "Ceval-valid-operating_system": {
      "acc": 0.15789473684210525,
      "acc_stderr": 0.08594700851870798,
      "acc_norm": 0.15789473684210525,
      "acc_norm_stderr": 0.08594700851870798
    },
    "Ceval-valid-physician": {
      "acc": 0.16326530612244897,
      "acc_stderr": 0.05334825558285076,
      "acc_norm": 0.16326530612244897,
      "acc_norm_stderr": 0.05334825558285076
    },
    "Ceval-valid-plant_protection": {
      "acc": 0.3181818181818182,
      "acc_stderr": 0.10163945352271771,
      "acc_norm": 0.3181818181818182,
      "acc_norm_stderr": 0.10163945352271771
    },
    "Ceval-valid-probability_and_statistics": {
      "acc": 0.2222222222222222,
      "acc_stderr": 0.10083169033033673,
      "acc_norm": 0.2222222222222222,
      "acc_norm_stderr": 0.10083169033033673
    },
    "Ceval-valid-professional_tour_guide": {
      "acc": 0.3103448275862069,
      "acc_stderr": 0.08742975048915692,
      "acc_norm": 0.3103448275862069,
      "acc_norm_stderr": 0.08742975048915692
    },
    "Ceval-valid-sports_science": {
      "acc": 0.05263157894736842,
      "acc_stderr": 0.05263157894736842,
      "acc_norm": 0.05263157894736842,
      "acc_norm_stderr": 0.05263157894736842
    },
    "Ceval-valid-tax_accountant": {
      "acc": 0.22448979591836735,
      "acc_stderr": 0.06022425581505364,
      "acc_norm": 0.22448979591836735,
      "acc_norm_stderr": 0.06022425581505364
    },
    "Ceval-valid-teacher_qualification": {
      "acc": 0.29545454545454547,
      "acc_stderr": 0.0695769871445399,
      "acc_norm": 0.29545454545454547,
      "acc_norm_stderr": 0.0695769871445399
    },
    "Ceval-valid-urban_and_rural_planner": {
      "acc": 0.21739130434782608,
      "acc_stderr": 0.06148754619013454,
      "acc_norm": 0.21739130434782608,
      "acc_norm_stderr": 0.06148754619013454
    },
    "Ceval-valid-veterinary_medicine": {
      "acc": 0.21739130434782608,
      "acc_stderr": 0.0879391124952055,
      "acc_norm": 0.21739130434782608,
      "acc_norm_stderr": 0.0879391124952055
    }
  },
  "versions": {
    "Ceval-valid-accountant": 1,
    "Ceval-valid-advanced_mathematics": 1,
    "Ceval-valid-art_studies": 1,
    "Ceval-valid-basic_medicine": 1,
    "Ceval-valid-business_administration": 1,
    "Ceval-valid-chinese_language_and_literature": 1,
    "Ceval-valid-civil_servant": 1,
    "Ceval-valid-clinical_medicine": 1,
    "Ceval-valid-college_chemistry": 1,
    "Ceval-valid-college_economics": 1,
    "Ceval-valid-college_physics": 1,
    "Ceval-valid-college_programming": 1,
    "Ceval-valid-computer_architecture": 1,
    "Ceval-valid-computer_network": 1,
    "Ceval-valid-discrete_mathematics": 1,
    "Ceval-valid-education_science": 1,
    "Ceval-valid-electrical_engineer": 1,
    "Ceval-valid-environmental_impact_assessment_engineer": 1,
    "Ceval-valid-fire_engineer": 1,
    "Ceval-valid-high_school_biology": 1,
    "Ceval-valid-high_school_chemistry": 1,
    "Ceval-valid-high_school_chinese": 1,
    "Ceval-valid-high_school_geography": 1,
    "Ceval-valid-high_school_history": 1,
    "Ceval-valid-high_school_mathematics": 1,
    "Ceval-valid-high_school_physics": 1,
    "Ceval-valid-high_school_politics": 1,
    "Ceval-valid-ideological_and_moral_cultivation": 1,
    "Ceval-valid-law": 1,
    "Ceval-valid-legal_professional": 1,
    "Ceval-valid-logic": 1,
    "Ceval-valid-mao_zedong_thought": 1,
    "Ceval-valid-marxism": 1,
    "Ceval-valid-metrology_engineer": 1,
    "Ceval-valid-middle_school_biology": 1,
    "Ceval-valid-middle_school_chemistry": 1,
    "Ceval-valid-middle_school_geography": 1,
    "Ceval-valid-middle_school_history": 1,
    "Ceval-valid-middle_school_mathematics": 1,
    "Ceval-valid-middle_school_physics": 1,
    "Ceval-valid-middle_school_politics": 1,
    "Ceval-valid-modern_chinese_history": 1,
    "Ceval-valid-operating_system": 1,
    "Ceval-valid-physician": 1,
    "Ceval-valid-plant_protection": 1,
    "Ceval-valid-probability_and_statistics": 1,
    "Ceval-valid-professional_tour_guide": 1,
    "Ceval-valid-sports_science": 1,
    "Ceval-valid-tax_accountant": 1,
    "Ceval-valid-teacher_qualification": 1,
    "Ceval-valid-urban_and_rural_planner": 1,
    "Ceval-valid-veterinary_medicine": 1
  },
  "config": {
    "model": "transnormer2",
    "model_args": "path=/cpfs01/user/shenxuyang/LLM/Models/transnormerLLM-410m/hf/410m-250000,max_length=2048,dtype=bfloat16",
    "num_fewshot": 5,
    "batch_size": "auto",
    "batch_sizes": [],
    "device": "cuda:1",
    "no_cache": false,
    "limit": null,
    "bootstrap_iters": 100000,
    "description_dict": {}
  }
}