{
  "results": {
    "hendrycksTest-abstract_algebra": {
      "acc": 0.25,
      "acc_stderr": 0.04351941398892446,
      "acc_norm": 0.25,
      "acc_norm_stderr": 0.04351941398892446
    },
    "hendrycksTest-anatomy": {
      "acc": 0.32592592592592595,
      "acc_stderr": 0.040491220417025055,
      "acc_norm": 0.32592592592592595,
      "acc_norm_stderr": 0.040491220417025055
    },
    "hendrycksTest-astronomy": {
      "acc": 0.29605263157894735,
      "acc_stderr": 0.037150621549989056,
      "acc_norm": 0.29605263157894735,
      "acc_norm_stderr": 0.037150621549989056
    },
    "hendrycksTest-business_ethics": {
      "acc": 0.25,
      "acc_stderr": 0.04351941398892446,
      "acc_norm": 0.25,
      "acc_norm_stderr": 0.04351941398892446
    },
    "hendrycksTest-clinical_knowledge": {
      "acc": 0.25660377358490566,
      "acc_stderr": 0.026880647889051975,
      "acc_norm": 0.25660377358490566,
      "acc_norm_stderr": 0.026880647889051975
    },
    "hendrycksTest-college_biology": {
      "acc": 0.2847222222222222,
      "acc_stderr": 0.03773809990686935,
      "acc_norm": 0.2847222222222222,
      "acc_norm_stderr": 0.03773809990686935
    },
    "hendrycksTest-college_chemistry": {
      "acc": 0.19,
      "acc_stderr": 0.03942772444036623,
      "acc_norm": 0.19,
      "acc_norm_stderr": 0.03942772444036623
    },
    "hendrycksTest-college_computer_science": {
      "acc": 0.3,
      "acc_stderr": 0.046056618647183814,
      "acc_norm": 0.3,
      "acc_norm_stderr": 0.046056618647183814
    },
    "hendrycksTest-college_mathematics": {
      "acc": 0.21,
      "acc_stderr": 0.040936018074033256,
      "acc_norm": 0.21,
      "acc_norm_stderr": 0.040936018074033256
    },
    "hendrycksTest-college_medicine": {
      "acc": 0.1907514450867052,
      "acc_stderr": 0.029957851329869334,
      "acc_norm": 0.1907514450867052,
      "acc_norm_stderr": 0.029957851329869334
    },
    "hendrycksTest-college_physics": {
      "acc": 0.2549019607843137,
      "acc_stderr": 0.043364327079931785,
      "acc_norm": 0.2549019607843137,
      "acc_norm_stderr": 0.043364327079931785
    },
    "hendrycksTest-computer_security": {
      "acc": 0.27,
      "acc_stderr": 0.0446196043338474,
      "acc_norm": 0.27,
      "acc_norm_stderr": 0.0446196043338474
    },
    "hendrycksTest-conceptual_physics": {
      "acc": 0.3191489361702128,
      "acc_stderr": 0.030472973363380042,
      "acc_norm": 0.3191489361702128,
      "acc_norm_stderr": 0.030472973363380042
    },
    "hendrycksTest-econometrics": {
      "acc": 0.2719298245614035,
      "acc_stderr": 0.04185774424022057,
      "acc_norm": 0.2719298245614035,
      "acc_norm_stderr": 0.04185774424022057
    },
    "hendrycksTest-electrical_engineering": {
      "acc": 0.2689655172413793,
      "acc_stderr": 0.036951833116502325,
      "acc_norm": 0.2689655172413793,
      "acc_norm_stderr": 0.036951833116502325
    },
    "hendrycksTest-elementary_mathematics": {
      "acc": 0.291005291005291,
      "acc_stderr": 0.023393826500484865,
      "acc_norm": 0.291005291005291,
      "acc_norm_stderr": 0.023393826500484865
    },
    "hendrycksTest-formal_logic": {
      "acc": 0.15873015873015872,
      "acc_stderr": 0.03268454013011743,
      "acc_norm": 0.15873015873015872,
      "acc_norm_stderr": 0.03268454013011743
    },
    "hendrycksTest-global_facts": {
      "acc": 0.34,
      "acc_stderr": 0.047609522856952365,
      "acc_norm": 0.34,
      "acc_norm_stderr": 0.047609522856952365
    },
    "hendrycksTest-high_school_biology": {
      "acc": 0.24838709677419354,
      "acc_stderr": 0.024580028921481,
      "acc_norm": 0.24838709677419354,
      "acc_norm_stderr": 0.024580028921481
    },
    "hendrycksTest-high_school_chemistry": {
      "acc": 0.2512315270935961,
      "acc_stderr": 0.030516530732694433,
      "acc_norm": 0.2512315270935961,
      "acc_norm_stderr": 0.030516530732694433
    },
    "hendrycksTest-high_school_computer_science": {
      "acc": 0.32,
      "acc_stderr": 0.04688261722621505,
      "acc_norm": 0.32,
      "acc_norm_stderr": 0.04688261722621505
    },
    "hendrycksTest-high_school_european_history": {
      "acc": 0.24242424242424243,
      "acc_stderr": 0.03346409881055953,
      "acc_norm": 0.24242424242424243,
      "acc_norm_stderr": 0.03346409881055953
    },
    "hendrycksTest-high_school_geography": {
      "acc": 0.25252525252525254,
      "acc_stderr": 0.030954055470365907,
      "acc_norm": 0.25252525252525254,
      "acc_norm_stderr": 0.030954055470365907
    },
    "hendrycksTest-high_school_government_and_politics": {
      "acc": 0.23834196891191708,
      "acc_stderr": 0.030748905363909892,
      "acc_norm": 0.23834196891191708,
      "acc_norm_stderr": 0.030748905363909892
    },
    "hendrycksTest-high_school_macroeconomics": {
      "acc": 0.3,
      "acc_stderr": 0.023234581088428494,
      "acc_norm": 0.3,
      "acc_norm_stderr": 0.023234581088428494
    },
    "hendrycksTest-high_school_mathematics": {
      "acc": 0.24074074074074073,
      "acc_stderr": 0.026067159222275798,
      "acc_norm": 0.24074074074074073,
      "acc_norm_stderr": 0.026067159222275798
    },
    "hendrycksTest-high_school_microeconomics": {
      "acc": 0.23529411764705882,
      "acc_stderr": 0.027553614467863797,
      "acc_norm": 0.23529411764705882,
      "acc_norm_stderr": 0.027553614467863797
    },
    "hendrycksTest-high_school_physics": {
      "acc": 0.25165562913907286,
      "acc_stderr": 0.03543304234389985,
      "acc_norm": 0.25165562913907286,
      "acc_norm_stderr": 0.03543304234389985
    },
    "hendrycksTest-high_school_psychology": {
      "acc": 0.23669724770642203,
      "acc_stderr": 0.01822407811729908,
      "acc_norm": 0.23669724770642203,
      "acc_norm_stderr": 0.01822407811729908
    },
    "hendrycksTest-high_school_statistics": {
      "acc": 0.3425925925925926,
      "acc_stderr": 0.03236585252602158,
      "acc_norm": 0.3425925925925926,
      "acc_norm_stderr": 0.03236585252602158
    },
    "hendrycksTest-high_school_us_history": {
      "acc": 0.2549019607843137,
      "acc_stderr": 0.030587591351604246,
      "acc_norm": 0.2549019607843137,
      "acc_norm_stderr": 0.030587591351604246
    },
    "hendrycksTest-high_school_world_history": {
      "acc": 0.26582278481012656,
      "acc_stderr": 0.028756799629658335,
      "acc_norm": 0.26582278481012656,
      "acc_norm_stderr": 0.028756799629658335
    },
    "hendrycksTest-human_aging": {
      "acc": 0.32286995515695066,
      "acc_stderr": 0.03138147637575499,
      "acc_norm": 0.32286995515695066,
      "acc_norm_stderr": 0.03138147637575499
    },
    "hendrycksTest-human_sexuality": {
      "acc": 0.2366412213740458,
      "acc_stderr": 0.037276735755969195,
      "acc_norm": 0.2366412213740458,
      "acc_norm_stderr": 0.037276735755969195
    },
    "hendrycksTest-international_law": {
      "acc": 0.3884297520661157,
      "acc_stderr": 0.04449270350068382,
      "acc_norm": 0.3884297520661157,
      "acc_norm_stderr": 0.04449270350068382
    },
    "hendrycksTest-jurisprudence": {
      "acc": 0.2962962962962963,
      "acc_stderr": 0.044143436668549335,
      "acc_norm": 0.2962962962962963,
      "acc_norm_stderr": 0.044143436668549335
    },
    "hendrycksTest-logical_fallacies": {
      "acc": 0.27607361963190186,
      "acc_stderr": 0.03512385283705051,
      "acc_norm": 0.27607361963190186,
      "acc_norm_stderr": 0.03512385283705051
    },
    "hendrycksTest-machine_learning": {
      "acc": 0.2767857142857143,
      "acc_stderr": 0.04246624336697626,
      "acc_norm": 0.2767857142857143,
      "acc_norm_stderr": 0.04246624336697626
    },
    "hendrycksTest-management": {
      "acc": 0.2815533980582524,
      "acc_stderr": 0.04453254836326468,
      "acc_norm": 0.2815533980582524,
      "acc_norm_stderr": 0.04453254836326468
    },
    "hendrycksTest-marketing": {
      "acc": 0.2264957264957265,
      "acc_stderr": 0.027421007295392933,
      "acc_norm": 0.2264957264957265,
      "acc_norm_stderr": 0.027421007295392933
    },
    "hendrycksTest-medical_genetics": {
      "acc": 0.25,
      "acc_stderr": 0.04351941398892446,
      "acc_norm": 0.25,
      "acc_norm_stderr": 0.04351941398892446
    },
    "hendrycksTest-miscellaneous": {
      "acc": 0.28735632183908044,
      "acc_stderr": 0.0161824107306827,
      "acc_norm": 0.28735632183908044,
      "acc_norm_stderr": 0.0161824107306827
    },
    "hendrycksTest-moral_disputes": {
      "acc": 0.26011560693641617,
      "acc_stderr": 0.023618678310069367,
      "acc_norm": 0.26011560693641617,
      "acc_norm_stderr": 0.023618678310069367
    },
    "hendrycksTest-moral_scenarios": {
      "acc": 0.24692737430167597,
      "acc_stderr": 0.014422292204808835,
      "acc_norm": 0.24692737430167597,
      "acc_norm_stderr": 0.014422292204808835
    },
    "hendrycksTest-nutrition": {
      "acc": 0.2549019607843137,
      "acc_stderr": 0.02495418432487991,
      "acc_norm": 0.2549019607843137,
      "acc_norm_stderr": 0.02495418432487991
    },
    "hendrycksTest-philosophy": {
      "acc": 0.2797427652733119,
      "acc_stderr": 0.025494259350694905,
      "acc_norm": 0.2797427652733119,
      "acc_norm_stderr": 0.025494259350694905
    },
    "hendrycksTest-prehistory": {
      "acc": 0.2345679012345679,
      "acc_stderr": 0.023576881744005723,
      "acc_norm": 0.2345679012345679,
      "acc_norm_stderr": 0.023576881744005723
    },
    "hendrycksTest-professional_accounting": {
      "acc": 0.2872340425531915,
      "acc_stderr": 0.02699219917306436,
      "acc_norm": 0.2872340425531915,
      "acc_norm_stderr": 0.02699219917306436
    },
    "hendrycksTest-professional_law": {
      "acc": 0.23663624511082137,
      "acc_stderr": 0.01085513735157274,
      "acc_norm": 0.23663624511082137,
      "acc_norm_stderr": 0.01085513735157274
    },
    "hendrycksTest-professional_medicine": {
      "acc": 0.29044117647058826,
      "acc_stderr": 0.027576468622740526,
      "acc_norm": 0.29044117647058826,
      "acc_norm_stderr": 0.027576468622740526
    },
    "hendrycksTest-professional_psychology": {
      "acc": 0.27124183006535946,
      "acc_stderr": 0.017986615304030305,
      "acc_norm": 0.27124183006535946,
      "acc_norm_stderr": 0.017986615304030305
    },
    "hendrycksTest-public_relations": {
      "acc": 0.34545454545454546,
      "acc_stderr": 0.04554619617541054,
      "acc_norm": 0.34545454545454546,
      "acc_norm_stderr": 0.04554619617541054
    },
    "hendrycksTest-security_studies": {
      "acc": 0.1673469387755102,
      "acc_stderr": 0.023897144768914524,
      "acc_norm": 0.1673469387755102,
      "acc_norm_stderr": 0.023897144768914524
    },
    "hendrycksTest-sociology": {
      "acc": 0.2537313432835821,
      "acc_stderr": 0.03076944496729601,
      "acc_norm": 0.2537313432835821,
      "acc_norm_stderr": 0.03076944496729601
    },
    "hendrycksTest-us_foreign_policy": {
      "acc": 0.25,
      "acc_stderr": 0.04351941398892446,
      "acc_norm": 0.25,
      "acc_norm_stderr": 0.04351941398892446
    },
    "hendrycksTest-virology": {
      "acc": 0.3192771084337349,
      "acc_stderr": 0.036293353299478595,
      "acc_norm": 0.3192771084337349,
      "acc_norm_stderr": 0.036293353299478595
    },
    "hendrycksTest-world_religions": {
      "acc": 0.29239766081871343,
      "acc_stderr": 0.034886477134579215,
      "acc_norm": 0.29239766081871343,
      "acc_norm_stderr": 0.034886477134579215
    }
  },
  "versions": {
    "hendrycksTest-abstract_algebra": 1,
    "hendrycksTest-anatomy": 1,
    "hendrycksTest-astronomy": 1,
    "hendrycksTest-business_ethics": 1,
    "hendrycksTest-clinical_knowledge": 1,
    "hendrycksTest-college_biology": 1,
    "hendrycksTest-college_chemistry": 1,
    "hendrycksTest-college_computer_science": 1,
    "hendrycksTest-college_mathematics": 1,
    "hendrycksTest-college_medicine": 1,
    "hendrycksTest-college_physics": 1,
    "hendrycksTest-computer_security": 1,
    "hendrycksTest-conceptual_physics": 1,
    "hendrycksTest-econometrics": 1,
    "hendrycksTest-electrical_engineering": 1,
    "hendrycksTest-elementary_mathematics": 1,
    "hendrycksTest-formal_logic": 1,
    "hendrycksTest-global_facts": 1,
    "hendrycksTest-high_school_biology": 1,
    "hendrycksTest-high_school_chemistry": 1,
    "hendrycksTest-high_school_computer_science": 1,
    "hendrycksTest-high_school_european_history": 1,
    "hendrycksTest-high_school_geography": 1,
    "hendrycksTest-high_school_government_and_politics": 1,
    "hendrycksTest-high_school_macroeconomics": 1,
    "hendrycksTest-high_school_mathematics": 1,
    "hendrycksTest-high_school_microeconomics": 1,
    "hendrycksTest-high_school_physics": 1,
    "hendrycksTest-high_school_psychology": 1,
    "hendrycksTest-high_school_statistics": 1,
    "hendrycksTest-high_school_us_history": 1,
    "hendrycksTest-high_school_world_history": 1,
    "hendrycksTest-human_aging": 1,
    "hendrycksTest-human_sexuality": 1,
    "hendrycksTest-international_law": 1,
    "hendrycksTest-jurisprudence": 1,
    "hendrycksTest-logical_fallacies": 1,
    "hendrycksTest-machine_learning": 1,
    "hendrycksTest-management": 1,
    "hendrycksTest-marketing": 1,
    "hendrycksTest-medical_genetics": 1,
    "hendrycksTest-miscellaneous": 1,
    "hendrycksTest-moral_disputes": 1,
    "hendrycksTest-moral_scenarios": 1,
    "hendrycksTest-nutrition": 1,
    "hendrycksTest-philosophy": 1,
    "hendrycksTest-prehistory": 1,
    "hendrycksTest-professional_accounting": 1,
    "hendrycksTest-professional_law": 1,
    "hendrycksTest-professional_medicine": 1,
    "hendrycksTest-professional_psychology": 1,
    "hendrycksTest-public_relations": 1,
    "hendrycksTest-security_studies": 1,
    "hendrycksTest-sociology": 1,
    "hendrycksTest-us_foreign_policy": 1,
    "hendrycksTest-virology": 1,
    "hendrycksTest-world_religions": 1
  },
  "config": {
    "model": "hf-causal",
    "model_args": "pretrained=EleutherAI/pythia-6.9b,dtype=float16",
    "num_fewshot": 5,
    "batch_size": "auto",
    "batch_sizes": [
      8
    ],
    "device": "cuda:0",
    "no_cache": false,
    "limit": null,
    "bootstrap_iters": 100000,
    "description_dict": {}
  }
}