{
  "results": {
    "Ceval-valid-accountant": {
      "acc": 0.1836734693877551,
      "acc_stderr": 0.05589005688828227,
      "acc_norm": 0.1836734693877551,
      "acc_norm_stderr": 0.05589005688828227
    },
    "Ceval-valid-advanced_mathematics": {
      "acc": 0.21052631578947367,
      "acc_stderr": 0.0960916767552923,
      "acc_norm": 0.21052631578947367,
      "acc_norm_stderr": 0.0960916767552923
    },
    "Ceval-valid-art_studies": {
      "acc": 0.15151515151515152,
      "acc_stderr": 0.06338333534349057,
      "acc_norm": 0.15151515151515152,
      "acc_norm_stderr": 0.06338333534349057
    },
    "Ceval-valid-basic_medicine": {
      "acc": 0.10526315789473684,
      "acc_stderr": 0.0723351864143449,
      "acc_norm": 0.10526315789473684,
      "acc_norm_stderr": 0.0723351864143449
    },
    "Ceval-valid-business_administration": {
      "acc": 0.45454545454545453,
      "acc_stderr": 0.08802234877744129,
      "acc_norm": 0.45454545454545453,
      "acc_norm_stderr": 0.08802234877744129
    },
    "Ceval-valid-chinese_language_and_literature": {
      "acc": 0.21739130434782608,
      "acc_stderr": 0.08793911249520549,
      "acc_norm": 0.21739130434782608,
      "acc_norm_stderr": 0.08793911249520549
    },
    "Ceval-valid-civil_servant": {
      "acc": 0.14893617021276595,
      "acc_stderr": 0.05249310253140094,
      "acc_norm": 0.14893617021276595,
      "acc_norm_stderr": 0.05249310253140094
    },
    "Ceval-valid-clinical_medicine": {
      "acc": 0.2727272727272727,
      "acc_stderr": 0.0971859061499725,
      "acc_norm": 0.2727272727272727,
      "acc_norm_stderr": 0.0971859061499725
    },
    "Ceval-valid-college_chemistry": {
      "acc": 0.16666666666666666,
      "acc_stderr": 0.07770873402002615,
      "acc_norm": 0.16666666666666666,
      "acc_norm_stderr": 0.07770873402002615
    },
    "Ceval-valid-college_economics": {
      "acc": 0.3090909090909091,
      "acc_stderr": 0.06288639360110458,
      "acc_norm": 0.3090909090909091,
      "acc_norm_stderr": 0.06288639360110458
    },
    "Ceval-valid-college_physics": {
      "acc": 0.10526315789473684,
      "acc_stderr": 0.07233518641434492,
      "acc_norm": 0.10526315789473684,
      "acc_norm_stderr": 0.07233518641434492
    },
    "Ceval-valid-college_programming": {
      "acc": 0.2972972972972973,
      "acc_stderr": 0.07617808344724214,
      "acc_norm": 0.2972972972972973,
      "acc_norm_stderr": 0.07617808344724214
    },
    "Ceval-valid-computer_architecture": {
      "acc": 0.23809523809523808,
      "acc_stderr": 0.09523809523809523,
      "acc_norm": 0.23809523809523808,
      "acc_norm_stderr": 0.09523809523809523
    },
    "Ceval-valid-computer_network": {
      "acc": 0.3157894736842105,
      "acc_stderr": 0.10956136839295434,
      "acc_norm": 0.3157894736842105,
      "acc_norm_stderr": 0.10956136839295434
    },
    "Ceval-valid-discrete_mathematics": {
      "acc": 0.25,
      "acc_stderr": 0.11180339887498948,
      "acc_norm": 0.25,
      "acc_norm_stderr": 0.11180339887498948
    },
    "Ceval-valid-education_science": {
      "acc": 0.3448275862068966,
      "acc_stderr": 0.08982552969857374,
      "acc_norm": 0.3448275862068966,
      "acc_norm_stderr": 0.08982552969857374
    },
    "Ceval-valid-electrical_engineer": {
      "acc": 0.1891891891891892,
      "acc_stderr": 0.06527647182968213,
      "acc_norm": 0.1891891891891892,
      "acc_norm_stderr": 0.06527647182968213
    },
    "Ceval-valid-environmental_impact_assessment_engineer": {
      "acc": 0.1935483870967742,
      "acc_stderr": 0.07213122508063838,
      "acc_norm": 0.1935483870967742,
      "acc_norm_stderr": 0.07213122508063838
    },
    "Ceval-valid-fire_engineer": {
      "acc": 0.22580645161290322,
      "acc_stderr": 0.07633651333031764,
      "acc_norm": 0.22580645161290322,
      "acc_norm_stderr": 0.07633651333031764
    },
    "Ceval-valid-high_school_biology": {
      "acc": 0.21052631578947367,
      "acc_stderr": 0.0960916767552923,
      "acc_norm": 0.21052631578947367,
      "acc_norm_stderr": 0.0960916767552923
    },
    "Ceval-valid-high_school_chemistry": {
      "acc": 0.21052631578947367,
      "acc_stderr": 0.0960916767552923,
      "acc_norm": 0.21052631578947367,
      "acc_norm_stderr": 0.0960916767552923
    },
    "Ceval-valid-high_school_chinese": {
      "acc": 0.21052631578947367,
      "acc_stderr": 0.0960916767552923,
      "acc_norm": 0.21052631578947367,
      "acc_norm_stderr": 0.0960916767552923
    },
    "Ceval-valid-high_school_geography": {
      "acc": 0.21052631578947367,
      "acc_stderr": 0.0960916767552923,
      "acc_norm": 0.21052631578947367,
      "acc_norm_stderr": 0.0960916767552923
    },
    "Ceval-valid-high_school_history": {
      "acc": 0.25,
      "acc_stderr": 0.09933992677987828,
      "acc_norm": 0.25,
      "acc_norm_stderr": 0.09933992677987828
    },
    "Ceval-valid-high_school_mathematics": {
      "acc": 0.1111111111111111,
      "acc_stderr": 0.07622159339667062,
      "acc_norm": 0.1111111111111111,
      "acc_norm_stderr": 0.07622159339667062
    },
    "Ceval-valid-high_school_physics": {
      "acc": 0.3157894736842105,
      "acc_stderr": 0.10956136839295433,
      "acc_norm": 0.3157894736842105,
      "acc_norm_stderr": 0.10956136839295433
    },
    "Ceval-valid-high_school_politics": {
      "acc": 0.3684210526315789,
      "acc_stderr": 0.1136972052352256,
      "acc_norm": 0.3684210526315789,
      "acc_norm_stderr": 0.1136972052352256
    },
    "Ceval-valid-ideological_and_moral_cultivation": {
      "acc": 0.3157894736842105,
      "acc_stderr": 0.10956136839295434,
      "acc_norm": 0.3157894736842105,
      "acc_norm_stderr": 0.10956136839295434
    },
    "Ceval-valid-law": {
      "acc": 0.08333333333333333,
      "acc_stderr": 0.05763033956734371,
      "acc_norm": 0.08333333333333333,
      "acc_norm_stderr": 0.05763033956734371
    },
    "Ceval-valid-legal_professional": {
      "acc": 0.17391304347826086,
      "acc_stderr": 0.08081046758996392,
      "acc_norm": 0.17391304347826086,
      "acc_norm_stderr": 0.08081046758996392
    },
    "Ceval-valid-logic": {
      "acc": 0.18181818181818182,
      "acc_stderr": 0.08416546361568647,
      "acc_norm": 0.18181818181818182,
      "acc_norm_stderr": 0.08416546361568647
    },
    "Ceval-valid-mao_zedong_thought": {
      "acc": 0.20833333333333334,
      "acc_stderr": 0.08468112965594378,
      "acc_norm": 0.20833333333333334,
      "acc_norm_stderr": 0.08468112965594378
    },
    "Ceval-valid-marxism": {
      "acc": 0.10526315789473684,
      "acc_stderr": 0.07233518641434492,
      "acc_norm": 0.10526315789473684,
      "acc_norm_stderr": 0.07233518641434492
    },
    "Ceval-valid-metrology_engineer": {
      "acc": 0.20833333333333334,
      "acc_stderr": 0.08468112965594378,
      "acc_norm": 0.20833333333333334,
      "acc_norm_stderr": 0.08468112965594378
    },
    "Ceval-valid-middle_school_biology": {
      "acc": 0.19047619047619047,
      "acc_stderr": 0.08780518530755134,
      "acc_norm": 0.19047619047619047,
      "acc_norm_stderr": 0.08780518530755134
    },
    "Ceval-valid-middle_school_chemistry": {
      "acc": 0.15,
      "acc_stderr": 0.0819178021909125,
      "acc_norm": 0.15,
      "acc_norm_stderr": 0.0819178021909125
    },
    "Ceval-valid-middle_school_geography": {
      "acc": 0.0,
      "acc_stderr": 0.0,
      "acc_norm": 0.0,
      "acc_norm_stderr": 0.0
    },
    "Ceval-valid-middle_school_history": {
      "acc": 0.18181818181818182,
      "acc_stderr": 0.08416546361568647,
      "acc_norm": 0.18181818181818182,
      "acc_norm_stderr": 0.08416546361568647
    },
    "Ceval-valid-middle_school_mathematics": {
      "acc": 0.21052631578947367,
      "acc_stderr": 0.0960916767552923,
      "acc_norm": 0.21052631578947367,
      "acc_norm_stderr": 0.0960916767552923
    },
    "Ceval-valid-middle_school_physics": {
      "acc": 0.10526315789473684,
      "acc_stderr": 0.07233518641434492,
      "acc_norm": 0.10526315789473684,
      "acc_norm_stderr": 0.07233518641434492
    },
    "Ceval-valid-middle_school_politics": {
      "acc": 0.23809523809523808,
      "acc_stderr": 0.09523809523809523,
      "acc_norm": 0.23809523809523808,
      "acc_norm_stderr": 0.09523809523809523
    },
    "Ceval-valid-modern_chinese_history": {
      "acc": 0.08695652173913043,
      "acc_stderr": 0.060073850409370216,
      "acc_norm": 0.08695652173913043,
      "acc_norm_stderr": 0.060073850409370216
    },
    "Ceval-valid-operating_system": {
      "acc": 0.2631578947368421,
      "acc_stderr": 0.10379087338771256,
      "acc_norm": 0.2631578947368421,
      "acc_norm_stderr": 0.10379087338771256
    },
    "Ceval-valid-physician": {
      "acc": 0.16326530612244897,
      "acc_stderr": 0.053348255582850765,
      "acc_norm": 0.16326530612244897,
      "acc_norm_stderr": 0.053348255582850765
    },
    "Ceval-valid-plant_protection": {
      "acc": 0.13636363636363635,
      "acc_stderr": 0.07488677009526491,
      "acc_norm": 0.13636363636363635,
      "acc_norm_stderr": 0.07488677009526491
    },
    "Ceval-valid-probability_and_statistics": {
      "acc": 0.1111111111111111,
      "acc_stderr": 0.0762215933966706,
      "acc_norm": 0.1111111111111111,
      "acc_norm_stderr": 0.0762215933966706
    },
    "Ceval-valid-professional_tour_guide": {
      "acc": 0.3448275862068966,
      "acc_stderr": 0.08982552969857373,
      "acc_norm": 0.3448275862068966,
      "acc_norm_stderr": 0.08982552969857373
    },
    "Ceval-valid-sports_science": {
      "acc": 0.15789473684210525,
      "acc_stderr": 0.08594700851870798,
      "acc_norm": 0.15789473684210525,
      "acc_norm_stderr": 0.08594700851870798
    },
    "Ceval-valid-tax_accountant": {
      "acc": 0.2857142857142857,
      "acc_stderr": 0.06520506636966263,
      "acc_norm": 0.2857142857142857,
      "acc_norm_stderr": 0.06520506636966263
    },
    "Ceval-valid-teacher_qualification": {
      "acc": 0.29545454545454547,
      "acc_stderr": 0.06957698714453991,
      "acc_norm": 0.29545454545454547,
      "acc_norm_stderr": 0.06957698714453991
    },
    "Ceval-valid-urban_and_rural_planner": {
      "acc": 0.21739130434782608,
      "acc_stderr": 0.061487546190134544,
      "acc_norm": 0.21739130434782608,
      "acc_norm_stderr": 0.061487546190134544
    },
    "Ceval-valid-veterinary_medicine": {
      "acc": 0.17391304347826086,
      "acc_stderr": 0.08081046758996394,
      "acc_norm": 0.17391304347826086,
      "acc_norm_stderr": 0.08081046758996394
    }
  },
  "versions": {
    "Ceval-valid-accountant": 1,
    "Ceval-valid-advanced_mathematics": 1,
    "Ceval-valid-art_studies": 1,
    "Ceval-valid-basic_medicine": 1,
    "Ceval-valid-business_administration": 1,
    "Ceval-valid-chinese_language_and_literature": 1,
    "Ceval-valid-civil_servant": 1,
    "Ceval-valid-clinical_medicine": 1,
    "Ceval-valid-college_chemistry": 1,
    "Ceval-valid-college_economics": 1,
    "Ceval-valid-college_physics": 1,
    "Ceval-valid-college_programming": 1,
    "Ceval-valid-computer_architecture": 1,
    "Ceval-valid-computer_network": 1,
    "Ceval-valid-discrete_mathematics": 1,
    "Ceval-valid-education_science": 1,
    "Ceval-valid-electrical_engineer": 1,
    "Ceval-valid-environmental_impact_assessment_engineer": 1,
    "Ceval-valid-fire_engineer": 1,
    "Ceval-valid-high_school_biology": 1,
    "Ceval-valid-high_school_chemistry": 1,
    "Ceval-valid-high_school_chinese": 1,
    "Ceval-valid-high_school_geography": 1,
    "Ceval-valid-high_school_history": 1,
    "Ceval-valid-high_school_mathematics": 1,
    "Ceval-valid-high_school_physics": 1,
    "Ceval-valid-high_school_politics": 1,
    "Ceval-valid-ideological_and_moral_cultivation": 1,
    "Ceval-valid-law": 1,
    "Ceval-valid-legal_professional": 1,
    "Ceval-valid-logic": 1,
    "Ceval-valid-mao_zedong_thought": 1,
    "Ceval-valid-marxism": 1,
    "Ceval-valid-metrology_engineer": 1,
    "Ceval-valid-middle_school_biology": 1,
    "Ceval-valid-middle_school_chemistry": 1,
    "Ceval-valid-middle_school_geography": 1,
    "Ceval-valid-middle_school_history": 1,
    "Ceval-valid-middle_school_mathematics": 1,
    "Ceval-valid-middle_school_physics": 1,
    "Ceval-valid-middle_school_politics": 1,
    "Ceval-valid-modern_chinese_history": 1,
    "Ceval-valid-operating_system": 1,
    "Ceval-valid-physician": 1,
    "Ceval-valid-plant_protection": 1,
    "Ceval-valid-probability_and_statistics": 1,
    "Ceval-valid-professional_tour_guide": 1,
    "Ceval-valid-sports_science": 1,
    "Ceval-valid-tax_accountant": 1,
    "Ceval-valid-teacher_qualification": 1,
    "Ceval-valid-urban_and_rural_planner": 1,
    "Ceval-valid-veterinary_medicine": 1
  },
  "config": {
    "model": "transnormer",
    "model_args": "path=/cpfs01/user/shenxuyang/LLM/Models/transnormerLLM-7b/hf/7B-58946,max_length=256,repetition_penalty=1.0,dtype=bfloat16",
    "num_fewshot": 5,
    "batch_size": "auto",
    "batch_sizes": [
      64
    ],
    "device": "cuda:1",
    "no_cache": false,
    "limit": null,
    "bootstrap_iters": 100000,
    "description_dict": {}
  }
}