{
  "results": {
    "Ceval-valid-accountant": {
      "acc": 0.24489795918367346,
      "acc_stderr": 0.06206900541120632,
      "acc_norm": 0.24489795918367346,
      "acc_norm_stderr": 0.06206900541120632
    },
    "Ceval-valid-advanced_mathematics": {
      "acc": 0.2631578947368421,
      "acc_stderr": 0.10379087338771256,
      "acc_norm": 0.2631578947368421,
      "acc_norm_stderr": 0.10379087338771256
    },
    "Ceval-valid-art_studies": {
      "acc": 0.45454545454545453,
      "acc_stderr": 0.08802234877744129,
      "acc_norm": 0.45454545454545453,
      "acc_norm_stderr": 0.08802234877744129
    },
    "Ceval-valid-basic_medicine": {
      "acc": 0.10526315789473684,
      "acc_stderr": 0.0723351864143449,
      "acc_norm": 0.10526315789473684,
      "acc_norm_stderr": 0.0723351864143449
    },
    "Ceval-valid-business_administration": {
      "acc": 0.30303030303030304,
      "acc_stderr": 0.08124094920275461,
      "acc_norm": 0.30303030303030304,
      "acc_norm_stderr": 0.08124094920275461
    },
    "Ceval-valid-chinese_language_and_literature": {
      "acc": 0.21739130434782608,
      "acc_stderr": 0.08793911249520549,
      "acc_norm": 0.21739130434782608,
      "acc_norm_stderr": 0.08793911249520549
    },
    "Ceval-valid-civil_servant": {
      "acc": 0.2765957446808511,
      "acc_stderr": 0.0659529705144534,
      "acc_norm": 0.2765957446808511,
      "acc_norm_stderr": 0.0659529705144534
    },
    "Ceval-valid-clinical_medicine": {
      "acc": 0.36363636363636365,
      "acc_stderr": 0.1049727762162956,
      "acc_norm": 0.36363636363636365,
      "acc_norm_stderr": 0.1049727762162956
    },
    "Ceval-valid-college_chemistry": {
      "acc": 0.20833333333333334,
      "acc_stderr": 0.08468112965594378,
      "acc_norm": 0.20833333333333334,
      "acc_norm_stderr": 0.08468112965594378
    },
    "Ceval-valid-college_economics": {
      "acc": 0.2909090909090909,
      "acc_stderr": 0.06180629713445796,
      "acc_norm": 0.2909090909090909,
      "acc_norm_stderr": 0.06180629713445796
    },
    "Ceval-valid-college_physics": {
      "acc": 0.2631578947368421,
      "acc_stderr": 0.10379087338771256,
      "acc_norm": 0.2631578947368421,
      "acc_norm_stderr": 0.10379087338771256
    },
    "Ceval-valid-college_programming": {
      "acc": 0.24324324324324326,
      "acc_stderr": 0.07150679219093488,
      "acc_norm": 0.24324324324324326,
      "acc_norm_stderr": 0.07150679219093488
    },
    "Ceval-valid-computer_architecture": {
      "acc": 0.09523809523809523,
      "acc_stderr": 0.0656383273909058,
      "acc_norm": 0.09523809523809523,
      "acc_norm_stderr": 0.0656383273909058
    },
    "Ceval-valid-computer_network": {
      "acc": 0.3157894736842105,
      "acc_stderr": 0.10956136839295434,
      "acc_norm": 0.3157894736842105,
      "acc_norm_stderr": 0.10956136839295434
    },
    "Ceval-valid-discrete_mathematics": {
      "acc": 0.375,
      "acc_stderr": 0.125,
      "acc_norm": 0.375,
      "acc_norm_stderr": 0.125
    },
    "Ceval-valid-education_science": {
      "acc": 0.27586206896551724,
      "acc_stderr": 0.08446516354424752,
      "acc_norm": 0.27586206896551724,
      "acc_norm_stderr": 0.08446516354424752
    },
    "Ceval-valid-electrical_engineer": {
      "acc": 0.21621621621621623,
      "acc_stderr": 0.0686105685212965,
      "acc_norm": 0.21621621621621623,
      "acc_norm_stderr": 0.0686105685212965
    },
    "Ceval-valid-environmental_impact_assessment_engineer": {
      "acc": 0.12903225806451613,
      "acc_stderr": 0.06120537406777508,
      "acc_norm": 0.12903225806451613,
      "acc_norm_stderr": 0.06120537406777508
    },
    "Ceval-valid-fire_engineer": {
      "acc": 0.22580645161290322,
      "acc_stderr": 0.07633651333031764,
      "acc_norm": 0.22580645161290322,
      "acc_norm_stderr": 0.07633651333031764
    },
    "Ceval-valid-high_school_biology": {
      "acc": 0.3157894736842105,
      "acc_stderr": 0.10956136839295433,
      "acc_norm": 0.3157894736842105,
      "acc_norm_stderr": 0.10956136839295433
    },
    "Ceval-valid-high_school_chemistry": {
      "acc": 0.2631578947368421,
      "acc_stderr": 0.10379087338771256,
      "acc_norm": 0.2631578947368421,
      "acc_norm_stderr": 0.10379087338771256
    },
    "Ceval-valid-high_school_chinese": {
      "acc": 0.15789473684210525,
      "acc_stderr": 0.08594700851870798,
      "acc_norm": 0.15789473684210525,
      "acc_norm_stderr": 0.08594700851870798
    },
    "Ceval-valid-high_school_geography": {
      "acc": 0.2631578947368421,
      "acc_stderr": 0.10379087338771256,
      "acc_norm": 0.2631578947368421,
      "acc_norm_stderr": 0.10379087338771256
    },
    "Ceval-valid-high_school_history": {
      "acc": 0.25,
      "acc_stderr": 0.09933992677987828,
      "acc_norm": 0.25,
      "acc_norm_stderr": 0.09933992677987828
    },
    "Ceval-valid-high_school_mathematics": {
      "acc": 0.3888888888888889,
      "acc_stderr": 0.11823563735376173,
      "acc_norm": 0.3888888888888889,
      "acc_norm_stderr": 0.11823563735376173
    },
    "Ceval-valid-high_school_physics": {
      "acc": 0.15789473684210525,
      "acc_stderr": 0.08594700851870798,
      "acc_norm": 0.15789473684210525,
      "acc_norm_stderr": 0.08594700851870798
    },
    "Ceval-valid-high_school_politics": {
      "acc": 0.5263157894736842,
      "acc_stderr": 0.11768778828946262,
      "acc_norm": 0.5263157894736842,
      "acc_norm_stderr": 0.11768778828946262
    },
    "Ceval-valid-ideological_and_moral_cultivation": {
      "acc": 0.21052631578947367,
      "acc_stderr": 0.0960916767552923,
      "acc_norm": 0.21052631578947367,
      "acc_norm_stderr": 0.0960916767552923
    },
    "Ceval-valid-law": {
      "acc": 0.16666666666666666,
      "acc_stderr": 0.07770873402002615,
      "acc_norm": 0.16666666666666666,
      "acc_norm_stderr": 0.07770873402002615
    },
    "Ceval-valid-legal_professional": {
      "acc": 0.17391304347826086,
      "acc_stderr": 0.08081046758996391,
      "acc_norm": 0.17391304347826086,
      "acc_norm_stderr": 0.08081046758996391
    },
    "Ceval-valid-logic": {
      "acc": 0.13636363636363635,
      "acc_stderr": 0.07488677009526491,
      "acc_norm": 0.13636363636363635,
      "acc_norm_stderr": 0.07488677009526491
    },
    "Ceval-valid-mao_zedong_thought": {
      "acc": 0.3333333333333333,
      "acc_stderr": 0.09829463743659811,
      "acc_norm": 0.3333333333333333,
      "acc_norm_stderr": 0.09829463743659811
    },
    "Ceval-valid-marxism": {
      "acc": 0.3157894736842105,
      "acc_stderr": 0.10956136839295434,
      "acc_norm": 0.3157894736842105,
      "acc_norm_stderr": 0.10956136839295434
    },
    "Ceval-valid-metrology_engineer": {
      "acc": 0.20833333333333334,
      "acc_stderr": 0.08468112965594378,
      "acc_norm": 0.20833333333333334,
      "acc_norm_stderr": 0.08468112965594378
    },
    "Ceval-valid-middle_school_biology": {
      "acc": 0.23809523809523808,
      "acc_stderr": 0.09523809523809523,
      "acc_norm": 0.23809523809523808,
      "acc_norm_stderr": 0.09523809523809523
    },
    "Ceval-valid-middle_school_chemistry": {
      "acc": 0.25,
      "acc_stderr": 0.09933992677987828,
      "acc_norm": 0.25,
      "acc_norm_stderr": 0.09933992677987828
    },
    "Ceval-valid-middle_school_geography": {
      "acc": 0.08333333333333333,
      "acc_stderr": 0.08333333333333333,
      "acc_norm": 0.08333333333333333,
      "acc_norm_stderr": 0.08333333333333333
    },
    "Ceval-valid-middle_school_history": {
      "acc": 0.18181818181818182,
      "acc_stderr": 0.08416546361568647,
      "acc_norm": 0.18181818181818182,
      "acc_norm_stderr": 0.08416546361568647
    },
    "Ceval-valid-middle_school_mathematics": {
      "acc": 0.15789473684210525,
      "acc_stderr": 0.08594700851870798,
      "acc_norm": 0.15789473684210525,
      "acc_norm_stderr": 0.08594700851870798
    },
    "Ceval-valid-middle_school_physics": {
      "acc": 0.05263157894736842,
      "acc_stderr": 0.052631578947368404,
      "acc_norm": 0.05263157894736842,
      "acc_norm_stderr": 0.052631578947368404
    },
    "Ceval-valid-middle_school_politics": {
      "acc": 0.42857142857142855,
      "acc_stderr": 0.11065666703449763,
      "acc_norm": 0.42857142857142855,
      "acc_norm_stderr": 0.11065666703449763
    },
    "Ceval-valid-modern_chinese_history": {
      "acc": 0.08695652173913043,
      "acc_stderr": 0.06007385040937022,
      "acc_norm": 0.08695652173913043,
      "acc_norm_stderr": 0.06007385040937022
    },
    "Ceval-valid-operating_system": {
      "acc": 0.2631578947368421,
      "acc_stderr": 0.10379087338771256,
      "acc_norm": 0.2631578947368421,
      "acc_norm_stderr": 0.10379087338771256
    },
    "Ceval-valid-physician": {
      "acc": 0.22448979591836735,
      "acc_stderr": 0.06022425581505364,
      "acc_norm": 0.22448979591836735,
      "acc_norm_stderr": 0.06022425581505364
    },
    "Ceval-valid-plant_protection": {
      "acc": 0.22727272727272727,
      "acc_stderr": 0.09144861547306322,
      "acc_norm": 0.22727272727272727,
      "acc_norm_stderr": 0.09144861547306322
    },
    "Ceval-valid-probability_and_statistics": {
      "acc": 0.16666666666666666,
      "acc_stderr": 0.0903876907577734,
      "acc_norm": 0.16666666666666666,
      "acc_norm_stderr": 0.0903876907577734
    },
    "Ceval-valid-professional_tour_guide": {
      "acc": 0.3448275862068966,
      "acc_stderr": 0.08982552969857373,
      "acc_norm": 0.3448275862068966,
      "acc_norm_stderr": 0.08982552969857373
    },
    "Ceval-valid-sports_science": {
      "acc": 0.10526315789473684,
      "acc_stderr": 0.07233518641434492,
      "acc_norm": 0.10526315789473684,
      "acc_norm_stderr": 0.07233518641434492
    },
    "Ceval-valid-tax_accountant": {
      "acc": 0.24489795918367346,
      "acc_stderr": 0.06206900541120632,
      "acc_norm": 0.24489795918367346,
      "acc_norm_stderr": 0.06206900541120632
    },
    "Ceval-valid-teacher_qualification": {
      "acc": 0.2727272727272727,
      "acc_stderr": 0.06791703342160257,
      "acc_norm": 0.2727272727272727,
      "acc_norm_stderr": 0.06791703342160257
    },
    "Ceval-valid-urban_and_rural_planner": {
      "acc": 0.2608695652173913,
      "acc_stderr": 0.06545849153992007,
      "acc_norm": 0.2608695652173913,
      "acc_norm_stderr": 0.06545849153992007
    },
    "Ceval-valid-veterinary_medicine": {
      "acc": 0.2608695652173913,
      "acc_stderr": 0.09361833424764436,
      "acc_norm": 0.2608695652173913,
      "acc_norm_stderr": 0.09361833424764436
    }
  },
  "versions": {
    "Ceval-valid-accountant": 1,
    "Ceval-valid-advanced_mathematics": 1,
    "Ceval-valid-art_studies": 1,
    "Ceval-valid-basic_medicine": 1,
    "Ceval-valid-business_administration": 1,
    "Ceval-valid-chinese_language_and_literature": 1,
    "Ceval-valid-civil_servant": 1,
    "Ceval-valid-clinical_medicine": 1,
    "Ceval-valid-college_chemistry": 1,
    "Ceval-valid-college_economics": 1,
    "Ceval-valid-college_physics": 1,
    "Ceval-valid-college_programming": 1,
    "Ceval-valid-computer_architecture": 1,
    "Ceval-valid-computer_network": 1,
    "Ceval-valid-discrete_mathematics": 1,
    "Ceval-valid-education_science": 1,
    "Ceval-valid-electrical_engineer": 1,
    "Ceval-valid-environmental_impact_assessment_engineer": 1,
    "Ceval-valid-fire_engineer": 1,
    "Ceval-valid-high_school_biology": 1,
    "Ceval-valid-high_school_chemistry": 1,
    "Ceval-valid-high_school_chinese": 1,
    "Ceval-valid-high_school_geography": 1,
    "Ceval-valid-high_school_history": 1,
    "Ceval-valid-high_school_mathematics": 1,
    "Ceval-valid-high_school_physics": 1,
    "Ceval-valid-high_school_politics": 1,
    "Ceval-valid-ideological_and_moral_cultivation": 1,
    "Ceval-valid-law": 1,
    "Ceval-valid-legal_professional": 1,
    "Ceval-valid-logic": 1,
    "Ceval-valid-mao_zedong_thought": 1,
    "Ceval-valid-marxism": 1,
    "Ceval-valid-metrology_engineer": 1,
    "Ceval-valid-middle_school_biology": 1,
    "Ceval-valid-middle_school_chemistry": 1,
    "Ceval-valid-middle_school_geography": 1,
    "Ceval-valid-middle_school_history": 1,
    "Ceval-valid-middle_school_mathematics": 1,
    "Ceval-valid-middle_school_physics": 1,
    "Ceval-valid-middle_school_politics": 1,
    "Ceval-valid-modern_chinese_history": 1,
    "Ceval-valid-operating_system": 1,
    "Ceval-valid-physician": 1,
    "Ceval-valid-plant_protection": 1,
    "Ceval-valid-probability_and_statistics": 1,
    "Ceval-valid-professional_tour_guide": 1,
    "Ceval-valid-sports_science": 1,
    "Ceval-valid-tax_accountant": 1,
    "Ceval-valid-teacher_qualification": 1,
    "Ceval-valid-urban_and_rural_planner": 1,
    "Ceval-valid-veterinary_medicine": 1
  },
  "config": {
    "model": "transnormer",
    "model_args": "path=/cpfs01/user/shenxuyang/LLM/Models/transnormerLLM-7b/hf/7B-69250,max_length=256,repetition_penalty=1.0,dtype=bfloat16",
    "num_fewshot": 5,
    "batch_size": "auto",
    "batch_sizes": [
      64
    ],
    "device": "cuda:0",
    "no_cache": false,
    "limit": null,
    "bootstrap_iters": 100000,
    "description_dict": {}
  }
}