{
  "results": {
    "Ceval-valid-accountant": {
      "acc": 0.3469387755102041,
      "acc_stderr": 0.06870411522695292,
      "acc_norm": 0.3469387755102041,
      "acc_norm_stderr": 0.06870411522695292
    },
    "Ceval-valid-advanced_mathematics": {
      "acc": 0.3684210526315789,
      "acc_stderr": 0.11369720523522561,
      "acc_norm": 0.3684210526315789,
      "acc_norm_stderr": 0.11369720523522561
    },
    "Ceval-valid-art_studies": {
      "acc": 0.18181818181818182,
      "acc_stderr": 0.06818181818181816,
      "acc_norm": 0.18181818181818182,
      "acc_norm_stderr": 0.06818181818181816
    },
    "Ceval-valid-basic_medicine": {
      "acc": 0.3684210526315789,
      "acc_stderr": 0.11369720523522558,
      "acc_norm": 0.3684210526315789,
      "acc_norm_stderr": 0.11369720523522558
    },
    "Ceval-valid-business_administration": {
      "acc": 0.18181818181818182,
      "acc_stderr": 0.06818181818181816,
      "acc_norm": 0.18181818181818182,
      "acc_norm_stderr": 0.06818181818181816
    },
    "Ceval-valid-chinese_language_and_literature": {
      "acc": 0.2608695652173913,
      "acc_stderr": 0.09361833424764436,
      "acc_norm": 0.2608695652173913,
      "acc_norm_stderr": 0.09361833424764436
    },
    "Ceval-valid-civil_servant": {
      "acc": 0.2765957446808511,
      "acc_stderr": 0.06595297051445341,
      "acc_norm": 0.2765957446808511,
      "acc_norm_stderr": 0.06595297051445341
    },
    "Ceval-valid-clinical_medicine": {
      "acc": 0.2727272727272727,
      "acc_stderr": 0.0971859061499725,
      "acc_norm": 0.2727272727272727,
      "acc_norm_stderr": 0.0971859061499725
    },
    "Ceval-valid-college_chemistry": {
      "acc": 0.20833333333333334,
      "acc_stderr": 0.08468112965594378,
      "acc_norm": 0.20833333333333334,
      "acc_norm_stderr": 0.08468112965594378
    },
    "Ceval-valid-college_economics": {
      "acc": 0.23636363636363636,
      "acc_stderr": 0.05781449705557244,
      "acc_norm": 0.23636363636363636,
      "acc_norm_stderr": 0.05781449705557244
    },
    "Ceval-valid-college_physics": {
      "acc": 0.2631578947368421,
      "acc_stderr": 0.10379087338771256,
      "acc_norm": 0.2631578947368421,
      "acc_norm_stderr": 0.10379087338771256
    },
    "Ceval-valid-college_programming": {
      "acc": 0.13513513513513514,
      "acc_stderr": 0.056977975858889716,
      "acc_norm": 0.13513513513513514,
      "acc_norm_stderr": 0.056977975858889716
    },
    "Ceval-valid-computer_architecture": {
      "acc": 0.19047619047619047,
      "acc_stderr": 0.08780518530755131,
      "acc_norm": 0.19047619047619047,
      "acc_norm_stderr": 0.08780518530755131
    },
    "Ceval-valid-computer_network": {
      "acc": 0.2631578947368421,
      "acc_stderr": 0.10379087338771256,
      "acc_norm": 0.2631578947368421,
      "acc_norm_stderr": 0.10379087338771256
    },
    "Ceval-valid-discrete_mathematics": {
      "acc": 0.375,
      "acc_stderr": 0.125,
      "acc_norm": 0.375,
      "acc_norm_stderr": 0.125
    },
    "Ceval-valid-education_science": {
      "acc": 0.20689655172413793,
      "acc_stderr": 0.07655305550699533,
      "acc_norm": 0.20689655172413793,
      "acc_norm_stderr": 0.07655305550699533
    },
    "Ceval-valid-electrical_engineer": {
      "acc": 0.32432432432432434,
      "acc_stderr": 0.07802030664724674,
      "acc_norm": 0.32432432432432434,
      "acc_norm_stderr": 0.07802030664724674
    },
    "Ceval-valid-environmental_impact_assessment_engineer": {
      "acc": 0.0967741935483871,
      "acc_stderr": 0.053978066228004884,
      "acc_norm": 0.0967741935483871,
      "acc_norm_stderr": 0.053978066228004884
    },
    "Ceval-valid-fire_engineer": {
      "acc": 0.22580645161290322,
      "acc_stderr": 0.07633651333031764,
      "acc_norm": 0.22580645161290322,
      "acc_norm_stderr": 0.07633651333031764
    },
    "Ceval-valid-high_school_biology": {
      "acc": 0.2631578947368421,
      "acc_stderr": 0.10379087338771256,
      "acc_norm": 0.2631578947368421,
      "acc_norm_stderr": 0.10379087338771256
    },
    "Ceval-valid-high_school_chemistry": {
      "acc": 0.3157894736842105,
      "acc_stderr": 0.10956136839295434,
      "acc_norm": 0.3157894736842105,
      "acc_norm_stderr": 0.10956136839295434
    },
    "Ceval-valid-high_school_chinese": {
      "acc": 0.21052631578947367,
      "acc_stderr": 0.0960916767552923,
      "acc_norm": 0.21052631578947367,
      "acc_norm_stderr": 0.0960916767552923
    },
    "Ceval-valid-high_school_geography": {
      "acc": 0.21052631578947367,
      "acc_stderr": 0.0960916767552923,
      "acc_norm": 0.21052631578947367,
      "acc_norm_stderr": 0.0960916767552923
    },
    "Ceval-valid-high_school_history": {
      "acc": 0.05,
      "acc_stderr": 0.04999999999999997,
      "acc_norm": 0.05,
      "acc_norm_stderr": 0.04999999999999997
    },
    "Ceval-valid-high_school_mathematics": {
      "acc": 0.5,
      "acc_stderr": 0.12126781251816651,
      "acc_norm": 0.5,
      "acc_norm_stderr": 0.12126781251816651
    },
    "Ceval-valid-high_school_physics": {
      "acc": 0.21052631578947367,
      "acc_stderr": 0.0960916767552923,
      "acc_norm": 0.21052631578947367,
      "acc_norm_stderr": 0.0960916767552923
    },
    "Ceval-valid-high_school_politics": {
      "acc": 0.05263157894736842,
      "acc_stderr": 0.05263157894736842,
      "acc_norm": 0.05263157894736842,
      "acc_norm_stderr": 0.05263157894736842
    },
    "Ceval-valid-ideological_and_moral_cultivation": {
      "acc": 0.05263157894736842,
      "acc_stderr": 0.052631578947368404,
      "acc_norm": 0.05263157894736842,
      "acc_norm_stderr": 0.052631578947368404
    },
    "Ceval-valid-law": {
      "acc": 0.25,
      "acc_stderr": 0.09028938981432691,
      "acc_norm": 0.25,
      "acc_norm_stderr": 0.09028938981432691
    },
    "Ceval-valid-legal_professional": {
      "acc": 0.2608695652173913,
      "acc_stderr": 0.09361833424764437,
      "acc_norm": 0.2608695652173913,
      "acc_norm_stderr": 0.09361833424764437
    },
    "Ceval-valid-logic": {
      "acc": 0.36363636363636365,
      "acc_stderr": 0.10497277621629558,
      "acc_norm": 0.36363636363636365,
      "acc_norm_stderr": 0.10497277621629558
    },
    "Ceval-valid-mao_zedong_thought": {
      "acc": 0.20833333333333334,
      "acc_stderr": 0.08468112965594378,
      "acc_norm": 0.20833333333333334,
      "acc_norm_stderr": 0.08468112965594378
    },
    "Ceval-valid-marxism": {
      "acc": 0.2631578947368421,
      "acc_stderr": 0.10379087338771256,
      "acc_norm": 0.2631578947368421,
      "acc_norm_stderr": 0.10379087338771256
    },
    "Ceval-valid-metrology_engineer": {
      "acc": 0.2916666666666667,
      "acc_stderr": 0.09477598811252413,
      "acc_norm": 0.2916666666666667,
      "acc_norm_stderr": 0.09477598811252413
    },
    "Ceval-valid-middle_school_biology": {
      "acc": 0.23809523809523808,
      "acc_stderr": 0.09523809523809523,
      "acc_norm": 0.23809523809523808,
      "acc_norm_stderr": 0.09523809523809523
    },
    "Ceval-valid-middle_school_chemistry": {
      "acc": 0.3,
      "acc_stderr": 0.10513149660756933,
      "acc_norm": 0.3,
      "acc_norm_stderr": 0.10513149660756933
    },
    "Ceval-valid-middle_school_geography": {
      "acc": 0.25,
      "acc_stderr": 0.1305582419667734,
      "acc_norm": 0.25,
      "acc_norm_stderr": 0.1305582419667734
    },
    "Ceval-valid-middle_school_history": {
      "acc": 0.3181818181818182,
      "acc_stderr": 0.10163945352271772,
      "acc_norm": 0.3181818181818182,
      "acc_norm_stderr": 0.10163945352271772
    },
    "Ceval-valid-middle_school_mathematics": {
      "acc": 0.2631578947368421,
      "acc_stderr": 0.10379087338771256,
      "acc_norm": 0.2631578947368421,
      "acc_norm_stderr": 0.10379087338771256
    },
    "Ceval-valid-middle_school_physics": {
      "acc": 0.15789473684210525,
      "acc_stderr": 0.08594700851870798,
      "acc_norm": 0.15789473684210525,
      "acc_norm_stderr": 0.08594700851870798
    },
    "Ceval-valid-middle_school_politics": {
      "acc": 0.23809523809523808,
      "acc_stderr": 0.09523809523809523,
      "acc_norm": 0.23809523809523808,
      "acc_norm_stderr": 0.09523809523809523
    },
    "Ceval-valid-modern_chinese_history": {
      "acc": 0.43478260869565216,
      "acc_stderr": 0.10568965974008647,
      "acc_norm": 0.43478260869565216,
      "acc_norm_stderr": 0.10568965974008647
    },
    "Ceval-valid-operating_system": {
      "acc": 0.42105263157894735,
      "acc_stderr": 0.11637279966159299,
      "acc_norm": 0.42105263157894735,
      "acc_norm_stderr": 0.11637279966159299
    },
    "Ceval-valid-physician": {
      "acc": 0.3673469387755102,
      "acc_stderr": 0.06958255967849926,
      "acc_norm": 0.3673469387755102,
      "acc_norm_stderr": 0.06958255967849926
    },
    "Ceval-valid-plant_protection": {
      "acc": 0.13636363636363635,
      "acc_stderr": 0.0748867700952649,
      "acc_norm": 0.13636363636363635,
      "acc_norm_stderr": 0.0748867700952649
    },
    "Ceval-valid-probability_and_statistics": {
      "acc": 0.16666666666666666,
      "acc_stderr": 0.09038769075777339,
      "acc_norm": 0.16666666666666666,
      "acc_norm_stderr": 0.09038769075777339
    },
    "Ceval-valid-professional_tour_guide": {
      "acc": 0.2413793103448276,
      "acc_stderr": 0.080869237238335,
      "acc_norm": 0.2413793103448276,
      "acc_norm_stderr": 0.080869237238335
    },
    "Ceval-valid-sports_science": {
      "acc": 0.21052631578947367,
      "acc_stderr": 0.0960916767552923,
      "acc_norm": 0.21052631578947367,
      "acc_norm_stderr": 0.0960916767552923
    },
    "Ceval-valid-tax_accountant": {
      "acc": 0.2653061224489796,
      "acc_stderr": 0.06372446937141223,
      "acc_norm": 0.2653061224489796,
      "acc_norm_stderr": 0.06372446937141223
    },
    "Ceval-valid-teacher_qualification": {
      "acc": 0.3181818181818182,
      "acc_stderr": 0.07102933373079214,
      "acc_norm": 0.3181818181818182,
      "acc_norm_stderr": 0.07102933373079214
    },
    "Ceval-valid-urban_and_rural_planner": {
      "acc": 0.21739130434782608,
      "acc_stderr": 0.06148754619013454,
      "acc_norm": 0.21739130434782608,
      "acc_norm_stderr": 0.06148754619013454
    },
    "Ceval-valid-veterinary_medicine": {
      "acc": 0.13043478260869565,
      "acc_stderr": 0.07180198468215396,
      "acc_norm": 0.13043478260869565,
      "acc_norm_stderr": 0.07180198468215396
    }
  },
  "versions": {
    "Ceval-valid-accountant": 1,
    "Ceval-valid-advanced_mathematics": 1,
    "Ceval-valid-art_studies": 1,
    "Ceval-valid-basic_medicine": 1,
    "Ceval-valid-business_administration": 1,
    "Ceval-valid-chinese_language_and_literature": 1,
    "Ceval-valid-civil_servant": 1,
    "Ceval-valid-clinical_medicine": 1,
    "Ceval-valid-college_chemistry": 1,
    "Ceval-valid-college_economics": 1,
    "Ceval-valid-college_physics": 1,
    "Ceval-valid-college_programming": 1,
    "Ceval-valid-computer_architecture": 1,
    "Ceval-valid-computer_network": 1,
    "Ceval-valid-discrete_mathematics": 1,
    "Ceval-valid-education_science": 1,
    "Ceval-valid-electrical_engineer": 1,
    "Ceval-valid-environmental_impact_assessment_engineer": 1,
    "Ceval-valid-fire_engineer": 1,
    "Ceval-valid-high_school_biology": 1,
    "Ceval-valid-high_school_chemistry": 1,
    "Ceval-valid-high_school_chinese": 1,
    "Ceval-valid-high_school_geography": 1,
    "Ceval-valid-high_school_history": 1,
    "Ceval-valid-high_school_mathematics": 1,
    "Ceval-valid-high_school_physics": 1,
    "Ceval-valid-high_school_politics": 1,
    "Ceval-valid-ideological_and_moral_cultivation": 1,
    "Ceval-valid-law": 1,
    "Ceval-valid-legal_professional": 1,
    "Ceval-valid-logic": 1,
    "Ceval-valid-mao_zedong_thought": 1,
    "Ceval-valid-marxism": 1,
    "Ceval-valid-metrology_engineer": 1,
    "Ceval-valid-middle_school_biology": 1,
    "Ceval-valid-middle_school_chemistry": 1,
    "Ceval-valid-middle_school_geography": 1,
    "Ceval-valid-middle_school_history": 1,
    "Ceval-valid-middle_school_mathematics": 1,
    "Ceval-valid-middle_school_physics": 1,
    "Ceval-valid-middle_school_politics": 1,
    "Ceval-valid-modern_chinese_history": 1,
    "Ceval-valid-operating_system": 1,
    "Ceval-valid-physician": 1,
    "Ceval-valid-plant_protection": 1,
    "Ceval-valid-probability_and_statistics": 1,
    "Ceval-valid-professional_tour_guide": 1,
    "Ceval-valid-sports_science": 1,
    "Ceval-valid-tax_accountant": 1,
    "Ceval-valid-teacher_qualification": 1,
    "Ceval-valid-urban_and_rural_planner": 1,
    "Ceval-valid-veterinary_medicine": 1
  },
  "config": {
    "model": "transnormer",
    "model_args": "path=/cpfs01/user/shenxuyang/LLM/Models/transnormerLLM-hf/7B-12750,max_length=256,dtype=bfloat16",
    "num_fewshot": 5,
    "batch_size": "16",
    "batch_sizes": [],
    "device": "cuda:1",
    "no_cache": false,
    "limit": null,
    "bootstrap_iters": 100000,
    "description_dict": {}
  }
}