{
  "results": {
    "Ceval-valid-accountant": {
      "acc": 0.30612244897959184,
      "acc_stderr": 0.06652247352247599,
      "acc_norm": 0.30612244897959184,
      "acc_norm_stderr": 0.06652247352247599
    },
    "Ceval-valid-advanced_mathematics": {
      "acc": 0.2631578947368421,
      "acc_stderr": 0.10379087338771256,
      "acc_norm": 0.2631578947368421,
      "acc_norm_stderr": 0.10379087338771256
    },
    "Ceval-valid-art_studies": {
      "acc": 0.18181818181818182,
      "acc_stderr": 0.06818181818181816,
      "acc_norm": 0.18181818181818182,
      "acc_norm_stderr": 0.06818181818181816
    },
    "Ceval-valid-basic_medicine": {
      "acc": 0.15789473684210525,
      "acc_stderr": 0.08594700851870798,
      "acc_norm": 0.15789473684210525,
      "acc_norm_stderr": 0.08594700851870798
    },
    "Ceval-valid-business_administration": {
      "acc": 0.24242424242424243,
      "acc_stderr": 0.07575757575757576,
      "acc_norm": 0.24242424242424243,
      "acc_norm_stderr": 0.07575757575757576
    },
    "Ceval-valid-chinese_language_and_literature": {
      "acc": 0.21739130434782608,
      "acc_stderr": 0.08793911249520549,
      "acc_norm": 0.21739130434782608,
      "acc_norm_stderr": 0.08793911249520549
    },
    "Ceval-valid-civil_servant": {
      "acc": 0.10638297872340426,
      "acc_stderr": 0.04546036031565447,
      "acc_norm": 0.10638297872340426,
      "acc_norm_stderr": 0.04546036031565447
    },
    "Ceval-valid-clinical_medicine": {
      "acc": 0.22727272727272727,
      "acc_stderr": 0.09144861547306322,
      "acc_norm": 0.22727272727272727,
      "acc_norm_stderr": 0.09144861547306322
    },
    "Ceval-valid-college_chemistry": {
      "acc": 0.2916666666666667,
      "acc_stderr": 0.09477598811252413,
      "acc_norm": 0.2916666666666667,
      "acc_norm_stderr": 0.09477598811252413
    },
    "Ceval-valid-college_economics": {
      "acc": 0.32727272727272727,
      "acc_stderr": 0.0638524469869863,
      "acc_norm": 0.32727272727272727,
      "acc_norm_stderr": 0.0638524469869863
    },
    "Ceval-valid-college_physics": {
      "acc": 0.2631578947368421,
      "acc_stderr": 0.10379087338771256,
      "acc_norm": 0.2631578947368421,
      "acc_norm_stderr": 0.10379087338771256
    },
    "Ceval-valid-college_programming": {
      "acc": 0.1891891891891892,
      "acc_stderr": 0.06527647182968215,
      "acc_norm": 0.1891891891891892,
      "acc_norm_stderr": 0.06527647182968215
    },
    "Ceval-valid-computer_architecture": {
      "acc": 0.23809523809523808,
      "acc_stderr": 0.09523809523809523,
      "acc_norm": 0.23809523809523808,
      "acc_norm_stderr": 0.09523809523809523
    },
    "Ceval-valid-computer_network": {
      "acc": 0.21052631578947367,
      "acc_stderr": 0.0960916767552923,
      "acc_norm": 0.21052631578947367,
      "acc_norm_stderr": 0.0960916767552923
    },
    "Ceval-valid-discrete_mathematics": {
      "acc": 0.0625,
      "acc_stderr": 0.0625,
      "acc_norm": 0.0625,
      "acc_norm_stderr": 0.0625
    },
    "Ceval-valid-education_science": {
      "acc": 0.3448275862068966,
      "acc_stderr": 0.08982552969857371,
      "acc_norm": 0.3448275862068966,
      "acc_norm_stderr": 0.08982552969857371
    },
    "Ceval-valid-electrical_engineer": {
      "acc": 0.10810810810810811,
      "acc_stderr": 0.051752816635477754,
      "acc_norm": 0.10810810810810811,
      "acc_norm_stderr": 0.051752816635477754
    },
    "Ceval-valid-environmental_impact_assessment_engineer": {
      "acc": 0.16129032258064516,
      "acc_stderr": 0.06715051611181073,
      "acc_norm": 0.16129032258064516,
      "acc_norm_stderr": 0.06715051611181073
    },
    "Ceval-valid-fire_engineer": {
      "acc": 0.1935483870967742,
      "acc_stderr": 0.07213122508063838,
      "acc_norm": 0.1935483870967742,
      "acc_norm_stderr": 0.07213122508063838
    },
    "Ceval-valid-high_school_biology": {
      "acc": 0.15789473684210525,
      "acc_stderr": 0.085947008518708,
      "acc_norm": 0.15789473684210525,
      "acc_norm_stderr": 0.085947008518708
    },
    "Ceval-valid-high_school_chemistry": {
      "acc": 0.47368421052631576,
      "acc_stderr": 0.11768778828946262,
      "acc_norm": 0.47368421052631576,
      "acc_norm_stderr": 0.11768778828946262
    },
    "Ceval-valid-high_school_chinese": {
      "acc": 0.2631578947368421,
      "acc_stderr": 0.10379087338771256,
      "acc_norm": 0.2631578947368421,
      "acc_norm_stderr": 0.10379087338771256
    },
    "Ceval-valid-high_school_geography": {
      "acc": 0.21052631578947367,
      "acc_stderr": 0.0960916767552923,
      "acc_norm": 0.21052631578947367,
      "acc_norm_stderr": 0.0960916767552923
    },
    "Ceval-valid-high_school_history": {
      "acc": 0.2,
      "acc_stderr": 0.09176629354822471,
      "acc_norm": 0.2,
      "acc_norm_stderr": 0.09176629354822471
    },
    "Ceval-valid-high_school_mathematics": {
      "acc": 0.3333333333333333,
      "acc_stderr": 0.11433239009500591,
      "acc_norm": 0.3333333333333333,
      "acc_norm_stderr": 0.11433239009500591
    },
    "Ceval-valid-high_school_physics": {
      "acc": 0.10526315789473684,
      "acc_stderr": 0.07233518641434492,
      "acc_norm": 0.10526315789473684,
      "acc_norm_stderr": 0.07233518641434492
    },
    "Ceval-valid-high_school_politics": {
      "acc": 0.10526315789473684,
      "acc_stderr": 0.0723351864143449,
      "acc_norm": 0.10526315789473684,
      "acc_norm_stderr": 0.0723351864143449
    },
    "Ceval-valid-ideological_and_moral_cultivation": {
      "acc": 0.2631578947368421,
      "acc_stderr": 0.10379087338771256,
      "acc_norm": 0.2631578947368421,
      "acc_norm_stderr": 0.10379087338771256
    },
    "Ceval-valid-law": {
      "acc": 0.20833333333333334,
      "acc_stderr": 0.08468112965594378,
      "acc_norm": 0.20833333333333334,
      "acc_norm_stderr": 0.08468112965594378
    },
    "Ceval-valid-legal_professional": {
      "acc": 0.08695652173913043,
      "acc_stderr": 0.06007385040937022,
      "acc_norm": 0.08695652173913043,
      "acc_norm_stderr": 0.06007385040937022
    },
    "Ceval-valid-logic": {
      "acc": 0.4090909090909091,
      "acc_stderr": 0.10729033533674223,
      "acc_norm": 0.4090909090909091,
      "acc_norm_stderr": 0.10729033533674223
    },
    "Ceval-valid-mao_zedong_thought": {
      "acc": 0.375,
      "acc_stderr": 0.10094660663590604,
      "acc_norm": 0.375,
      "acc_norm_stderr": 0.10094660663590604
    },
    "Ceval-valid-marxism": {
      "acc": 0.21052631578947367,
      "acc_stderr": 0.0960916767552923,
      "acc_norm": 0.21052631578947367,
      "acc_norm_stderr": 0.0960916767552923
    },
    "Ceval-valid-metrology_engineer": {
      "acc": 0.2916666666666667,
      "acc_stderr": 0.09477598811252415,
      "acc_norm": 0.2916666666666667,
      "acc_norm_stderr": 0.09477598811252415
    },
    "Ceval-valid-middle_school_biology": {
      "acc": 0.2857142857142857,
      "acc_stderr": 0.10101525445522108,
      "acc_norm": 0.2857142857142857,
      "acc_norm_stderr": 0.10101525445522108
    },
    "Ceval-valid-middle_school_chemistry": {
      "acc": 0.25,
      "acc_stderr": 0.09933992677987828,
      "acc_norm": 0.25,
      "acc_norm_stderr": 0.09933992677987828
    },
    "Ceval-valid-middle_school_geography": {
      "acc": 0.08333333333333333,
      "acc_stderr": 0.08333333333333333,
      "acc_norm": 0.08333333333333333,
      "acc_norm_stderr": 0.08333333333333333
    },
    "Ceval-valid-middle_school_history": {
      "acc": 0.18181818181818182,
      "acc_stderr": 0.08416546361568647,
      "acc_norm": 0.18181818181818182,
      "acc_norm_stderr": 0.08416546361568647
    },
    "Ceval-valid-middle_school_mathematics": {
      "acc": 0.3684210526315789,
      "acc_stderr": 0.1136972052352256,
      "acc_norm": 0.3684210526315789,
      "acc_norm_stderr": 0.1136972052352256
    },
    "Ceval-valid-middle_school_physics": {
      "acc": 0.2631578947368421,
      "acc_stderr": 0.10379087338771256,
      "acc_norm": 0.2631578947368421,
      "acc_norm_stderr": 0.10379087338771256
    },
    "Ceval-valid-middle_school_politics": {
      "acc": 0.3333333333333333,
      "acc_stderr": 0.10540925533894598,
      "acc_norm": 0.3333333333333333,
      "acc_norm_stderr": 0.10540925533894598
    },
    "Ceval-valid-modern_chinese_history": {
      "acc": 0.13043478260869565,
      "acc_stderr": 0.07180198468215396,
      "acc_norm": 0.13043478260869565,
      "acc_norm_stderr": 0.07180198468215396
    },
    "Ceval-valid-operating_system": {
      "acc": 0.10526315789473684,
      "acc_stderr": 0.0723351864143449,
      "acc_norm": 0.10526315789473684,
      "acc_norm_stderr": 0.0723351864143449
    },
    "Ceval-valid-physician": {
      "acc": 0.2857142857142857,
      "acc_stderr": 0.06520506636966263,
      "acc_norm": 0.2857142857142857,
      "acc_norm_stderr": 0.06520506636966263
    },
    "Ceval-valid-plant_protection": {
      "acc": 0.2727272727272727,
      "acc_stderr": 0.0971859061499725,
      "acc_norm": 0.2727272727272727,
      "acc_norm_stderr": 0.0971859061499725
    },
    "Ceval-valid-probability_and_statistics": {
      "acc": 0.3888888888888889,
      "acc_stderr": 0.11823563735376173,
      "acc_norm": 0.3888888888888889,
      "acc_norm_stderr": 0.11823563735376173
    },
    "Ceval-valid-professional_tour_guide": {
      "acc": 0.1724137931034483,
      "acc_stderr": 0.07138609234576078,
      "acc_norm": 0.1724137931034483,
      "acc_norm_stderr": 0.07138609234576078
    },
    "Ceval-valid-sports_science": {
      "acc": 0.0,
      "acc_stderr": 0.0,
      "acc_norm": 0.0,
      "acc_norm_stderr": 0.0
    },
    "Ceval-valid-tax_accountant": {
      "acc": 0.3469387755102041,
      "acc_stderr": 0.06870411522695292,
      "acc_norm": 0.3469387755102041,
      "acc_norm_stderr": 0.06870411522695292
    },
    "Ceval-valid-teacher_qualification": {
      "acc": 0.18181818181818182,
      "acc_stderr": 0.05881787629278457,
      "acc_norm": 0.18181818181818182,
      "acc_norm_stderr": 0.05881787629278457
    },
    "Ceval-valid-urban_and_rural_planner": {
      "acc": 0.34782608695652173,
      "acc_stderr": 0.07099970268936748,
      "acc_norm": 0.34782608695652173,
      "acc_norm_stderr": 0.07099970268936748
    },
    "Ceval-valid-veterinary_medicine": {
      "acc": 0.17391304347826086,
      "acc_stderr": 0.08081046758996391,
      "acc_norm": 0.17391304347826086,
      "acc_norm_stderr": 0.08081046758996391
    }
  },
  "versions": {
    "Ceval-valid-accountant": 1,
    "Ceval-valid-advanced_mathematics": 1,
    "Ceval-valid-art_studies": 1,
    "Ceval-valid-basic_medicine": 1,
    "Ceval-valid-business_administration": 1,
    "Ceval-valid-chinese_language_and_literature": 1,
    "Ceval-valid-civil_servant": 1,
    "Ceval-valid-clinical_medicine": 1,
    "Ceval-valid-college_chemistry": 1,
    "Ceval-valid-college_economics": 1,
    "Ceval-valid-college_physics": 1,
    "Ceval-valid-college_programming": 1,
    "Ceval-valid-computer_architecture": 1,
    "Ceval-valid-computer_network": 1,
    "Ceval-valid-discrete_mathematics": 1,
    "Ceval-valid-education_science": 1,
    "Ceval-valid-electrical_engineer": 1,
    "Ceval-valid-environmental_impact_assessment_engineer": 1,
    "Ceval-valid-fire_engineer": 1,
    "Ceval-valid-high_school_biology": 1,
    "Ceval-valid-high_school_chemistry": 1,
    "Ceval-valid-high_school_chinese": 1,
    "Ceval-valid-high_school_geography": 1,
    "Ceval-valid-high_school_history": 1,
    "Ceval-valid-high_school_mathematics": 1,
    "Ceval-valid-high_school_physics": 1,
    "Ceval-valid-high_school_politics": 1,
    "Ceval-valid-ideological_and_moral_cultivation": 1,
    "Ceval-valid-law": 1,
    "Ceval-valid-legal_professional": 1,
    "Ceval-valid-logic": 1,
    "Ceval-valid-mao_zedong_thought": 1,
    "Ceval-valid-marxism": 1,
    "Ceval-valid-metrology_engineer": 1,
    "Ceval-valid-middle_school_biology": 1,
    "Ceval-valid-middle_school_chemistry": 1,
    "Ceval-valid-middle_school_geography": 1,
    "Ceval-valid-middle_school_history": 1,
    "Ceval-valid-middle_school_mathematics": 1,
    "Ceval-valid-middle_school_physics": 1,
    "Ceval-valid-middle_school_politics": 1,
    "Ceval-valid-modern_chinese_history": 1,
    "Ceval-valid-operating_system": 1,
    "Ceval-valid-physician": 1,
    "Ceval-valid-plant_protection": 1,
    "Ceval-valid-probability_and_statistics": 1,
    "Ceval-valid-professional_tour_guide": 1,
    "Ceval-valid-sports_science": 1,
    "Ceval-valid-tax_accountant": 1,
    "Ceval-valid-teacher_qualification": 1,
    "Ceval-valid-urban_and_rural_planner": 1,
    "Ceval-valid-veterinary_medicine": 1
  },
  "config": {
    "model": "transnormer2",
    "model_args": "path=/cpfs01/user/shenxuyang/LLM/Models/transnormerLLM-hf/7B-16000,max_gen_token=128,dtype=bfloat16",
    "num_fewshot": 5,
    "batch_size": "auto",
    "batch_sizes": [
      8
    ],
    "device": "cuda:1",
    "no_cache": false,
    "limit": null,
    "bootstrap_iters": 100000,
    "description_dict": {}
  }
}