{
  "results": {
    "Ceval-valid-accountant": {
      "acc": 0.4489795918367347,
      "acc_stderr": 0.07179207795648103,
      "acc_norm": 0.4489795918367347,
      "acc_norm_stderr": 0.07179207795648103
    },
    "Ceval-valid-advanced_mathematics": {
      "acc": 0.21052631578947367,
      "acc_stderr": 0.0960916767552923,
      "acc_norm": 0.21052631578947367,
      "acc_norm_stderr": 0.0960916767552923
    },
    "Ceval-valid-art_studies": {
      "acc": 0.24242424242424243,
      "acc_stderr": 0.07575757575757577,
      "acc_norm": 0.24242424242424243,
      "acc_norm_stderr": 0.07575757575757577
    },
    "Ceval-valid-basic_medicine": {
      "acc": 0.10526315789473684,
      "acc_stderr": 0.07233518641434489,
      "acc_norm": 0.10526315789473684,
      "acc_norm_stderr": 0.07233518641434489
    },
    "Ceval-valid-business_administration": {
      "acc": 0.30303030303030304,
      "acc_stderr": 0.08124094920275463,
      "acc_norm": 0.30303030303030304,
      "acc_norm_stderr": 0.08124094920275463
    },
    "Ceval-valid-chinese_language_and_literature": {
      "acc": 0.17391304347826086,
      "acc_stderr": 0.08081046758996392,
      "acc_norm": 0.17391304347826086,
      "acc_norm_stderr": 0.08081046758996392
    },
    "Ceval-valid-civil_servant": {
      "acc": 0.19148936170212766,
      "acc_stderr": 0.05801446334976933,
      "acc_norm": 0.19148936170212766,
      "acc_norm_stderr": 0.05801446334976933
    },
    "Ceval-valid-clinical_medicine": {
      "acc": 0.2727272727272727,
      "acc_stderr": 0.0971859061499725,
      "acc_norm": 0.2727272727272727,
      "acc_norm_stderr": 0.0971859061499725
    },
    "Ceval-valid-college_chemistry": {
      "acc": 0.25,
      "acc_stderr": 0.09028938981432691,
      "acc_norm": 0.25,
      "acc_norm_stderr": 0.09028938981432691
    },
    "Ceval-valid-college_economics": {
      "acc": 0.36363636363636365,
      "acc_stderr": 0.06546202725664504,
      "acc_norm": 0.36363636363636365,
      "acc_norm_stderr": 0.06546202725664504
    },
    "Ceval-valid-college_physics": {
      "acc": 0.3157894736842105,
      "acc_stderr": 0.10956136839295434,
      "acc_norm": 0.3157894736842105,
      "acc_norm_stderr": 0.10956136839295434
    },
    "Ceval-valid-college_programming": {
      "acc": 0.16216216216216217,
      "acc_stderr": 0.06143325088732367,
      "acc_norm": 0.16216216216216217,
      "acc_norm_stderr": 0.06143325088732367
    },
    "Ceval-valid-computer_architecture": {
      "acc": 0.2857142857142857,
      "acc_stderr": 0.10101525445522108,
      "acc_norm": 0.2857142857142857,
      "acc_norm_stderr": 0.10101525445522108
    },
    "Ceval-valid-computer_network": {
      "acc": 0.2631578947368421,
      "acc_stderr": 0.10379087338771256,
      "acc_norm": 0.2631578947368421,
      "acc_norm_stderr": 0.10379087338771256
    },
    "Ceval-valid-discrete_mathematics": {
      "acc": 0.125,
      "acc_stderr": 0.08539125638299665,
      "acc_norm": 0.125,
      "acc_norm_stderr": 0.08539125638299665
    },
    "Ceval-valid-education_science": {
      "acc": 0.3448275862068966,
      "acc_stderr": 0.08982552969857371,
      "acc_norm": 0.3448275862068966,
      "acc_norm_stderr": 0.08982552969857371
    },
    "Ceval-valid-electrical_engineer": {
      "acc": 0.2972972972972973,
      "acc_stderr": 0.07617808344724214,
      "acc_norm": 0.2972972972972973,
      "acc_norm_stderr": 0.07617808344724214
    },
    "Ceval-valid-environmental_impact_assessment_engineer": {
      "acc": 0.16129032258064516,
      "acc_stderr": 0.06715051611181073,
      "acc_norm": 0.16129032258064516,
      "acc_norm_stderr": 0.06715051611181073
    },
    "Ceval-valid-fire_engineer": {
      "acc": 0.16129032258064516,
      "acc_stderr": 0.06715051611181073,
      "acc_norm": 0.16129032258064516,
      "acc_norm_stderr": 0.06715051611181073
    },
    "Ceval-valid-high_school_biology": {
      "acc": 0.21052631578947367,
      "acc_stderr": 0.0960916767552923,
      "acc_norm": 0.21052631578947367,
      "acc_norm_stderr": 0.0960916767552923
    },
    "Ceval-valid-high_school_chemistry": {
      "acc": 0.3684210526315789,
      "acc_stderr": 0.1136972052352256,
      "acc_norm": 0.3684210526315789,
      "acc_norm_stderr": 0.1136972052352256
    },
    "Ceval-valid-high_school_chinese": {
      "acc": 0.21052631578947367,
      "acc_stderr": 0.0960916767552923,
      "acc_norm": 0.21052631578947367,
      "acc_norm_stderr": 0.0960916767552923
    },
    "Ceval-valid-high_school_geography": {
      "acc": 0.2631578947368421,
      "acc_stderr": 0.10379087338771256,
      "acc_norm": 0.2631578947368421,
      "acc_norm_stderr": 0.10379087338771256
    },
    "Ceval-valid-high_school_history": {
      "acc": 0.2,
      "acc_stderr": 0.09176629354822471,
      "acc_norm": 0.2,
      "acc_norm_stderr": 0.09176629354822471
    },
    "Ceval-valid-high_school_mathematics": {
      "acc": 0.5,
      "acc_stderr": 0.12126781251816651,
      "acc_norm": 0.5,
      "acc_norm_stderr": 0.12126781251816651
    },
    "Ceval-valid-high_school_physics": {
      "acc": 0.2631578947368421,
      "acc_stderr": 0.10379087338771256,
      "acc_norm": 0.2631578947368421,
      "acc_norm_stderr": 0.10379087338771256
    },
    "Ceval-valid-high_school_politics": {
      "acc": 0.10526315789473684,
      "acc_stderr": 0.07233518641434489,
      "acc_norm": 0.10526315789473684,
      "acc_norm_stderr": 0.07233518641434489
    },
    "Ceval-valid-ideological_and_moral_cultivation": {
      "acc": 0.3157894736842105,
      "acc_stderr": 0.10956136839295434,
      "acc_norm": 0.3157894736842105,
      "acc_norm_stderr": 0.10956136839295434
    },
    "Ceval-valid-law": {
      "acc": 0.25,
      "acc_stderr": 0.09028938981432691,
      "acc_norm": 0.25,
      "acc_norm_stderr": 0.09028938981432691
    },
    "Ceval-valid-legal_professional": {
      "acc": 0.17391304347826086,
      "acc_stderr": 0.08081046758996394,
      "acc_norm": 0.17391304347826086,
      "acc_norm_stderr": 0.08081046758996394
    },
    "Ceval-valid-logic": {
      "acc": 0.2727272727272727,
      "acc_stderr": 0.0971859061499725,
      "acc_norm": 0.2727272727272727,
      "acc_norm_stderr": 0.0971859061499725
    },
    "Ceval-valid-mao_zedong_thought": {
      "acc": 0.4166666666666667,
      "acc_stderr": 0.10279899245732686,
      "acc_norm": 0.4166666666666667,
      "acc_norm_stderr": 0.10279899245732686
    },
    "Ceval-valid-marxism": {
      "acc": 0.21052631578947367,
      "acc_stderr": 0.0960916767552923,
      "acc_norm": 0.21052631578947367,
      "acc_norm_stderr": 0.0960916767552923
    },
    "Ceval-valid-metrology_engineer": {
      "acc": 0.20833333333333334,
      "acc_stderr": 0.08468112965594378,
      "acc_norm": 0.20833333333333334,
      "acc_norm_stderr": 0.08468112965594378
    },
    "Ceval-valid-middle_school_biology": {
      "acc": 0.23809523809523808,
      "acc_stderr": 0.09523809523809523,
      "acc_norm": 0.23809523809523808,
      "acc_norm_stderr": 0.09523809523809523
    },
    "Ceval-valid-middle_school_chemistry": {
      "acc": 0.4,
      "acc_stderr": 0.11239029738980327,
      "acc_norm": 0.4,
      "acc_norm_stderr": 0.11239029738980327
    },
    "Ceval-valid-middle_school_geography": {
      "acc": 0.16666666666666666,
      "acc_stderr": 0.11236664374387369,
      "acc_norm": 0.16666666666666666,
      "acc_norm_stderr": 0.11236664374387369
    },
    "Ceval-valid-middle_school_history": {
      "acc": 0.3181818181818182,
      "acc_stderr": 0.10163945352271771,
      "acc_norm": 0.3181818181818182,
      "acc_norm_stderr": 0.10163945352271771
    },
    "Ceval-valid-middle_school_mathematics": {
      "acc": 0.42105263157894735,
      "acc_stderr": 0.11637279966159299,
      "acc_norm": 0.42105263157894735,
      "acc_norm_stderr": 0.11637279966159299
    },
    "Ceval-valid-middle_school_physics": {
      "acc": 0.3157894736842105,
      "acc_stderr": 0.10956136839295433,
      "acc_norm": 0.3157894736842105,
      "acc_norm_stderr": 0.10956136839295433
    },
    "Ceval-valid-middle_school_politics": {
      "acc": 0.23809523809523808,
      "acc_stderr": 0.09523809523809523,
      "acc_norm": 0.23809523809523808,
      "acc_norm_stderr": 0.09523809523809523
    },
    "Ceval-valid-modern_chinese_history": {
      "acc": 0.21739130434782608,
      "acc_stderr": 0.0879391124952055,
      "acc_norm": 0.21739130434782608,
      "acc_norm_stderr": 0.0879391124952055
    },
    "Ceval-valid-operating_system": {
      "acc": 0.2631578947368421,
      "acc_stderr": 0.10379087338771256,
      "acc_norm": 0.2631578947368421,
      "acc_norm_stderr": 0.10379087338771256
    },
    "Ceval-valid-physician": {
      "acc": 0.20408163265306123,
      "acc_stderr": 0.058172215566282534,
      "acc_norm": 0.20408163265306123,
      "acc_norm_stderr": 0.058172215566282534
    },
    "Ceval-valid-plant_protection": {
      "acc": 0.3181818181818182,
      "acc_stderr": 0.10163945352271771,
      "acc_norm": 0.3181818181818182,
      "acc_norm_stderr": 0.10163945352271771
    },
    "Ceval-valid-probability_and_statistics": {
      "acc": 0.2777777777777778,
      "acc_stderr": 0.1086324845659782,
      "acc_norm": 0.2777777777777778,
      "acc_norm_stderr": 0.1086324845659782
    },
    "Ceval-valid-professional_tour_guide": {
      "acc": 0.2413793103448276,
      "acc_stderr": 0.080869237238335,
      "acc_norm": 0.2413793103448276,
      "acc_norm_stderr": 0.080869237238335
    },
    "Ceval-valid-sports_science": {
      "acc": 0.15789473684210525,
      "acc_stderr": 0.08594700851870798,
      "acc_norm": 0.15789473684210525,
      "acc_norm_stderr": 0.08594700851870798
    },
    "Ceval-valid-tax_accountant": {
      "acc": 0.2857142857142857,
      "acc_stderr": 0.06520506636966263,
      "acc_norm": 0.2857142857142857,
      "acc_norm_stderr": 0.06520506636966263
    },
    "Ceval-valid-teacher_qualification": {
      "acc": 0.22727272727272727,
      "acc_stderr": 0.06390760676613884,
      "acc_norm": 0.22727272727272727,
      "acc_norm_stderr": 0.06390760676613884
    },
    "Ceval-valid-urban_and_rural_planner": {
      "acc": 0.2826086956521739,
      "acc_stderr": 0.06712194885164875,
      "acc_norm": 0.2826086956521739,
      "acc_norm_stderr": 0.06712194885164875
    },
    "Ceval-valid-veterinary_medicine": {
      "acc": 0.30434782608695654,
      "acc_stderr": 0.09810018692482894,
      "acc_norm": 0.30434782608695654,
      "acc_norm_stderr": 0.09810018692482894
    }
  },
  "versions": {
    "Ceval-valid-accountant": 1,
    "Ceval-valid-advanced_mathematics": 1,
    "Ceval-valid-art_studies": 1,
    "Ceval-valid-basic_medicine": 1,
    "Ceval-valid-business_administration": 1,
    "Ceval-valid-chinese_language_and_literature": 1,
    "Ceval-valid-civil_servant": 1,
    "Ceval-valid-clinical_medicine": 1,
    "Ceval-valid-college_chemistry": 1,
    "Ceval-valid-college_economics": 1,
    "Ceval-valid-college_physics": 1,
    "Ceval-valid-college_programming": 1,
    "Ceval-valid-computer_architecture": 1,
    "Ceval-valid-computer_network": 1,
    "Ceval-valid-discrete_mathematics": 1,
    "Ceval-valid-education_science": 1,
    "Ceval-valid-electrical_engineer": 1,
    "Ceval-valid-environmental_impact_assessment_engineer": 1,
    "Ceval-valid-fire_engineer": 1,
    "Ceval-valid-high_school_biology": 1,
    "Ceval-valid-high_school_chemistry": 1,
    "Ceval-valid-high_school_chinese": 1,
    "Ceval-valid-high_school_geography": 1,
    "Ceval-valid-high_school_history": 1,
    "Ceval-valid-high_school_mathematics": 1,
    "Ceval-valid-high_school_physics": 1,
    "Ceval-valid-high_school_politics": 1,
    "Ceval-valid-ideological_and_moral_cultivation": 1,
    "Ceval-valid-law": 1,
    "Ceval-valid-legal_professional": 1,
    "Ceval-valid-logic": 1,
    "Ceval-valid-mao_zedong_thought": 1,
    "Ceval-valid-marxism": 1,
    "Ceval-valid-metrology_engineer": 1,
    "Ceval-valid-middle_school_biology": 1,
    "Ceval-valid-middle_school_chemistry": 1,
    "Ceval-valid-middle_school_geography": 1,
    "Ceval-valid-middle_school_history": 1,
    "Ceval-valid-middle_school_mathematics": 1,
    "Ceval-valid-middle_school_physics": 1,
    "Ceval-valid-middle_school_politics": 1,
    "Ceval-valid-modern_chinese_history": 1,
    "Ceval-valid-operating_system": 1,
    "Ceval-valid-physician": 1,
    "Ceval-valid-plant_protection": 1,
    "Ceval-valid-probability_and_statistics": 1,
    "Ceval-valid-professional_tour_guide": 1,
    "Ceval-valid-sports_science": 1,
    "Ceval-valid-tax_accountant": 1,
    "Ceval-valid-teacher_qualification": 1,
    "Ceval-valid-urban_and_rural_planner": 1,
    "Ceval-valid-veterinary_medicine": 1
  },
  "config": {
    "model": "transnormer",
    "model_args": "path=/cpfs01/user/shenxuyang/LLM/Models/transnormerLLM-hf/7B-22250,max_length=1024,dtype=bfloat16",
    "num_fewshot": 5,
    "batch_size": "8",
    "batch_sizes": [],
    "device": "cuda:1",
    "no_cache": false,
    "limit": null,
    "bootstrap_iters": 100000,
    "description_dict": {}
  }
}