{
  "results": {
    "Ceval-valid-accountant": {
      "acc": 0.30612244897959184,
      "acc_stderr": 0.06652247352247599,
      "acc_norm": 0.30612244897959184,
      "acc_norm_stderr": 0.06652247352247599
    },
    "Ceval-valid-advanced_mathematics": {
      "acc": 0.21052631578947367,
      "acc_stderr": 0.0960916767552923,
      "acc_norm": 0.21052631578947367,
      "acc_norm_stderr": 0.0960916767552923
    },
    "Ceval-valid-art_studies": {
      "acc": 0.2727272727272727,
      "acc_stderr": 0.07872958216222173,
      "acc_norm": 0.2727272727272727,
      "acc_norm_stderr": 0.07872958216222173
    },
    "Ceval-valid-basic_medicine": {
      "acc": 0.47368421052631576,
      "acc_stderr": 0.11768778828946262,
      "acc_norm": 0.47368421052631576,
      "acc_norm_stderr": 0.11768778828946262
    },
    "Ceval-valid-business_administration": {
      "acc": 0.12121212121212122,
      "acc_stderr": 0.057695250801999304,
      "acc_norm": 0.12121212121212122,
      "acc_norm_stderr": 0.057695250801999304
    },
    "Ceval-valid-chinese_language_and_literature": {
      "acc": 0.21739130434782608,
      "acc_stderr": 0.08793911249520549,
      "acc_norm": 0.21739130434782608,
      "acc_norm_stderr": 0.08793911249520549
    },
    "Ceval-valid-civil_servant": {
      "acc": 0.1702127659574468,
      "acc_stderr": 0.055411578656325386,
      "acc_norm": 0.1702127659574468,
      "acc_norm_stderr": 0.055411578656325386
    },
    "Ceval-valid-clinical_medicine": {
      "acc": 0.2727272727272727,
      "acc_stderr": 0.0971859061499725,
      "acc_norm": 0.2727272727272727,
      "acc_norm_stderr": 0.0971859061499725
    },
    "Ceval-valid-college_chemistry": {
      "acc": 0.25,
      "acc_stderr": 0.09028938981432691,
      "acc_norm": 0.25,
      "acc_norm_stderr": 0.09028938981432691
    },
    "Ceval-valid-college_economics": {
      "acc": 0.2545454545454545,
      "acc_stderr": 0.059278386873217015,
      "acc_norm": 0.2545454545454545,
      "acc_norm_stderr": 0.059278386873217015
    },
    "Ceval-valid-college_physics": {
      "acc": 0.3157894736842105,
      "acc_stderr": 0.10956136839295433,
      "acc_norm": 0.3157894736842105,
      "acc_norm_stderr": 0.10956136839295433
    },
    "Ceval-valid-college_programming": {
      "acc": 0.21621621621621623,
      "acc_stderr": 0.06861056852129649,
      "acc_norm": 0.21621621621621623,
      "acc_norm_stderr": 0.06861056852129649
    },
    "Ceval-valid-computer_architecture": {
      "acc": 0.2857142857142857,
      "acc_stderr": 0.10101525445522108,
      "acc_norm": 0.2857142857142857,
      "acc_norm_stderr": 0.10101525445522108
    },
    "Ceval-valid-computer_network": {
      "acc": 0.2631578947368421,
      "acc_stderr": 0.10379087338771256,
      "acc_norm": 0.2631578947368421,
      "acc_norm_stderr": 0.10379087338771256
    },
    "Ceval-valid-discrete_mathematics": {
      "acc": 0.3125,
      "acc_stderr": 0.11967838846954226,
      "acc_norm": 0.3125,
      "acc_norm_stderr": 0.11967838846954226
    },
    "Ceval-valid-education_science": {
      "acc": 0.1724137931034483,
      "acc_stderr": 0.07138609234576078,
      "acc_norm": 0.1724137931034483,
      "acc_norm_stderr": 0.07138609234576078
    },
    "Ceval-valid-electrical_engineer": {
      "acc": 0.21621621621621623,
      "acc_stderr": 0.0686105685212965,
      "acc_norm": 0.21621621621621623,
      "acc_norm_stderr": 0.0686105685212965
    },
    "Ceval-valid-environmental_impact_assessment_engineer": {
      "acc": 0.16129032258064516,
      "acc_stderr": 0.06715051611181073,
      "acc_norm": 0.16129032258064516,
      "acc_norm_stderr": 0.06715051611181073
    },
    "Ceval-valid-fire_engineer": {
      "acc": 0.1935483870967742,
      "acc_stderr": 0.07213122508063836,
      "acc_norm": 0.1935483870967742,
      "acc_norm_stderr": 0.07213122508063836
    },
    "Ceval-valid-high_school_biology": {
      "acc": 0.15789473684210525,
      "acc_stderr": 0.08594700851870798,
      "acc_norm": 0.15789473684210525,
      "acc_norm_stderr": 0.08594700851870798
    },
    "Ceval-valid-high_school_chemistry": {
      "acc": 0.3157894736842105,
      "acc_stderr": 0.10956136839295434,
      "acc_norm": 0.3157894736842105,
      "acc_norm_stderr": 0.10956136839295434
    },
    "Ceval-valid-high_school_chinese": {
      "acc": 0.15789473684210525,
      "acc_stderr": 0.08594700851870798,
      "acc_norm": 0.15789473684210525,
      "acc_norm_stderr": 0.08594700851870798
    },
    "Ceval-valid-high_school_geography": {
      "acc": 0.3684210526315789,
      "acc_stderr": 0.11369720523522557,
      "acc_norm": 0.3684210526315789,
      "acc_norm_stderr": 0.11369720523522557
    },
    "Ceval-valid-high_school_history": {
      "acc": 0.2,
      "acc_stderr": 0.09176629354822471,
      "acc_norm": 0.2,
      "acc_norm_stderr": 0.09176629354822471
    },
    "Ceval-valid-high_school_mathematics": {
      "acc": 0.2222222222222222,
      "acc_stderr": 0.10083169033033672,
      "acc_norm": 0.2222222222222222,
      "acc_norm_stderr": 0.10083169033033672
    },
    "Ceval-valid-high_school_physics": {
      "acc": 0.21052631578947367,
      "acc_stderr": 0.0960916767552923,
      "acc_norm": 0.21052631578947367,
      "acc_norm_stderr": 0.0960916767552923
    },
    "Ceval-valid-high_school_politics": {
      "acc": 0.15789473684210525,
      "acc_stderr": 0.08594700851870798,
      "acc_norm": 0.15789473684210525,
      "acc_norm_stderr": 0.08594700851870798
    },
    "Ceval-valid-ideological_and_moral_cultivation": {
      "acc": 0.2631578947368421,
      "acc_stderr": 0.10379087338771256,
      "acc_norm": 0.2631578947368421,
      "acc_norm_stderr": 0.10379087338771256
    },
    "Ceval-valid-law": {
      "acc": 0.25,
      "acc_stderr": 0.09028938981432691,
      "acc_norm": 0.25,
      "acc_norm_stderr": 0.09028938981432691
    },
    "Ceval-valid-legal_professional": {
      "acc": 0.13043478260869565,
      "acc_stderr": 0.07180198468215396,
      "acc_norm": 0.13043478260869565,
      "acc_norm_stderr": 0.07180198468215396
    },
    "Ceval-valid-logic": {
      "acc": 0.36363636363636365,
      "acc_stderr": 0.10497277621629558,
      "acc_norm": 0.36363636363636365,
      "acc_norm_stderr": 0.10497277621629558
    },
    "Ceval-valid-mao_zedong_thought": {
      "acc": 0.4166666666666667,
      "acc_stderr": 0.10279899245732686,
      "acc_norm": 0.4166666666666667,
      "acc_norm_stderr": 0.10279899245732686
    },
    "Ceval-valid-marxism": {
      "acc": 0.3684210526315789,
      "acc_stderr": 0.11369720523522558,
      "acc_norm": 0.3684210526315789,
      "acc_norm_stderr": 0.11369720523522558
    },
    "Ceval-valid-metrology_engineer": {
      "acc": 0.20833333333333334,
      "acc_stderr": 0.08468112965594378,
      "acc_norm": 0.20833333333333334,
      "acc_norm_stderr": 0.08468112965594378
    },
    "Ceval-valid-middle_school_biology": {
      "acc": 0.19047619047619047,
      "acc_stderr": 0.08780518530755134,
      "acc_norm": 0.19047619047619047,
      "acc_norm_stderr": 0.08780518530755134
    },
    "Ceval-valid-middle_school_chemistry": {
      "acc": 0.3,
      "acc_stderr": 0.10513149660756933,
      "acc_norm": 0.3,
      "acc_norm_stderr": 0.10513149660756933
    },
    "Ceval-valid-middle_school_geography": {
      "acc": 0.08333333333333333,
      "acc_stderr": 0.08333333333333333,
      "acc_norm": 0.08333333333333333,
      "acc_norm_stderr": 0.08333333333333333
    },
    "Ceval-valid-middle_school_history": {
      "acc": 0.2727272727272727,
      "acc_stderr": 0.09718590614997252,
      "acc_norm": 0.2727272727272727,
      "acc_norm_stderr": 0.09718590614997252
    },
    "Ceval-valid-middle_school_mathematics": {
      "acc": 0.2631578947368421,
      "acc_stderr": 0.10379087338771256,
      "acc_norm": 0.2631578947368421,
      "acc_norm_stderr": 0.10379087338771256
    },
    "Ceval-valid-middle_school_physics": {
      "acc": 0.21052631578947367,
      "acc_stderr": 0.0960916767552923,
      "acc_norm": 0.21052631578947367,
      "acc_norm_stderr": 0.0960916767552923
    },
    "Ceval-valid-middle_school_politics": {
      "acc": 0.2857142857142857,
      "acc_stderr": 0.10101525445522107,
      "acc_norm": 0.2857142857142857,
      "acc_norm_stderr": 0.10101525445522107
    },
    "Ceval-valid-modern_chinese_history": {
      "acc": 0.30434782608695654,
      "acc_stderr": 0.09810018692482894,
      "acc_norm": 0.30434782608695654,
      "acc_norm_stderr": 0.09810018692482894
    },
    "Ceval-valid-operating_system": {
      "acc": 0.3157894736842105,
      "acc_stderr": 0.10956136839295433,
      "acc_norm": 0.3157894736842105,
      "acc_norm_stderr": 0.10956136839295433
    },
    "Ceval-valid-physician": {
      "acc": 0.2857142857142857,
      "acc_stderr": 0.06520506636966263,
      "acc_norm": 0.2857142857142857,
      "acc_norm_stderr": 0.06520506636966263
    },
    "Ceval-valid-plant_protection": {
      "acc": 0.18181818181818182,
      "acc_stderr": 0.08416546361568647,
      "acc_norm": 0.18181818181818182,
      "acc_norm_stderr": 0.08416546361568647
    },
    "Ceval-valid-probability_and_statistics": {
      "acc": 0.05555555555555555,
      "acc_stderr": 0.055555555555555566,
      "acc_norm": 0.05555555555555555,
      "acc_norm_stderr": 0.055555555555555566
    },
    "Ceval-valid-professional_tour_guide": {
      "acc": 0.3103448275862069,
      "acc_stderr": 0.08742975048915691,
      "acc_norm": 0.3103448275862069,
      "acc_norm_stderr": 0.08742975048915691
    },
    "Ceval-valid-sports_science": {
      "acc": 0.10526315789473684,
      "acc_stderr": 0.07233518641434489,
      "acc_norm": 0.10526315789473684,
      "acc_norm_stderr": 0.07233518641434489
    },
    "Ceval-valid-tax_accountant": {
      "acc": 0.3469387755102041,
      "acc_stderr": 0.06870411522695292,
      "acc_norm": 0.3469387755102041,
      "acc_norm_stderr": 0.06870411522695292
    },
    "Ceval-valid-teacher_qualification": {
      "acc": 0.18181818181818182,
      "acc_stderr": 0.05881787629278457,
      "acc_norm": 0.18181818181818182,
      "acc_norm_stderr": 0.05881787629278457
    },
    "Ceval-valid-urban_and_rural_planner": {
      "acc": 0.21739130434782608,
      "acc_stderr": 0.06148754619013454,
      "acc_norm": 0.21739130434782608,
      "acc_norm_stderr": 0.06148754619013454
    },
    "Ceval-valid-veterinary_medicine": {
      "acc": 0.17391304347826086,
      "acc_stderr": 0.08081046758996391,
      "acc_norm": 0.17391304347826086,
      "acc_norm_stderr": 0.08081046758996391
    }
  },
  "versions": {
    "Ceval-valid-accountant": 1,
    "Ceval-valid-advanced_mathematics": 1,
    "Ceval-valid-art_studies": 1,
    "Ceval-valid-basic_medicine": 1,
    "Ceval-valid-business_administration": 1,
    "Ceval-valid-chinese_language_and_literature": 1,
    "Ceval-valid-civil_servant": 1,
    "Ceval-valid-clinical_medicine": 1,
    "Ceval-valid-college_chemistry": 1,
    "Ceval-valid-college_economics": 1,
    "Ceval-valid-college_physics": 1,
    "Ceval-valid-college_programming": 1,
    "Ceval-valid-computer_architecture": 1,
    "Ceval-valid-computer_network": 1,
    "Ceval-valid-discrete_mathematics": 1,
    "Ceval-valid-education_science": 1,
    "Ceval-valid-electrical_engineer": 1,
    "Ceval-valid-environmental_impact_assessment_engineer": 1,
    "Ceval-valid-fire_engineer": 1,
    "Ceval-valid-high_school_biology": 1,
    "Ceval-valid-high_school_chemistry": 1,
    "Ceval-valid-high_school_chinese": 1,
    "Ceval-valid-high_school_geography": 1,
    "Ceval-valid-high_school_history": 1,
    "Ceval-valid-high_school_mathematics": 1,
    "Ceval-valid-high_school_physics": 1,
    "Ceval-valid-high_school_politics": 1,
    "Ceval-valid-ideological_and_moral_cultivation": 1,
    "Ceval-valid-law": 1,
    "Ceval-valid-legal_professional": 1,
    "Ceval-valid-logic": 1,
    "Ceval-valid-mao_zedong_thought": 1,
    "Ceval-valid-marxism": 1,
    "Ceval-valid-metrology_engineer": 1,
    "Ceval-valid-middle_school_biology": 1,
    "Ceval-valid-middle_school_chemistry": 1,
    "Ceval-valid-middle_school_geography": 1,
    "Ceval-valid-middle_school_history": 1,
    "Ceval-valid-middle_school_mathematics": 1,
    "Ceval-valid-middle_school_physics": 1,
    "Ceval-valid-middle_school_politics": 1,
    "Ceval-valid-modern_chinese_history": 1,
    "Ceval-valid-operating_system": 1,
    "Ceval-valid-physician": 1,
    "Ceval-valid-plant_protection": 1,
    "Ceval-valid-probability_and_statistics": 1,
    "Ceval-valid-professional_tour_guide": 1,
    "Ceval-valid-sports_science": 1,
    "Ceval-valid-tax_accountant": 1,
    "Ceval-valid-teacher_qualification": 1,
    "Ceval-valid-urban_and_rural_planner": 1,
    "Ceval-valid-veterinary_medicine": 1
  },
  "config": {
    "model": "transnormer",
    "model_args": "path=/cpfs01/user/shenxuyang/LLM/Models/transnormerLLM-hf/7B-19250,max_length=1024,dtype=bfloat16",
    "num_fewshot": 5,
    "batch_size": "8",
    "batch_sizes": [],
    "device": "cuda:1",
    "no_cache": false,
    "limit": null,
    "bootstrap_iters": 100000,
    "description_dict": {}
  }
}