{
  "results": {
    "hendrycksTest-abstract_algebra": {
      "acc": 0.22,
      "acc_stderr": 0.04163331998932268,
      "acc_norm": 0.22,
      "acc_norm_stderr": 0.04163331998932268
    },
    "hendrycksTest-anatomy": {
      "acc": 0.2,
      "acc_stderr": 0.034554737023254366,
      "acc_norm": 0.2,
      "acc_norm_stderr": 0.034554737023254366
    },
    "hendrycksTest-astronomy": {
      "acc": 0.17763157894736842,
      "acc_stderr": 0.031103182383123398,
      "acc_norm": 0.17763157894736842,
      "acc_norm_stderr": 0.031103182383123398
    },
    "hendrycksTest-business_ethics": {
      "acc": 0.24,
      "acc_stderr": 0.04292346959909283,
      "acc_norm": 0.24,
      "acc_norm_stderr": 0.04292346959909283
    },
    "hendrycksTest-clinical_knowledge": {
      "acc": 0.2037735849056604,
      "acc_stderr": 0.024790784501775406,
      "acc_norm": 0.2037735849056604,
      "acc_norm_stderr": 0.024790784501775406
    },
    "hendrycksTest-college_biology": {
      "acc": 0.2569444444444444,
      "acc_stderr": 0.03653946969442099,
      "acc_norm": 0.2569444444444444,
      "acc_norm_stderr": 0.03653946969442099
    },
    "hendrycksTest-college_chemistry": {
      "acc": 0.2,
      "acc_stderr": 0.04020151261036845,
      "acc_norm": 0.2,
      "acc_norm_stderr": 0.04020151261036845
    },
    "hendrycksTest-college_computer_science": {
      "acc": 0.26,
      "acc_stderr": 0.0440844002276808,
      "acc_norm": 0.26,
      "acc_norm_stderr": 0.0440844002276808
    },
    "hendrycksTest-college_mathematics": {
      "acc": 0.2,
      "acc_stderr": 0.04020151261036846,
      "acc_norm": 0.2,
      "acc_norm_stderr": 0.04020151261036846
    },
    "hendrycksTest-college_medicine": {
      "acc": 0.20809248554913296,
      "acc_stderr": 0.030952890217749874,
      "acc_norm": 0.20809248554913296,
      "acc_norm_stderr": 0.030952890217749874
    },
    "hendrycksTest-college_physics": {
      "acc": 0.21568627450980393,
      "acc_stderr": 0.04092563958237654,
      "acc_norm": 0.21568627450980393,
      "acc_norm_stderr": 0.04092563958237654
    },
    "hendrycksTest-computer_security": {
      "acc": 0.27,
      "acc_stderr": 0.044619604333847394,
      "acc_norm": 0.27,
      "acc_norm_stderr": 0.044619604333847394
    },
    "hendrycksTest-conceptual_physics": {
      "acc": 0.26382978723404255,
      "acc_stderr": 0.028809989854102973,
      "acc_norm": 0.26382978723404255,
      "acc_norm_stderr": 0.028809989854102973
    },
    "hendrycksTest-econometrics": {
      "acc": 0.2543859649122807,
      "acc_stderr": 0.040969851398436695,
      "acc_norm": 0.2543859649122807,
      "acc_norm_stderr": 0.040969851398436695
    },
    "hendrycksTest-electrical_engineering": {
      "acc": 0.2413793103448276,
      "acc_stderr": 0.03565998174135302,
      "acc_norm": 0.2413793103448276,
      "acc_norm_stderr": 0.03565998174135302
    },
    "hendrycksTest-elementary_mathematics": {
      "acc": 0.2275132275132275,
      "acc_stderr": 0.02159126940782378,
      "acc_norm": 0.2275132275132275,
      "acc_norm_stderr": 0.02159126940782378
    },
    "hendrycksTest-formal_logic": {
      "acc": 0.23809523809523808,
      "acc_stderr": 0.038095238095238106,
      "acc_norm": 0.23809523809523808,
      "acc_norm_stderr": 0.038095238095238106
    },
    "hendrycksTest-global_facts": {
      "acc": 0.18,
      "acc_stderr": 0.038612291966536934,
      "acc_norm": 0.18,
      "acc_norm_stderr": 0.038612291966536934
    },
    "hendrycksTest-high_school_biology": {
      "acc": 0.2838709677419355,
      "acc_stderr": 0.02564938106302925,
      "acc_norm": 0.2838709677419355,
      "acc_norm_stderr": 0.02564938106302925
    },
    "hendrycksTest-high_school_chemistry": {
      "acc": 0.27586206896551724,
      "acc_stderr": 0.03144712581678242,
      "acc_norm": 0.27586206896551724,
      "acc_norm_stderr": 0.03144712581678242
    },
    "hendrycksTest-high_school_computer_science": {
      "acc": 0.26,
      "acc_stderr": 0.04408440022768078,
      "acc_norm": 0.26,
      "acc_norm_stderr": 0.04408440022768078
    },
    "hendrycksTest-high_school_european_history": {
      "acc": 0.21818181818181817,
      "acc_stderr": 0.03225078108306289,
      "acc_norm": 0.21818181818181817,
      "acc_norm_stderr": 0.03225078108306289
    },
    "hendrycksTest-high_school_geography": {
      "acc": 0.2222222222222222,
      "acc_stderr": 0.02962022787479048,
      "acc_norm": 0.2222222222222222,
      "acc_norm_stderr": 0.02962022787479048
    },
    "hendrycksTest-high_school_government_and_politics": {
      "acc": 0.21243523316062177,
      "acc_stderr": 0.02951928261681725,
      "acc_norm": 0.21243523316062177,
      "acc_norm_stderr": 0.02951928261681725
    },
    "hendrycksTest-high_school_macroeconomics": {
      "acc": 0.2230769230769231,
      "acc_stderr": 0.02110773012724399,
      "acc_norm": 0.2230769230769231,
      "acc_norm_stderr": 0.02110773012724399
    },
    "hendrycksTest-high_school_mathematics": {
      "acc": 0.24074074074074073,
      "acc_stderr": 0.026067159222275794,
      "acc_norm": 0.24074074074074073,
      "acc_norm_stderr": 0.026067159222275794
    },
    "hendrycksTest-high_school_microeconomics": {
      "acc": 0.21428571428571427,
      "acc_stderr": 0.02665353159671549,
      "acc_norm": 0.21428571428571427,
      "acc_norm_stderr": 0.02665353159671549
    },
    "hendrycksTest-high_school_physics": {
      "acc": 0.19205298013245034,
      "acc_stderr": 0.032162984205936135,
      "acc_norm": 0.19205298013245034,
      "acc_norm_stderr": 0.032162984205936135
    },
    "hendrycksTest-high_school_psychology": {
      "acc": 0.1926605504587156,
      "acc_stderr": 0.016909276884936094,
      "acc_norm": 0.1926605504587156,
      "acc_norm_stderr": 0.016909276884936094
    },
    "hendrycksTest-high_school_statistics": {
      "acc": 0.1574074074074074,
      "acc_stderr": 0.024837173518242387,
      "acc_norm": 0.1574074074074074,
      "acc_norm_stderr": 0.024837173518242387
    },
    "hendrycksTest-high_school_us_history": {
      "acc": 0.25,
      "acc_stderr": 0.03039153369274154,
      "acc_norm": 0.25,
      "acc_norm_stderr": 0.03039153369274154
    },
    "hendrycksTest-high_school_world_history": {
      "acc": 0.270042194092827,
      "acc_stderr": 0.028900721906293426,
      "acc_norm": 0.270042194092827,
      "acc_norm_stderr": 0.028900721906293426
    },
    "hendrycksTest-human_aging": {
      "acc": 0.31390134529147984,
      "acc_stderr": 0.031146796482972465,
      "acc_norm": 0.31390134529147984,
      "acc_norm_stderr": 0.031146796482972465
    },
    "hendrycksTest-human_sexuality": {
      "acc": 0.2595419847328244,
      "acc_stderr": 0.03844876139785271,
      "acc_norm": 0.2595419847328244,
      "acc_norm_stderr": 0.03844876139785271
    },
    "hendrycksTest-international_law": {
      "acc": 0.2396694214876033,
      "acc_stderr": 0.03896878985070417,
      "acc_norm": 0.2396694214876033,
      "acc_norm_stderr": 0.03896878985070417
    },
    "hendrycksTest-jurisprudence": {
      "acc": 0.26851851851851855,
      "acc_stderr": 0.04284467968052192,
      "acc_norm": 0.26851851851851855,
      "acc_norm_stderr": 0.04284467968052192
    },
    "hendrycksTest-logical_fallacies": {
      "acc": 0.22085889570552147,
      "acc_stderr": 0.032591773927421776,
      "acc_norm": 0.22085889570552147,
      "acc_norm_stderr": 0.032591773927421776
    },
    "hendrycksTest-machine_learning": {
      "acc": 0.25,
      "acc_stderr": 0.04109974682633932,
      "acc_norm": 0.25,
      "acc_norm_stderr": 0.04109974682633932
    },
    "hendrycksTest-management": {
      "acc": 0.17475728155339806,
      "acc_stderr": 0.037601780060266224,
      "acc_norm": 0.17475728155339806,
      "acc_norm_stderr": 0.037601780060266224
    },
    "hendrycksTest-marketing": {
      "acc": 0.24786324786324787,
      "acc_stderr": 0.028286324075564393,
      "acc_norm": 0.24786324786324787,
      "acc_norm_stderr": 0.028286324075564393
    },
    "hendrycksTest-medical_genetics": {
      "acc": 0.3,
      "acc_stderr": 0.046056618647183814,
      "acc_norm": 0.3,
      "acc_norm_stderr": 0.046056618647183814
    },
    "hendrycksTest-miscellaneous": {
      "acc": 0.23627075351213284,
      "acc_stderr": 0.015190473717037497,
      "acc_norm": 0.23627075351213284,
      "acc_norm_stderr": 0.015190473717037497
    },
    "hendrycksTest-moral_disputes": {
      "acc": 0.24566473988439305,
      "acc_stderr": 0.02317629820399201,
      "acc_norm": 0.24566473988439305,
      "acc_norm_stderr": 0.02317629820399201
    },
    "hendrycksTest-moral_scenarios": {
      "acc": 0.23798882681564246,
      "acc_stderr": 0.014242630070574915,
      "acc_norm": 0.23798882681564246,
      "acc_norm_stderr": 0.014242630070574915
    },
    "hendrycksTest-nutrition": {
      "acc": 0.20588235294117646,
      "acc_stderr": 0.023152722439402303,
      "acc_norm": 0.20588235294117646,
      "acc_norm_stderr": 0.023152722439402303
    },
    "hendrycksTest-philosophy": {
      "acc": 0.1864951768488746,
      "acc_stderr": 0.02212243977248077,
      "acc_norm": 0.1864951768488746,
      "acc_norm_stderr": 0.02212243977248077
    },
    "hendrycksTest-prehistory": {
      "acc": 0.21604938271604937,
      "acc_stderr": 0.022899162918445806,
      "acc_norm": 0.21604938271604937,
      "acc_norm_stderr": 0.022899162918445806
    },
    "hendrycksTest-professional_accounting": {
      "acc": 0.24468085106382978,
      "acc_stderr": 0.02564555362226673,
      "acc_norm": 0.24468085106382978,
      "acc_norm_stderr": 0.02564555362226673
    },
    "hendrycksTest-professional_law": {
      "acc": 0.2457627118644068,
      "acc_stderr": 0.010996156635142692,
      "acc_norm": 0.2457627118644068,
      "acc_norm_stderr": 0.010996156635142692
    },
    "hendrycksTest-professional_medicine": {
      "acc": 0.1948529411764706,
      "acc_stderr": 0.02406059942348743,
      "acc_norm": 0.1948529411764706,
      "acc_norm_stderr": 0.02406059942348743
    },
    "hendrycksTest-professional_psychology": {
      "acc": 0.25,
      "acc_stderr": 0.01751781884501444,
      "acc_norm": 0.25,
      "acc_norm_stderr": 0.01751781884501444
    },
    "hendrycksTest-public_relations": {
      "acc": 0.21818181818181817,
      "acc_stderr": 0.03955932861795833,
      "acc_norm": 0.21818181818181817,
      "acc_norm_stderr": 0.03955932861795833
    },
    "hendrycksTest-security_studies": {
      "acc": 0.18775510204081633,
      "acc_stderr": 0.02500025603954621,
      "acc_norm": 0.18775510204081633,
      "acc_norm_stderr": 0.02500025603954621
    },
    "hendrycksTest-sociology": {
      "acc": 0.24378109452736318,
      "acc_stderr": 0.03036049015401465,
      "acc_norm": 0.24378109452736318,
      "acc_norm_stderr": 0.03036049015401465
    },
    "hendrycksTest-us_foreign_policy": {
      "acc": 0.26,
      "acc_stderr": 0.044084400227680794,
      "acc_norm": 0.26,
      "acc_norm_stderr": 0.044084400227680794
    },
    "hendrycksTest-virology": {
      "acc": 0.28313253012048195,
      "acc_stderr": 0.03507295431370518,
      "acc_norm": 0.28313253012048195,
      "acc_norm_stderr": 0.03507295431370518
    },
    "hendrycksTest-world_religions": {
      "acc": 0.3157894736842105,
      "acc_stderr": 0.035650796707083106,
      "acc_norm": 0.3157894736842105,
      "acc_norm_stderr": 0.035650796707083106
    }
  },
  "versions": {
    "hendrycksTest-abstract_algebra": 1,
    "hendrycksTest-anatomy": 1,
    "hendrycksTest-astronomy": 1,
    "hendrycksTest-business_ethics": 1,
    "hendrycksTest-clinical_knowledge": 1,
    "hendrycksTest-college_biology": 1,
    "hendrycksTest-college_chemistry": 1,
    "hendrycksTest-college_computer_science": 1,
    "hendrycksTest-college_mathematics": 1,
    "hendrycksTest-college_medicine": 1,
    "hendrycksTest-college_physics": 1,
    "hendrycksTest-computer_security": 1,
    "hendrycksTest-conceptual_physics": 1,
    "hendrycksTest-econometrics": 1,
    "hendrycksTest-electrical_engineering": 1,
    "hendrycksTest-elementary_mathematics": 1,
    "hendrycksTest-formal_logic": 1,
    "hendrycksTest-global_facts": 1,
    "hendrycksTest-high_school_biology": 1,
    "hendrycksTest-high_school_chemistry": 1,
    "hendrycksTest-high_school_computer_science": 1,
    "hendrycksTest-high_school_european_history": 1,
    "hendrycksTest-high_school_geography": 1,
    "hendrycksTest-high_school_government_and_politics": 1,
    "hendrycksTest-high_school_macroeconomics": 1,
    "hendrycksTest-high_school_mathematics": 1,
    "hendrycksTest-high_school_microeconomics": 1,
    "hendrycksTest-high_school_physics": 1,
    "hendrycksTest-high_school_psychology": 1,
    "hendrycksTest-high_school_statistics": 1,
    "hendrycksTest-high_school_us_history": 1,
    "hendrycksTest-high_school_world_history": 1,
    "hendrycksTest-human_aging": 1,
    "hendrycksTest-human_sexuality": 1,
    "hendrycksTest-international_law": 1,
    "hendrycksTest-jurisprudence": 1,
    "hendrycksTest-logical_fallacies": 1,
    "hendrycksTest-machine_learning": 1,
    "hendrycksTest-management": 1,
    "hendrycksTest-marketing": 1,
    "hendrycksTest-medical_genetics": 1,
    "hendrycksTest-miscellaneous": 1,
    "hendrycksTest-moral_disputes": 1,
    "hendrycksTest-moral_scenarios": 1,
    "hendrycksTest-nutrition": 1,
    "hendrycksTest-philosophy": 1,
    "hendrycksTest-prehistory": 1,
    "hendrycksTest-professional_accounting": 1,
    "hendrycksTest-professional_law": 1,
    "hendrycksTest-professional_medicine": 1,
    "hendrycksTest-professional_psychology": 1,
    "hendrycksTest-public_relations": 1,
    "hendrycksTest-security_studies": 1,
    "hendrycksTest-sociology": 1,
    "hendrycksTest-us_foreign_policy": 1,
    "hendrycksTest-virology": 1,
    "hendrycksTest-world_religions": 1
  },
  "config": {
    "model": "transnormer",
    "model_args": "path=/cpfs01/user/shenxuyang/LLM/Models/transnormerLLM-hf/7B-3000,max_length=256,dtype=bfloat16",
    "num_fewshot": 5,
    "batch_size": "32",
    "batch_sizes": [],
    "device": "cuda:0",
    "no_cache": false,
    "limit": null,
    "bootstrap_iters": 100000,
    "description_dict": {}
  }
}