{
  "results": {
    "Ceval-valid-accountant": {
      "acc": 0.32653061224489793,
      "acc_stderr": 0.06768622021133469,
      "acc_norm": 0.32653061224489793,
      "acc_norm_stderr": 0.06768622021133469
    },
    "Ceval-valid-advanced_mathematics": {
      "acc": 0.2631578947368421,
      "acc_stderr": 0.10379087338771256,
      "acc_norm": 0.2631578947368421,
      "acc_norm_stderr": 0.10379087338771256
    },
    "Ceval-valid-art_studies": {
      "acc": 0.21212121212121213,
      "acc_stderr": 0.07226812131946557,
      "acc_norm": 0.21212121212121213,
      "acc_norm_stderr": 0.07226812131946557
    },
    "Ceval-valid-basic_medicine": {
      "acc": 0.42105263157894735,
      "acc_stderr": 0.11637279966159299,
      "acc_norm": 0.42105263157894735,
      "acc_norm_stderr": 0.11637279966159299
    },
    "Ceval-valid-business_administration": {
      "acc": 0.12121212121212122,
      "acc_stderr": 0.057695250801999304,
      "acc_norm": 0.12121212121212122,
      "acc_norm_stderr": 0.057695250801999304
    },
    "Ceval-valid-chinese_language_and_literature": {
      "acc": 0.17391304347826086,
      "acc_stderr": 0.08081046758996391,
      "acc_norm": 0.17391304347826086,
      "acc_norm_stderr": 0.08081046758996391
    },
    "Ceval-valid-civil_servant": {
      "acc": 0.2553191489361702,
      "acc_stderr": 0.06429065810876616,
      "acc_norm": 0.2553191489361702,
      "acc_norm_stderr": 0.06429065810876616
    },
    "Ceval-valid-clinical_medicine": {
      "acc": 0.22727272727272727,
      "acc_stderr": 0.09144861547306321,
      "acc_norm": 0.22727272727272727,
      "acc_norm_stderr": 0.09144861547306321
    },
    "Ceval-valid-college_chemistry": {
      "acc": 0.25,
      "acc_stderr": 0.09028938981432691,
      "acc_norm": 0.25,
      "acc_norm_stderr": 0.09028938981432691
    },
    "Ceval-valid-college_economics": {
      "acc": 0.2,
      "acc_stderr": 0.05443310539518173,
      "acc_norm": 0.2,
      "acc_norm_stderr": 0.05443310539518173
    },
    "Ceval-valid-college_physics": {
      "acc": 0.21052631578947367,
      "acc_stderr": 0.0960916767552923,
      "acc_norm": 0.21052631578947367,
      "acc_norm_stderr": 0.0960916767552923
    },
    "Ceval-valid-college_programming": {
      "acc": 0.16216216216216217,
      "acc_stderr": 0.06143325088732367,
      "acc_norm": 0.16216216216216217,
      "acc_norm_stderr": 0.06143325088732367
    },
    "Ceval-valid-computer_architecture": {
      "acc": 0.23809523809523808,
      "acc_stderr": 0.09523809523809523,
      "acc_norm": 0.23809523809523808,
      "acc_norm_stderr": 0.09523809523809523
    },
    "Ceval-valid-computer_network": {
      "acc": 0.21052631578947367,
      "acc_stderr": 0.0960916767552923,
      "acc_norm": 0.21052631578947367,
      "acc_norm_stderr": 0.0960916767552923
    },
    "Ceval-valid-discrete_mathematics": {
      "acc": 0.375,
      "acc_stderr": 0.125,
      "acc_norm": 0.375,
      "acc_norm_stderr": 0.125
    },
    "Ceval-valid-education_science": {
      "acc": 0.2413793103448276,
      "acc_stderr": 0.080869237238335,
      "acc_norm": 0.2413793103448276,
      "acc_norm_stderr": 0.080869237238335
    },
    "Ceval-valid-electrical_engineer": {
      "acc": 0.1891891891891892,
      "acc_stderr": 0.06527647182968215,
      "acc_norm": 0.1891891891891892,
      "acc_norm_stderr": 0.06527647182968215
    },
    "Ceval-valid-environmental_impact_assessment_engineer": {
      "acc": 0.1935483870967742,
      "acc_stderr": 0.07213122508063838,
      "acc_norm": 0.1935483870967742,
      "acc_norm_stderr": 0.07213122508063838
    },
    "Ceval-valid-fire_engineer": {
      "acc": 0.16129032258064516,
      "acc_stderr": 0.06715051611181073,
      "acc_norm": 0.16129032258064516,
      "acc_norm_stderr": 0.06715051611181073
    },
    "Ceval-valid-high_school_biology": {
      "acc": 0.15789473684210525,
      "acc_stderr": 0.08594700851870798,
      "acc_norm": 0.15789473684210525,
      "acc_norm_stderr": 0.08594700851870798
    },
    "Ceval-valid-high_school_chemistry": {
      "acc": 0.3684210526315789,
      "acc_stderr": 0.1136972052352256,
      "acc_norm": 0.3684210526315789,
      "acc_norm_stderr": 0.1136972052352256
    },
    "Ceval-valid-high_school_chinese": {
      "acc": 0.21052631578947367,
      "acc_stderr": 0.09609167675529229,
      "acc_norm": 0.21052631578947367,
      "acc_norm_stderr": 0.09609167675529229
    },
    "Ceval-valid-high_school_geography": {
      "acc": 0.47368421052631576,
      "acc_stderr": 0.1176877882894626,
      "acc_norm": 0.47368421052631576,
      "acc_norm_stderr": 0.1176877882894626
    },
    "Ceval-valid-high_school_history": {
      "acc": 0.05,
      "acc_stderr": 0.04999999999999997,
      "acc_norm": 0.05,
      "acc_norm_stderr": 0.04999999999999997
    },
    "Ceval-valid-high_school_mathematics": {
      "acc": 0.6111111111111112,
      "acc_stderr": 0.11823563735376173,
      "acc_norm": 0.6111111111111112,
      "acc_norm_stderr": 0.11823563735376173
    },
    "Ceval-valid-high_school_physics": {
      "acc": 0.2631578947368421,
      "acc_stderr": 0.10379087338771256,
      "acc_norm": 0.2631578947368421,
      "acc_norm_stderr": 0.10379087338771256
    },
    "Ceval-valid-high_school_politics": {
      "acc": 0.10526315789473684,
      "acc_stderr": 0.07233518641434492,
      "acc_norm": 0.10526315789473684,
      "acc_norm_stderr": 0.07233518641434492
    },
    "Ceval-valid-ideological_and_moral_cultivation": {
      "acc": 0.15789473684210525,
      "acc_stderr": 0.08594700851870798,
      "acc_norm": 0.15789473684210525,
      "acc_norm_stderr": 0.08594700851870798
    },
    "Ceval-valid-law": {
      "acc": 0.3333333333333333,
      "acc_stderr": 0.09829463743659811,
      "acc_norm": 0.3333333333333333,
      "acc_norm_stderr": 0.09829463743659811
    },
    "Ceval-valid-legal_professional": {
      "acc": 0.2608695652173913,
      "acc_stderr": 0.09361833424764437,
      "acc_norm": 0.2608695652173913,
      "acc_norm_stderr": 0.09361833424764437
    },
    "Ceval-valid-logic": {
      "acc": 0.36363636363636365,
      "acc_stderr": 0.10497277621629558,
      "acc_norm": 0.36363636363636365,
      "acc_norm_stderr": 0.10497277621629558
    },
    "Ceval-valid-mao_zedong_thought": {
      "acc": 0.375,
      "acc_stderr": 0.10094660663590604,
      "acc_norm": 0.375,
      "acc_norm_stderr": 0.10094660663590604
    },
    "Ceval-valid-marxism": {
      "acc": 0.3157894736842105,
      "acc_stderr": 0.10956136839295433,
      "acc_norm": 0.3157894736842105,
      "acc_norm_stderr": 0.10956136839295433
    },
    "Ceval-valid-metrology_engineer": {
      "acc": 0.2916666666666667,
      "acc_stderr": 0.09477598811252415,
      "acc_norm": 0.2916666666666667,
      "acc_norm_stderr": 0.09477598811252415
    },
    "Ceval-valid-middle_school_biology": {
      "acc": 0.23809523809523808,
      "acc_stderr": 0.09523809523809523,
      "acc_norm": 0.23809523809523808,
      "acc_norm_stderr": 0.09523809523809523
    },
    "Ceval-valid-middle_school_chemistry": {
      "acc": 0.3,
      "acc_stderr": 0.10513149660756933,
      "acc_norm": 0.3,
      "acc_norm_stderr": 0.10513149660756933
    },
    "Ceval-valid-middle_school_geography": {
      "acc": 0.3333333333333333,
      "acc_stderr": 0.14213381090374033,
      "acc_norm": 0.3333333333333333,
      "acc_norm_stderr": 0.14213381090374033
    },
    "Ceval-valid-middle_school_history": {
      "acc": 0.3181818181818182,
      "acc_stderr": 0.10163945352271772,
      "acc_norm": 0.3181818181818182,
      "acc_norm_stderr": 0.10163945352271772
    },
    "Ceval-valid-middle_school_mathematics": {
      "acc": 0.21052631578947367,
      "acc_stderr": 0.0960916767552923,
      "acc_norm": 0.21052631578947367,
      "acc_norm_stderr": 0.0960916767552923
    },
    "Ceval-valid-middle_school_physics": {
      "acc": 0.2631578947368421,
      "acc_stderr": 0.10379087338771256,
      "acc_norm": 0.2631578947368421,
      "acc_norm_stderr": 0.10379087338771256
    },
    "Ceval-valid-middle_school_politics": {
      "acc": 0.14285714285714285,
      "acc_stderr": 0.07824607964359515,
      "acc_norm": 0.14285714285714285,
      "acc_norm_stderr": 0.07824607964359515
    },
    "Ceval-valid-modern_chinese_history": {
      "acc": 0.34782608695652173,
      "acc_stderr": 0.10154334054280735,
      "acc_norm": 0.34782608695652173,
      "acc_norm_stderr": 0.10154334054280735
    },
    "Ceval-valid-operating_system": {
      "acc": 0.5263157894736842,
      "acc_stderr": 0.1176877882894626,
      "acc_norm": 0.5263157894736842,
      "acc_norm_stderr": 0.1176877882894626
    },
    "Ceval-valid-physician": {
      "acc": 0.2857142857142857,
      "acc_stderr": 0.06520506636966263,
      "acc_norm": 0.2857142857142857,
      "acc_norm_stderr": 0.06520506636966263
    },
    "Ceval-valid-plant_protection": {
      "acc": 0.13636363636363635,
      "acc_stderr": 0.07488677009526493,
      "acc_norm": 0.13636363636363635,
      "acc_norm_stderr": 0.07488677009526493
    },
    "Ceval-valid-probability_and_statistics": {
      "acc": 0.2777777777777778,
      "acc_stderr": 0.1086324845659782,
      "acc_norm": 0.2777777777777778,
      "acc_norm_stderr": 0.1086324845659782
    },
    "Ceval-valid-professional_tour_guide": {
      "acc": 0.2413793103448276,
      "acc_stderr": 0.08086923723833499,
      "acc_norm": 0.2413793103448276,
      "acc_norm_stderr": 0.08086923723833499
    },
    "Ceval-valid-sports_science": {
      "acc": 0.21052631578947367,
      "acc_stderr": 0.0960916767552923,
      "acc_norm": 0.21052631578947367,
      "acc_norm_stderr": 0.0960916767552923
    },
    "Ceval-valid-tax_accountant": {
      "acc": 0.32653061224489793,
      "acc_stderr": 0.06768622021133469,
      "acc_norm": 0.32653061224489793,
      "acc_norm_stderr": 0.06768622021133469
    },
    "Ceval-valid-teacher_qualification": {
      "acc": 0.22727272727272727,
      "acc_stderr": 0.06390760676613884,
      "acc_norm": 0.22727272727272727,
      "acc_norm_stderr": 0.06390760676613884
    },
    "Ceval-valid-urban_and_rural_planner": {
      "acc": 0.21739130434782608,
      "acc_stderr": 0.06148754619013454,
      "acc_norm": 0.21739130434782608,
      "acc_norm_stderr": 0.06148754619013454
    },
    "Ceval-valid-veterinary_medicine": {
      "acc": 0.17391304347826086,
      "acc_stderr": 0.08081046758996391,
      "acc_norm": 0.17391304347826086,
      "acc_norm_stderr": 0.08081046758996391
    }
  },
  "versions": {
    "Ceval-valid-accountant": 1,
    "Ceval-valid-advanced_mathematics": 1,
    "Ceval-valid-art_studies": 1,
    "Ceval-valid-basic_medicine": 1,
    "Ceval-valid-business_administration": 1,
    "Ceval-valid-chinese_language_and_literature": 1,
    "Ceval-valid-civil_servant": 1,
    "Ceval-valid-clinical_medicine": 1,
    "Ceval-valid-college_chemistry": 1,
    "Ceval-valid-college_economics": 1,
    "Ceval-valid-college_physics": 1,
    "Ceval-valid-college_programming": 1,
    "Ceval-valid-computer_architecture": 1,
    "Ceval-valid-computer_network": 1,
    "Ceval-valid-discrete_mathematics": 1,
    "Ceval-valid-education_science": 1,
    "Ceval-valid-electrical_engineer": 1,
    "Ceval-valid-environmental_impact_assessment_engineer": 1,
    "Ceval-valid-fire_engineer": 1,
    "Ceval-valid-high_school_biology": 1,
    "Ceval-valid-high_school_chemistry": 1,
    "Ceval-valid-high_school_chinese": 1,
    "Ceval-valid-high_school_geography": 1,
    "Ceval-valid-high_school_history": 1,
    "Ceval-valid-high_school_mathematics": 1,
    "Ceval-valid-high_school_physics": 1,
    "Ceval-valid-high_school_politics": 1,
    "Ceval-valid-ideological_and_moral_cultivation": 1,
    "Ceval-valid-law": 1,
    "Ceval-valid-legal_professional": 1,
    "Ceval-valid-logic": 1,
    "Ceval-valid-mao_zedong_thought": 1,
    "Ceval-valid-marxism": 1,
    "Ceval-valid-metrology_engineer": 1,
    "Ceval-valid-middle_school_biology": 1,
    "Ceval-valid-middle_school_chemistry": 1,
    "Ceval-valid-middle_school_geography": 1,
    "Ceval-valid-middle_school_history": 1,
    "Ceval-valid-middle_school_mathematics": 1,
    "Ceval-valid-middle_school_physics": 1,
    "Ceval-valid-middle_school_politics": 1,
    "Ceval-valid-modern_chinese_history": 1,
    "Ceval-valid-operating_system": 1,
    "Ceval-valid-physician": 1,
    "Ceval-valid-plant_protection": 1,
    "Ceval-valid-probability_and_statistics": 1,
    "Ceval-valid-professional_tour_guide": 1,
    "Ceval-valid-sports_science": 1,
    "Ceval-valid-tax_accountant": 1,
    "Ceval-valid-teacher_qualification": 1,
    "Ceval-valid-urban_and_rural_planner": 1,
    "Ceval-valid-veterinary_medicine": 1
  },
  "config": {
    "model": "transnormer",
    "model_args": "path=/cpfs01/user/shenxuyang/LLM/Models/transnormerLLM-hf/7B-28750,max_gen_token=128,dtype=bfloat16",
    "num_fewshot": 5,
    "batch_size": "auto",
    "batch_sizes": [
      8
    ],
    "device": "cuda:1",
    "no_cache": false,
    "limit": null,
    "bootstrap_iters": 100000,
    "description_dict": {}
  }
}