{
  "results": {
    "hendrycksTest-abstract_algebra": {
      "acc": 0.31,
      "acc_stderr": 0.04648231987117316,
      "acc_norm": 0.31,
      "acc_norm_stderr": 0.04648231987117316
    },
    "hendrycksTest-anatomy": {
      "acc": 0.37777777777777777,
      "acc_stderr": 0.04188307537595852,
      "acc_norm": 0.37777777777777777,
      "acc_norm_stderr": 0.04188307537595852
    },
    "hendrycksTest-astronomy": {
      "acc": 0.20394736842105263,
      "acc_stderr": 0.03279000406310052,
      "acc_norm": 0.20394736842105263,
      "acc_norm_stderr": 0.03279000406310052
    },
    "hendrycksTest-business_ethics": {
      "acc": 0.26,
      "acc_stderr": 0.04408440022768079,
      "acc_norm": 0.26,
      "acc_norm_stderr": 0.04408440022768079
    },
    "hendrycksTest-clinical_knowledge": {
      "acc": 0.24150943396226415,
      "acc_stderr": 0.02634148037111836,
      "acc_norm": 0.24150943396226415,
      "acc_norm_stderr": 0.02634148037111836
    },
    "hendrycksTest-college_biology": {
      "acc": 0.22916666666666666,
      "acc_stderr": 0.035146974678623884,
      "acc_norm": 0.22916666666666666,
      "acc_norm_stderr": 0.035146974678623884
    },
    "hendrycksTest-college_chemistry": {
      "acc": 0.21,
      "acc_stderr": 0.040936018074033256,
      "acc_norm": 0.21,
      "acc_norm_stderr": 0.040936018074033256
    },
    "hendrycksTest-college_computer_science": {
      "acc": 0.25,
      "acc_stderr": 0.04351941398892446,
      "acc_norm": 0.25,
      "acc_norm_stderr": 0.04351941398892446
    },
    "hendrycksTest-college_mathematics": {
      "acc": 0.26,
      "acc_stderr": 0.044084400227680794,
      "acc_norm": 0.26,
      "acc_norm_stderr": 0.044084400227680794
    },
    "hendrycksTest-college_medicine": {
      "acc": 0.26011560693641617,
      "acc_stderr": 0.03345036916788992,
      "acc_norm": 0.26011560693641617,
      "acc_norm_stderr": 0.03345036916788992
    },
    "hendrycksTest-college_physics": {
      "acc": 0.2549019607843137,
      "acc_stderr": 0.0433643270799318,
      "acc_norm": 0.2549019607843137,
      "acc_norm_stderr": 0.0433643270799318
    },
    "hendrycksTest-computer_security": {
      "acc": 0.23,
      "acc_stderr": 0.042295258468165044,
      "acc_norm": 0.23,
      "acc_norm_stderr": 0.042295258468165044
    },
    "hendrycksTest-conceptual_physics": {
      "acc": 0.2723404255319149,
      "acc_stderr": 0.029101290698386698,
      "acc_norm": 0.2723404255319149,
      "acc_norm_stderr": 0.029101290698386698
    },
    "hendrycksTest-econometrics": {
      "acc": 0.2894736842105263,
      "acc_stderr": 0.04266339443159394,
      "acc_norm": 0.2894736842105263,
      "acc_norm_stderr": 0.04266339443159394
    },
    "hendrycksTest-electrical_engineering": {
      "acc": 0.33793103448275863,
      "acc_stderr": 0.039417076320648906,
      "acc_norm": 0.33793103448275863,
      "acc_norm_stderr": 0.039417076320648906
    },
    "hendrycksTest-elementary_mathematics": {
      "acc": 0.28835978835978837,
      "acc_stderr": 0.0233306540545359,
      "acc_norm": 0.28835978835978837,
      "acc_norm_stderr": 0.0233306540545359
    },
    "hendrycksTest-formal_logic": {
      "acc": 0.2222222222222222,
      "acc_stderr": 0.037184890068181146,
      "acc_norm": 0.2222222222222222,
      "acc_norm_stderr": 0.037184890068181146
    },
    "hendrycksTest-global_facts": {
      "acc": 0.21,
      "acc_stderr": 0.04093601807403325,
      "acc_norm": 0.21,
      "acc_norm_stderr": 0.04093601807403325
    },
    "hendrycksTest-high_school_biology": {
      "acc": 0.25806451612903225,
      "acc_stderr": 0.024892469172462826,
      "acc_norm": 0.25806451612903225,
      "acc_norm_stderr": 0.024892469172462826
    },
    "hendrycksTest-high_school_chemistry": {
      "acc": 0.2413793103448276,
      "acc_stderr": 0.030108330718011625,
      "acc_norm": 0.2413793103448276,
      "acc_norm_stderr": 0.030108330718011625
    },
    "hendrycksTest-high_school_computer_science": {
      "acc": 0.23,
      "acc_stderr": 0.04229525846816506,
      "acc_norm": 0.23,
      "acc_norm_stderr": 0.04229525846816506
    },
    "hendrycksTest-high_school_european_history": {
      "acc": 0.28484848484848485,
      "acc_stderr": 0.035243908445117836,
      "acc_norm": 0.28484848484848485,
      "acc_norm_stderr": 0.035243908445117836
    },
    "hendrycksTest-high_school_geography": {
      "acc": 0.21212121212121213,
      "acc_stderr": 0.029126522834586825,
      "acc_norm": 0.21212121212121213,
      "acc_norm_stderr": 0.029126522834586825
    },
    "hendrycksTest-high_school_government_and_politics": {
      "acc": 0.25906735751295334,
      "acc_stderr": 0.03161877917935411,
      "acc_norm": 0.25906735751295334,
      "acc_norm_stderr": 0.03161877917935411
    },
    "hendrycksTest-high_school_macroeconomics": {
      "acc": 0.25384615384615383,
      "acc_stderr": 0.022066054378726257,
      "acc_norm": 0.25384615384615383,
      "acc_norm_stderr": 0.022066054378726257
    },
    "hendrycksTest-high_school_mathematics": {
      "acc": 0.28888888888888886,
      "acc_stderr": 0.027634907264178544,
      "acc_norm": 0.28888888888888886,
      "acc_norm_stderr": 0.027634907264178544
    },
    "hendrycksTest-high_school_microeconomics": {
      "acc": 0.20588235294117646,
      "acc_stderr": 0.026265024608275882,
      "acc_norm": 0.20588235294117646,
      "acc_norm_stderr": 0.026265024608275882
    },
    "hendrycksTest-high_school_physics": {
      "acc": 0.2052980132450331,
      "acc_stderr": 0.03297986648473836,
      "acc_norm": 0.2052980132450331,
      "acc_norm_stderr": 0.03297986648473836
    },
    "hendrycksTest-high_school_psychology": {
      "acc": 0.22201834862385322,
      "acc_stderr": 0.017818849564796617,
      "acc_norm": 0.22201834862385322,
      "acc_norm_stderr": 0.017818849564796617
    },
    "hendrycksTest-high_school_statistics": {
      "acc": 0.1574074074074074,
      "acc_stderr": 0.02483717351824239,
      "acc_norm": 0.1574074074074074,
      "acc_norm_stderr": 0.02483717351824239
    },
    "hendrycksTest-high_school_us_history": {
      "acc": 0.24019607843137256,
      "acc_stderr": 0.02998373305591361,
      "acc_norm": 0.24019607843137256,
      "acc_norm_stderr": 0.02998373305591361
    },
    "hendrycksTest-high_school_world_history": {
      "acc": 0.270042194092827,
      "acc_stderr": 0.028900721906293433,
      "acc_norm": 0.270042194092827,
      "acc_norm_stderr": 0.028900721906293433
    },
    "hendrycksTest-human_aging": {
      "acc": 0.3004484304932735,
      "acc_stderr": 0.030769352008229143,
      "acc_norm": 0.3004484304932735,
      "acc_norm_stderr": 0.030769352008229143
    },
    "hendrycksTest-human_sexuality": {
      "acc": 0.24427480916030533,
      "acc_stderr": 0.037683359597287434,
      "acc_norm": 0.24427480916030533,
      "acc_norm_stderr": 0.037683359597287434
    },
    "hendrycksTest-international_law": {
      "acc": 0.30578512396694213,
      "acc_stderr": 0.04205953933884123,
      "acc_norm": 0.30578512396694213,
      "acc_norm_stderr": 0.04205953933884123
    },
    "hendrycksTest-jurisprudence": {
      "acc": 0.3055555555555556,
      "acc_stderr": 0.04453197507374983,
      "acc_norm": 0.3055555555555556,
      "acc_norm_stderr": 0.04453197507374983
    },
    "hendrycksTest-logical_fallacies": {
      "acc": 0.26380368098159507,
      "acc_stderr": 0.03462419931615624,
      "acc_norm": 0.26380368098159507,
      "acc_norm_stderr": 0.03462419931615624
    },
    "hendrycksTest-machine_learning": {
      "acc": 0.25892857142857145,
      "acc_stderr": 0.041577515398656284,
      "acc_norm": 0.25892857142857145,
      "acc_norm_stderr": 0.041577515398656284
    },
    "hendrycksTest-management": {
      "acc": 0.21359223300970873,
      "acc_stderr": 0.04058042015646034,
      "acc_norm": 0.21359223300970873,
      "acc_norm_stderr": 0.04058042015646034
    },
    "hendrycksTest-marketing": {
      "acc": 0.25213675213675213,
      "acc_stderr": 0.02844796547623102,
      "acc_norm": 0.25213675213675213,
      "acc_norm_stderr": 0.02844796547623102
    },
    "hendrycksTest-medical_genetics": {
      "acc": 0.27,
      "acc_stderr": 0.0446196043338474,
      "acc_norm": 0.27,
      "acc_norm_stderr": 0.0446196043338474
    },
    "hendrycksTest-miscellaneous": {
      "acc": 0.2656449553001277,
      "acc_stderr": 0.01579430248788872,
      "acc_norm": 0.2656449553001277,
      "acc_norm_stderr": 0.01579430248788872
    },
    "hendrycksTest-moral_disputes": {
      "acc": 0.24277456647398843,
      "acc_stderr": 0.023083658586984204,
      "acc_norm": 0.24277456647398843,
      "acc_norm_stderr": 0.023083658586984204
    },
    "hendrycksTest-moral_scenarios": {
      "acc": 0.24916201117318434,
      "acc_stderr": 0.014465893829859938,
      "acc_norm": 0.24916201117318434,
      "acc_norm_stderr": 0.014465893829859938
    },
    "hendrycksTest-nutrition": {
      "acc": 0.27450980392156865,
      "acc_stderr": 0.025553169991826514,
      "acc_norm": 0.27450980392156865,
      "acc_norm_stderr": 0.025553169991826514
    },
    "hendrycksTest-philosophy": {
      "acc": 0.24758842443729903,
      "acc_stderr": 0.024513879973621967,
      "acc_norm": 0.24758842443729903,
      "acc_norm_stderr": 0.024513879973621967
    },
    "hendrycksTest-prehistory": {
      "acc": 0.25617283950617287,
      "acc_stderr": 0.0242885336377261,
      "acc_norm": 0.25617283950617287,
      "acc_norm_stderr": 0.0242885336377261
    },
    "hendrycksTest-professional_accounting": {
      "acc": 0.22695035460992907,
      "acc_stderr": 0.024987106365642973,
      "acc_norm": 0.22695035460992907,
      "acc_norm_stderr": 0.024987106365642973
    },
    "hendrycksTest-professional_law": {
      "acc": 0.24771838331160365,
      "acc_stderr": 0.011025499291443737,
      "acc_norm": 0.24771838331160365,
      "acc_norm_stderr": 0.011025499291443737
    },
    "hendrycksTest-professional_medicine": {
      "acc": 0.22794117647058823,
      "acc_stderr": 0.025483081468029804,
      "acc_norm": 0.22794117647058823,
      "acc_norm_stderr": 0.025483081468029804
    },
    "hendrycksTest-professional_psychology": {
      "acc": 0.2549019607843137,
      "acc_stderr": 0.017630827375148383,
      "acc_norm": 0.2549019607843137,
      "acc_norm_stderr": 0.017630827375148383
    },
    "hendrycksTest-public_relations": {
      "acc": 0.2909090909090909,
      "acc_stderr": 0.04350271442923243,
      "acc_norm": 0.2909090909090909,
      "acc_norm_stderr": 0.04350271442923243
    },
    "hendrycksTest-security_studies": {
      "acc": 0.22448979591836735,
      "acc_stderr": 0.0267114305555384,
      "acc_norm": 0.22448979591836735,
      "acc_norm_stderr": 0.0267114305555384
    },
    "hendrycksTest-sociology": {
      "acc": 0.2537313432835821,
      "acc_stderr": 0.030769444967296014,
      "acc_norm": 0.2537313432835821,
      "acc_norm_stderr": 0.030769444967296014
    },
    "hendrycksTest-us_foreign_policy": {
      "acc": 0.16,
      "acc_stderr": 0.03684529491774709,
      "acc_norm": 0.16,
      "acc_norm_stderr": 0.03684529491774709
    },
    "hendrycksTest-virology": {
      "acc": 0.25903614457831325,
      "acc_stderr": 0.034106466140718564,
      "acc_norm": 0.25903614457831325,
      "acc_norm_stderr": 0.034106466140718564
    },
    "hendrycksTest-world_religions": {
      "acc": 0.3391812865497076,
      "acc_stderr": 0.03631053496488904,
      "acc_norm": 0.3391812865497076,
      "acc_norm_stderr": 0.03631053496488904
    }
  },
  "versions": {
    "hendrycksTest-abstract_algebra": 1,
    "hendrycksTest-anatomy": 1,
    "hendrycksTest-astronomy": 1,
    "hendrycksTest-business_ethics": 1,
    "hendrycksTest-clinical_knowledge": 1,
    "hendrycksTest-college_biology": 1,
    "hendrycksTest-college_chemistry": 1,
    "hendrycksTest-college_computer_science": 1,
    "hendrycksTest-college_mathematics": 1,
    "hendrycksTest-college_medicine": 1,
    "hendrycksTest-college_physics": 1,
    "hendrycksTest-computer_security": 1,
    "hendrycksTest-conceptual_physics": 1,
    "hendrycksTest-econometrics": 1,
    "hendrycksTest-electrical_engineering": 1,
    "hendrycksTest-elementary_mathematics": 1,
    "hendrycksTest-formal_logic": 1,
    "hendrycksTest-global_facts": 1,
    "hendrycksTest-high_school_biology": 1,
    "hendrycksTest-high_school_chemistry": 1,
    "hendrycksTest-high_school_computer_science": 1,
    "hendrycksTest-high_school_european_history": 1,
    "hendrycksTest-high_school_geography": 1,
    "hendrycksTest-high_school_government_and_politics": 1,
    "hendrycksTest-high_school_macroeconomics": 1,
    "hendrycksTest-high_school_mathematics": 1,
    "hendrycksTest-high_school_microeconomics": 1,
    "hendrycksTest-high_school_physics": 1,
    "hendrycksTest-high_school_psychology": 1,
    "hendrycksTest-high_school_statistics": 1,
    "hendrycksTest-high_school_us_history": 1,
    "hendrycksTest-high_school_world_history": 1,
    "hendrycksTest-human_aging": 1,
    "hendrycksTest-human_sexuality": 1,
    "hendrycksTest-international_law": 1,
    "hendrycksTest-jurisprudence": 1,
    "hendrycksTest-logical_fallacies": 1,
    "hendrycksTest-machine_learning": 1,
    "hendrycksTest-management": 1,
    "hendrycksTest-marketing": 1,
    "hendrycksTest-medical_genetics": 1,
    "hendrycksTest-miscellaneous": 1,
    "hendrycksTest-moral_disputes": 1,
    "hendrycksTest-moral_scenarios": 1,
    "hendrycksTest-nutrition": 1,
    "hendrycksTest-philosophy": 1,
    "hendrycksTest-prehistory": 1,
    "hendrycksTest-professional_accounting": 1,
    "hendrycksTest-professional_law": 1,
    "hendrycksTest-professional_medicine": 1,
    "hendrycksTest-professional_psychology": 1,
    "hendrycksTest-public_relations": 1,
    "hendrycksTest-security_studies": 1,
    "hendrycksTest-sociology": 1,
    "hendrycksTest-us_foreign_policy": 1,
    "hendrycksTest-virology": 1,
    "hendrycksTest-world_religions": 1
  },
  "config": {
    "model": "transnormer2",
    "model_args": "path=/cpfs01/user/shenxuyang/LLM/Models/transnormerLLM-7b/hf/7B-58946,max_length=256,repetition_penalty=1.1,dtype=bfloat16",
    "num_fewshot": 5,
    "batch_size": "auto",
    "batch_sizes": [
      32
    ],
    "device": "cuda:1",
    "no_cache": false,
    "limit": null,
    "bootstrap_iters": 100000,
    "description_dict": {}
  }
}