{
  "results": {
    "Ceval-valid-accountant": {
      "acc": 0.32653061224489793,
      "acc_stderr": 0.06768622021133469,
      "acc_norm": 0.32653061224489793,
      "acc_norm_stderr": 0.06768622021133469
    },
    "Ceval-valid-advanced_mathematics": {
      "acc": 0.2631578947368421,
      "acc_stderr": 0.10379087338771256,
      "acc_norm": 0.2631578947368421,
      "acc_norm_stderr": 0.10379087338771256
    },
    "Ceval-valid-art_studies": {
      "acc": 0.30303030303030304,
      "acc_stderr": 0.08124094920275463,
      "acc_norm": 0.30303030303030304,
      "acc_norm_stderr": 0.08124094920275463
    },
    "Ceval-valid-basic_medicine": {
      "acc": 0.3157894736842105,
      "acc_stderr": 0.10956136839295433,
      "acc_norm": 0.3157894736842105,
      "acc_norm_stderr": 0.10956136839295433
    },
    "Ceval-valid-business_administration": {
      "acc": 0.30303030303030304,
      "acc_stderr": 0.08124094920275461,
      "acc_norm": 0.30303030303030304,
      "acc_norm_stderr": 0.08124094920275461
    },
    "Ceval-valid-chinese_language_and_literature": {
      "acc": 0.2608695652173913,
      "acc_stderr": 0.09361833424764436,
      "acc_norm": 0.2608695652173913,
      "acc_norm_stderr": 0.09361833424764436
    },
    "Ceval-valid-civil_servant": {
      "acc": 0.23404255319148937,
      "acc_stderr": 0.06242676343682882,
      "acc_norm": 0.23404255319148937,
      "acc_norm_stderr": 0.06242676343682882
    },
    "Ceval-valid-clinical_medicine": {
      "acc": 0.36363636363636365,
      "acc_stderr": 0.10497277621629558,
      "acc_norm": 0.36363636363636365,
      "acc_norm_stderr": 0.10497277621629558
    },
    "Ceval-valid-college_chemistry": {
      "acc": 0.3333333333333333,
      "acc_stderr": 0.0982946374365981,
      "acc_norm": 0.3333333333333333,
      "acc_norm_stderr": 0.0982946374365981
    },
    "Ceval-valid-college_economics": {
      "acc": 0.21818181818181817,
      "acc_stderr": 0.05620374845754972,
      "acc_norm": 0.21818181818181817,
      "acc_norm_stderr": 0.05620374845754972
    },
    "Ceval-valid-college_physics": {
      "acc": 0.15789473684210525,
      "acc_stderr": 0.085947008518708,
      "acc_norm": 0.15789473684210525,
      "acc_norm_stderr": 0.085947008518708
    },
    "Ceval-valid-college_programming": {
      "acc": 0.24324324324324326,
      "acc_stderr": 0.07150679219093488,
      "acc_norm": 0.24324324324324326,
      "acc_norm_stderr": 0.07150679219093488
    },
    "Ceval-valid-computer_architecture": {
      "acc": 0.14285714285714285,
      "acc_stderr": 0.07824607964359517,
      "acc_norm": 0.14285714285714285,
      "acc_norm_stderr": 0.07824607964359517
    },
    "Ceval-valid-computer_network": {
      "acc": 0.47368421052631576,
      "acc_stderr": 0.1176877882894626,
      "acc_norm": 0.47368421052631576,
      "acc_norm_stderr": 0.1176877882894626
    },
    "Ceval-valid-discrete_mathematics": {
      "acc": 0.3125,
      "acc_stderr": 0.11967838846954226,
      "acc_norm": 0.3125,
      "acc_norm_stderr": 0.11967838846954226
    },
    "Ceval-valid-education_science": {
      "acc": 0.1724137931034483,
      "acc_stderr": 0.0713860923457608,
      "acc_norm": 0.1724137931034483,
      "acc_norm_stderr": 0.0713860923457608
    },
    "Ceval-valid-electrical_engineer": {
      "acc": 0.32432432432432434,
      "acc_stderr": 0.07802030664724673,
      "acc_norm": 0.32432432432432434,
      "acc_norm_stderr": 0.07802030664724673
    },
    "Ceval-valid-environmental_impact_assessment_engineer": {
      "acc": 0.1935483870967742,
      "acc_stderr": 0.07213122508063838,
      "acc_norm": 0.1935483870967742,
      "acc_norm_stderr": 0.07213122508063838
    },
    "Ceval-valid-fire_engineer": {
      "acc": 0.16129032258064516,
      "acc_stderr": 0.06715051611181073,
      "acc_norm": 0.16129032258064516,
      "acc_norm_stderr": 0.06715051611181073
    },
    "Ceval-valid-high_school_biology": {
      "acc": 0.15789473684210525,
      "acc_stderr": 0.08594700851870798,
      "acc_norm": 0.15789473684210525,
      "acc_norm_stderr": 0.08594700851870798
    },
    "Ceval-valid-high_school_chemistry": {
      "acc": 0.3157894736842105,
      "acc_stderr": 0.10956136839295434,
      "acc_norm": 0.3157894736842105,
      "acc_norm_stderr": 0.10956136839295434
    },
    "Ceval-valid-high_school_chinese": {
      "acc": 0.21052631578947367,
      "acc_stderr": 0.0960916767552923,
      "acc_norm": 0.21052631578947367,
      "acc_norm_stderr": 0.0960916767552923
    },
    "Ceval-valid-high_school_geography": {
      "acc": 0.2631578947368421,
      "acc_stderr": 0.10379087338771256,
      "acc_norm": 0.2631578947368421,
      "acc_norm_stderr": 0.10379087338771256
    },
    "Ceval-valid-high_school_history": {
      "acc": 0.35,
      "acc_stderr": 0.1094243309804831,
      "acc_norm": 0.35,
      "acc_norm_stderr": 0.1094243309804831
    },
    "Ceval-valid-high_school_mathematics": {
      "acc": 0.3888888888888889,
      "acc_stderr": 0.11823563735376173,
      "acc_norm": 0.3888888888888889,
      "acc_norm_stderr": 0.11823563735376173
    },
    "Ceval-valid-high_school_physics": {
      "acc": 0.21052631578947367,
      "acc_stderr": 0.0960916767552923,
      "acc_norm": 0.21052631578947367,
      "acc_norm_stderr": 0.0960916767552923
    },
    "Ceval-valid-high_school_politics": {
      "acc": 0.5789473684210527,
      "acc_stderr": 0.11637279966159299,
      "acc_norm": 0.5789473684210527,
      "acc_norm_stderr": 0.11637279966159299
    },
    "Ceval-valid-ideological_and_moral_cultivation": {
      "acc": 0.15789473684210525,
      "acc_stderr": 0.085947008518708,
      "acc_norm": 0.15789473684210525,
      "acc_norm_stderr": 0.085947008518708
    },
    "Ceval-valid-law": {
      "acc": 0.3333333333333333,
      "acc_stderr": 0.09829463743659811,
      "acc_norm": 0.3333333333333333,
      "acc_norm_stderr": 0.09829463743659811
    },
    "Ceval-valid-legal_professional": {
      "acc": 0.43478260869565216,
      "acc_stderr": 0.10568965974008647,
      "acc_norm": 0.43478260869565216,
      "acc_norm_stderr": 0.10568965974008647
    },
    "Ceval-valid-logic": {
      "acc": 0.18181818181818182,
      "acc_stderr": 0.08416546361568647,
      "acc_norm": 0.18181818181818182,
      "acc_norm_stderr": 0.08416546361568647
    },
    "Ceval-valid-mao_zedong_thought": {
      "acc": 0.25,
      "acc_stderr": 0.09028938981432691,
      "acc_norm": 0.25,
      "acc_norm_stderr": 0.09028938981432691
    },
    "Ceval-valid-marxism": {
      "acc": 0.21052631578947367,
      "acc_stderr": 0.0960916767552923,
      "acc_norm": 0.21052631578947367,
      "acc_norm_stderr": 0.0960916767552923
    },
    "Ceval-valid-metrology_engineer": {
      "acc": 0.25,
      "acc_stderr": 0.09028938981432691,
      "acc_norm": 0.25,
      "acc_norm_stderr": 0.09028938981432691
    },
    "Ceval-valid-middle_school_biology": {
      "acc": 0.23809523809523808,
      "acc_stderr": 0.09523809523809523,
      "acc_norm": 0.23809523809523808,
      "acc_norm_stderr": 0.09523809523809523
    },
    "Ceval-valid-middle_school_chemistry": {
      "acc": 0.25,
      "acc_stderr": 0.09933992677987828,
      "acc_norm": 0.25,
      "acc_norm_stderr": 0.09933992677987828
    },
    "Ceval-valid-middle_school_geography": {
      "acc": 0.5,
      "acc_stderr": 0.15075567228888181,
      "acc_norm": 0.5,
      "acc_norm_stderr": 0.15075567228888181
    },
    "Ceval-valid-middle_school_history": {
      "acc": 0.22727272727272727,
      "acc_stderr": 0.09144861547306321,
      "acc_norm": 0.22727272727272727,
      "acc_norm_stderr": 0.09144861547306321
    },
    "Ceval-valid-middle_school_mathematics": {
      "acc": 0.47368421052631576,
      "acc_stderr": 0.11768778828946262,
      "acc_norm": 0.47368421052631576,
      "acc_norm_stderr": 0.11768778828946262
    },
    "Ceval-valid-middle_school_physics": {
      "acc": 0.2631578947368421,
      "acc_stderr": 0.10379087338771256,
      "acc_norm": 0.2631578947368421,
      "acc_norm_stderr": 0.10379087338771256
    },
    "Ceval-valid-middle_school_politics": {
      "acc": 0.19047619047619047,
      "acc_stderr": 0.08780518530755131,
      "acc_norm": 0.19047619047619047,
      "acc_norm_stderr": 0.08780518530755131
    },
    "Ceval-valid-modern_chinese_history": {
      "acc": 0.043478260869565216,
      "acc_stderr": 0.04347826086956522,
      "acc_norm": 0.043478260869565216,
      "acc_norm_stderr": 0.04347826086956522
    },
    "Ceval-valid-operating_system": {
      "acc": 0.42105263157894735,
      "acc_stderr": 0.11637279966159299,
      "acc_norm": 0.42105263157894735,
      "acc_norm_stderr": 0.11637279966159299
    },
    "Ceval-valid-physician": {
      "acc": 0.20408163265306123,
      "acc_stderr": 0.05817221556628254,
      "acc_norm": 0.20408163265306123,
      "acc_norm_stderr": 0.05817221556628254
    },
    "Ceval-valid-plant_protection": {
      "acc": 0.18181818181818182,
      "acc_stderr": 0.08416546361568647,
      "acc_norm": 0.18181818181818182,
      "acc_norm_stderr": 0.08416546361568647
    },
    "Ceval-valid-probability_and_statistics": {
      "acc": 0.2222222222222222,
      "acc_stderr": 0.10083169033033672,
      "acc_norm": 0.2222222222222222,
      "acc_norm_stderr": 0.10083169033033672
    },
    "Ceval-valid-professional_tour_guide": {
      "acc": 0.20689655172413793,
      "acc_stderr": 0.07655305550699534,
      "acc_norm": 0.20689655172413793,
      "acc_norm_stderr": 0.07655305550699534
    },
    "Ceval-valid-sports_science": {
      "acc": 0.3157894736842105,
      "acc_stderr": 0.10956136839295434,
      "acc_norm": 0.3157894736842105,
      "acc_norm_stderr": 0.10956136839295434
    },
    "Ceval-valid-tax_accountant": {
      "acc": 0.22448979591836735,
      "acc_stderr": 0.06022425581505364,
      "acc_norm": 0.22448979591836735,
      "acc_norm_stderr": 0.06022425581505364
    },
    "Ceval-valid-teacher_qualification": {
      "acc": 0.20454545454545456,
      "acc_stderr": 0.06151320742474889,
      "acc_norm": 0.20454545454545456,
      "acc_norm_stderr": 0.06151320742474889
    },
    "Ceval-valid-urban_and_rural_planner": {
      "acc": 0.2391304347826087,
      "acc_stderr": 0.06358669845936323,
      "acc_norm": 0.2391304347826087,
      "acc_norm_stderr": 0.06358669845936323
    },
    "Ceval-valid-veterinary_medicine": {
      "acc": 0.30434782608695654,
      "acc_stderr": 0.09810018692482896,
      "acc_norm": 0.30434782608695654,
      "acc_norm_stderr": 0.09810018692482896
    }
  },
  "versions": {
    "Ceval-valid-accountant": 1,
    "Ceval-valid-advanced_mathematics": 1,
    "Ceval-valid-art_studies": 1,
    "Ceval-valid-basic_medicine": 1,
    "Ceval-valid-business_administration": 1,
    "Ceval-valid-chinese_language_and_literature": 1,
    "Ceval-valid-civil_servant": 1,
    "Ceval-valid-clinical_medicine": 1,
    "Ceval-valid-college_chemistry": 1,
    "Ceval-valid-college_economics": 1,
    "Ceval-valid-college_physics": 1,
    "Ceval-valid-college_programming": 1,
    "Ceval-valid-computer_architecture": 1,
    "Ceval-valid-computer_network": 1,
    "Ceval-valid-discrete_mathematics": 1,
    "Ceval-valid-education_science": 1,
    "Ceval-valid-electrical_engineer": 1,
    "Ceval-valid-environmental_impact_assessment_engineer": 1,
    "Ceval-valid-fire_engineer": 1,
    "Ceval-valid-high_school_biology": 1,
    "Ceval-valid-high_school_chemistry": 1,
    "Ceval-valid-high_school_chinese": 1,
    "Ceval-valid-high_school_geography": 1,
    "Ceval-valid-high_school_history": 1,
    "Ceval-valid-high_school_mathematics": 1,
    "Ceval-valid-high_school_physics": 1,
    "Ceval-valid-high_school_politics": 1,
    "Ceval-valid-ideological_and_moral_cultivation": 1,
    "Ceval-valid-law": 1,
    "Ceval-valid-legal_professional": 1,
    "Ceval-valid-logic": 1,
    "Ceval-valid-mao_zedong_thought": 1,
    "Ceval-valid-marxism": 1,
    "Ceval-valid-metrology_engineer": 1,
    "Ceval-valid-middle_school_biology": 1,
    "Ceval-valid-middle_school_chemistry": 1,
    "Ceval-valid-middle_school_geography": 1,
    "Ceval-valid-middle_school_history": 1,
    "Ceval-valid-middle_school_mathematics": 1,
    "Ceval-valid-middle_school_physics": 1,
    "Ceval-valid-middle_school_politics": 1,
    "Ceval-valid-modern_chinese_history": 1,
    "Ceval-valid-operating_system": 1,
    "Ceval-valid-physician": 1,
    "Ceval-valid-plant_protection": 1,
    "Ceval-valid-probability_and_statistics": 1,
    "Ceval-valid-professional_tour_guide": 1,
    "Ceval-valid-sports_science": 1,
    "Ceval-valid-tax_accountant": 1,
    "Ceval-valid-teacher_qualification": 1,
    "Ceval-valid-urban_and_rural_planner": 1,
    "Ceval-valid-veterinary_medicine": 1
  },
  "config": {
    "model": "transnormer2",
    "model_args": "path=/cpfs01/user/shenxuyang/LLM/Models/transnormerLLM-hf/7B-4000,max_gen_token=64,repetition_penalty=1.0,dtype=bfloat16",
    "num_fewshot": 5,
    "batch_size": "auto",
    "batch_sizes": [
      8
    ],
    "device": "cuda:1",
    "no_cache": false,
    "limit": null,
    "bootstrap_iters": 100000,
    "description_dict": {}
  }
}