{
  "results": {
    "Ceval-valid-accountant": {
      "acc": 0.32653061224489793,
      "acc_stderr": 0.06768622021133469,
      "acc_norm": 0.32653061224489793,
      "acc_norm_stderr": 0.06768622021133469
    },
    "Ceval-valid-advanced_mathematics": {
      "acc": 0.21052631578947367,
      "acc_stderr": 0.0960916767552923,
      "acc_norm": 0.21052631578947367,
      "acc_norm_stderr": 0.0960916767552923
    },
    "Ceval-valid-art_studies": {
      "acc": 0.18181818181818182,
      "acc_stderr": 0.06818181818181816,
      "acc_norm": 0.18181818181818182,
      "acc_norm_stderr": 0.06818181818181816
    },
    "Ceval-valid-basic_medicine": {
      "acc": 0.3157894736842105,
      "acc_stderr": 0.10956136839295433,
      "acc_norm": 0.3157894736842105,
      "acc_norm_stderr": 0.10956136839295433
    },
    "Ceval-valid-business_administration": {
      "acc": 0.18181818181818182,
      "acc_stderr": 0.06818181818181816,
      "acc_norm": 0.18181818181818182,
      "acc_norm_stderr": 0.06818181818181816
    },
    "Ceval-valid-chinese_language_and_literature": {
      "acc": 0.2608695652173913,
      "acc_stderr": 0.09361833424764436,
      "acc_norm": 0.2608695652173913,
      "acc_norm_stderr": 0.09361833424764436
    },
    "Ceval-valid-civil_servant": {
      "acc": 0.2978723404255319,
      "acc_stderr": 0.06742861107915606,
      "acc_norm": 0.2978723404255319,
      "acc_norm_stderr": 0.06742861107915606
    },
    "Ceval-valid-clinical_medicine": {
      "acc": 0.2727272727272727,
      "acc_stderr": 0.0971859061499725,
      "acc_norm": 0.2727272727272727,
      "acc_norm_stderr": 0.0971859061499725
    },
    "Ceval-valid-college_chemistry": {
      "acc": 0.2916666666666667,
      "acc_stderr": 0.09477598811252413,
      "acc_norm": 0.2916666666666667,
      "acc_norm_stderr": 0.09477598811252413
    },
    "Ceval-valid-college_economics": {
      "acc": 0.23636363636363636,
      "acc_stderr": 0.05781449705557245,
      "acc_norm": 0.23636363636363636,
      "acc_norm_stderr": 0.05781449705557245
    },
    "Ceval-valid-college_physics": {
      "acc": 0.2631578947368421,
      "acc_stderr": 0.10379087338771256,
      "acc_norm": 0.2631578947368421,
      "acc_norm_stderr": 0.10379087338771256
    },
    "Ceval-valid-college_programming": {
      "acc": 0.13513513513513514,
      "acc_stderr": 0.056977975858889716,
      "acc_norm": 0.13513513513513514,
      "acc_norm_stderr": 0.056977975858889716
    },
    "Ceval-valid-computer_architecture": {
      "acc": 0.19047619047619047,
      "acc_stderr": 0.08780518530755131,
      "acc_norm": 0.19047619047619047,
      "acc_norm_stderr": 0.08780518530755131
    },
    "Ceval-valid-computer_network": {
      "acc": 0.2631578947368421,
      "acc_stderr": 0.10379087338771256,
      "acc_norm": 0.2631578947368421,
      "acc_norm_stderr": 0.10379087338771256
    },
    "Ceval-valid-discrete_mathematics": {
      "acc": 0.375,
      "acc_stderr": 0.125,
      "acc_norm": 0.375,
      "acc_norm_stderr": 0.125
    },
    "Ceval-valid-education_science": {
      "acc": 0.3103448275862069,
      "acc_stderr": 0.08742975048915692,
      "acc_norm": 0.3103448275862069,
      "acc_norm_stderr": 0.08742975048915692
    },
    "Ceval-valid-electrical_engineer": {
      "acc": 0.2702702702702703,
      "acc_stderr": 0.07401656182502248,
      "acc_norm": 0.2702702702702703,
      "acc_norm_stderr": 0.07401656182502248
    },
    "Ceval-valid-environmental_impact_assessment_engineer": {
      "acc": 0.16129032258064516,
      "acc_stderr": 0.06715051611181073,
      "acc_norm": 0.16129032258064516,
      "acc_norm_stderr": 0.06715051611181073
    },
    "Ceval-valid-fire_engineer": {
      "acc": 0.1935483870967742,
      "acc_stderr": 0.07213122508063838,
      "acc_norm": 0.1935483870967742,
      "acc_norm_stderr": 0.07213122508063838
    },
    "Ceval-valid-high_school_biology": {
      "acc": 0.15789473684210525,
      "acc_stderr": 0.08594700851870798,
      "acc_norm": 0.15789473684210525,
      "acc_norm_stderr": 0.08594700851870798
    },
    "Ceval-valid-high_school_chemistry": {
      "acc": 0.3157894736842105,
      "acc_stderr": 0.10956136839295434,
      "acc_norm": 0.3157894736842105,
      "acc_norm_stderr": 0.10956136839295434
    },
    "Ceval-valid-high_school_chinese": {
      "acc": 0.2631578947368421,
      "acc_stderr": 0.10379087338771256,
      "acc_norm": 0.2631578947368421,
      "acc_norm_stderr": 0.10379087338771256
    },
    "Ceval-valid-high_school_geography": {
      "acc": 0.2631578947368421,
      "acc_stderr": 0.10379087338771256,
      "acc_norm": 0.2631578947368421,
      "acc_norm_stderr": 0.10379087338771256
    },
    "Ceval-valid-high_school_history": {
      "acc": 0.1,
      "acc_stderr": 0.06882472016116853,
      "acc_norm": 0.1,
      "acc_norm_stderr": 0.06882472016116853
    },
    "Ceval-valid-high_school_mathematics": {
      "acc": 0.4444444444444444,
      "acc_stderr": 0.12051692101036454,
      "acc_norm": 0.4444444444444444,
      "acc_norm_stderr": 0.12051692101036454
    },
    "Ceval-valid-high_school_physics": {
      "acc": 0.2631578947368421,
      "acc_stderr": 0.10379087338771256,
      "acc_norm": 0.2631578947368421,
      "acc_norm_stderr": 0.10379087338771256
    },
    "Ceval-valid-high_school_politics": {
      "acc": 0.15789473684210525,
      "acc_stderr": 0.08594700851870798,
      "acc_norm": 0.15789473684210525,
      "acc_norm_stderr": 0.08594700851870798
    },
    "Ceval-valid-ideological_and_moral_cultivation": {
      "acc": 0.10526315789473684,
      "acc_stderr": 0.07233518641434489,
      "acc_norm": 0.10526315789473684,
      "acc_norm_stderr": 0.07233518641434489
    },
    "Ceval-valid-law": {
      "acc": 0.2916666666666667,
      "acc_stderr": 0.09477598811252413,
      "acc_norm": 0.2916666666666667,
      "acc_norm_stderr": 0.09477598811252413
    },
    "Ceval-valid-legal_professional": {
      "acc": 0.21739130434782608,
      "acc_stderr": 0.08793911249520546,
      "acc_norm": 0.21739130434782608,
      "acc_norm_stderr": 0.08793911249520546
    },
    "Ceval-valid-logic": {
      "acc": 0.36363636363636365,
      "acc_stderr": 0.10497277621629558,
      "acc_norm": 0.36363636363636365,
      "acc_norm_stderr": 0.10497277621629558
    },
    "Ceval-valid-mao_zedong_thought": {
      "acc": 0.3333333333333333,
      "acc_stderr": 0.0982946374365981,
      "acc_norm": 0.3333333333333333,
      "acc_norm_stderr": 0.0982946374365981
    },
    "Ceval-valid-marxism": {
      "acc": 0.2631578947368421,
      "acc_stderr": 0.10379087338771256,
      "acc_norm": 0.2631578947368421,
      "acc_norm_stderr": 0.10379087338771256
    },
    "Ceval-valid-metrology_engineer": {
      "acc": 0.20833333333333334,
      "acc_stderr": 0.08468112965594378,
      "acc_norm": 0.20833333333333334,
      "acc_norm_stderr": 0.08468112965594378
    },
    "Ceval-valid-middle_school_biology": {
      "acc": 0.23809523809523808,
      "acc_stderr": 0.09523809523809523,
      "acc_norm": 0.23809523809523808,
      "acc_norm_stderr": 0.09523809523809523
    },
    "Ceval-valid-middle_school_chemistry": {
      "acc": 0.3,
      "acc_stderr": 0.10513149660756933,
      "acc_norm": 0.3,
      "acc_norm_stderr": 0.10513149660756933
    },
    "Ceval-valid-middle_school_geography": {
      "acc": 0.25,
      "acc_stderr": 0.1305582419667734,
      "acc_norm": 0.25,
      "acc_norm_stderr": 0.1305582419667734
    },
    "Ceval-valid-middle_school_history": {
      "acc": 0.4090909090909091,
      "acc_stderr": 0.10729033533674223,
      "acc_norm": 0.4090909090909091,
      "acc_norm_stderr": 0.10729033533674223
    },
    "Ceval-valid-middle_school_mathematics": {
      "acc": 0.3684210526315789,
      "acc_stderr": 0.11369720523522557,
      "acc_norm": 0.3684210526315789,
      "acc_norm_stderr": 0.11369720523522557
    },
    "Ceval-valid-middle_school_physics": {
      "acc": 0.15789473684210525,
      "acc_stderr": 0.08594700851870798,
      "acc_norm": 0.15789473684210525,
      "acc_norm_stderr": 0.08594700851870798
    },
    "Ceval-valid-middle_school_politics": {
      "acc": 0.2857142857142857,
      "acc_stderr": 0.10101525445522108,
      "acc_norm": 0.2857142857142857,
      "acc_norm_stderr": 0.10101525445522108
    },
    "Ceval-valid-modern_chinese_history": {
      "acc": 0.2608695652173913,
      "acc_stderr": 0.09361833424764439,
      "acc_norm": 0.2608695652173913,
      "acc_norm_stderr": 0.09361833424764439
    },
    "Ceval-valid-operating_system": {
      "acc": 0.42105263157894735,
      "acc_stderr": 0.11637279966159299,
      "acc_norm": 0.42105263157894735,
      "acc_norm_stderr": 0.11637279966159299
    },
    "Ceval-valid-physician": {
      "acc": 0.3469387755102041,
      "acc_stderr": 0.06870411522695292,
      "acc_norm": 0.3469387755102041,
      "acc_norm_stderr": 0.06870411522695292
    },
    "Ceval-valid-plant_protection": {
      "acc": 0.13636363636363635,
      "acc_stderr": 0.0748867700952649,
      "acc_norm": 0.13636363636363635,
      "acc_norm_stderr": 0.0748867700952649
    },
    "Ceval-valid-probability_and_statistics": {
      "acc": 0.2777777777777778,
      "acc_stderr": 0.1086324845659782,
      "acc_norm": 0.2777777777777778,
      "acc_norm_stderr": 0.1086324845659782
    },
    "Ceval-valid-professional_tour_guide": {
      "acc": 0.2413793103448276,
      "acc_stderr": 0.080869237238335,
      "acc_norm": 0.2413793103448276,
      "acc_norm_stderr": 0.080869237238335
    },
    "Ceval-valid-sports_science": {
      "acc": 0.21052631578947367,
      "acc_stderr": 0.0960916767552923,
      "acc_norm": 0.21052631578947367,
      "acc_norm_stderr": 0.0960916767552923
    },
    "Ceval-valid-tax_accountant": {
      "acc": 0.3469387755102041,
      "acc_stderr": 0.06870411522695292,
      "acc_norm": 0.3469387755102041,
      "acc_norm_stderr": 0.06870411522695292
    },
    "Ceval-valid-teacher_qualification": {
      "acc": 0.3409090909090909,
      "acc_stderr": 0.07228658768525043,
      "acc_norm": 0.3409090909090909,
      "acc_norm_stderr": 0.07228658768525043
    },
    "Ceval-valid-urban_and_rural_planner": {
      "acc": 0.2391304347826087,
      "acc_stderr": 0.06358669845936323,
      "acc_norm": 0.2391304347826087,
      "acc_norm_stderr": 0.06358669845936323
    },
    "Ceval-valid-veterinary_medicine": {
      "acc": 0.17391304347826086,
      "acc_stderr": 0.08081046758996391,
      "acc_norm": 0.17391304347826086,
      "acc_norm_stderr": 0.08081046758996391
    }
  },
  "versions": {
    "Ceval-valid-accountant": 1,
    "Ceval-valid-advanced_mathematics": 1,
    "Ceval-valid-art_studies": 1,
    "Ceval-valid-basic_medicine": 1,
    "Ceval-valid-business_administration": 1,
    "Ceval-valid-chinese_language_and_literature": 1,
    "Ceval-valid-civil_servant": 1,
    "Ceval-valid-clinical_medicine": 1,
    "Ceval-valid-college_chemistry": 1,
    "Ceval-valid-college_economics": 1,
    "Ceval-valid-college_physics": 1,
    "Ceval-valid-college_programming": 1,
    "Ceval-valid-computer_architecture": 1,
    "Ceval-valid-computer_network": 1,
    "Ceval-valid-discrete_mathematics": 1,
    "Ceval-valid-education_science": 1,
    "Ceval-valid-electrical_engineer": 1,
    "Ceval-valid-environmental_impact_assessment_engineer": 1,
    "Ceval-valid-fire_engineer": 1,
    "Ceval-valid-high_school_biology": 1,
    "Ceval-valid-high_school_chemistry": 1,
    "Ceval-valid-high_school_chinese": 1,
    "Ceval-valid-high_school_geography": 1,
    "Ceval-valid-high_school_history": 1,
    "Ceval-valid-high_school_mathematics": 1,
    "Ceval-valid-high_school_physics": 1,
    "Ceval-valid-high_school_politics": 1,
    "Ceval-valid-ideological_and_moral_cultivation": 1,
    "Ceval-valid-law": 1,
    "Ceval-valid-legal_professional": 1,
    "Ceval-valid-logic": 1,
    "Ceval-valid-mao_zedong_thought": 1,
    "Ceval-valid-marxism": 1,
    "Ceval-valid-metrology_engineer": 1,
    "Ceval-valid-middle_school_biology": 1,
    "Ceval-valid-middle_school_chemistry": 1,
    "Ceval-valid-middle_school_geography": 1,
    "Ceval-valid-middle_school_history": 1,
    "Ceval-valid-middle_school_mathematics": 1,
    "Ceval-valid-middle_school_physics": 1,
    "Ceval-valid-middle_school_politics": 1,
    "Ceval-valid-modern_chinese_history": 1,
    "Ceval-valid-operating_system": 1,
    "Ceval-valid-physician": 1,
    "Ceval-valid-plant_protection": 1,
    "Ceval-valid-probability_and_statistics": 1,
    "Ceval-valid-professional_tour_guide": 1,
    "Ceval-valid-sports_science": 1,
    "Ceval-valid-tax_accountant": 1,
    "Ceval-valid-teacher_qualification": 1,
    "Ceval-valid-urban_and_rural_planner": 1,
    "Ceval-valid-veterinary_medicine": 1
  },
  "config": {
    "model": "transnormer2",
    "model_args": "path=/cpfs01/user/shenxuyang/LLM/Models/transnormerLLM-hf/7B-12750,max_gen_token=256,repetition_penalty=1.1,dtype=bfloat16",
    "num_fewshot": 5,
    "batch_size": "auto",
    "batch_sizes": [
      8
    ],
    "device": "cuda:0",
    "no_cache": false,
    "limit": null,
    "bootstrap_iters": 100000,
    "description_dict": {}
  }
}