{
  "results": {
    "Ceval-valid-accountant": {
      "acc": 0.3673469387755102,
      "acc_stderr": 0.06958255967849923,
      "acc_norm": 0.3673469387755102,
      "acc_norm_stderr": 0.06958255967849923
    },
    "Ceval-valid-advanced_mathematics": {
      "acc": 0.15789473684210525,
      "acc_stderr": 0.08594700851870798,
      "acc_norm": 0.15789473684210525,
      "acc_norm_stderr": 0.08594700851870798
    },
    "Ceval-valid-art_studies": {
      "acc": 0.18181818181818182,
      "acc_stderr": 0.06818181818181816,
      "acc_norm": 0.18181818181818182,
      "acc_norm_stderr": 0.06818181818181816
    },
    "Ceval-valid-basic_medicine": {
      "acc": 0.21052631578947367,
      "acc_stderr": 0.0960916767552923,
      "acc_norm": 0.21052631578947367,
      "acc_norm_stderr": 0.0960916767552923
    },
    "Ceval-valid-business_administration": {
      "acc": 0.24242424242424243,
      "acc_stderr": 0.07575757575757576,
      "acc_norm": 0.24242424242424243,
      "acc_norm_stderr": 0.07575757575757576
    },
    "Ceval-valid-chinese_language_and_literature": {
      "acc": 0.30434782608695654,
      "acc_stderr": 0.09810018692482894,
      "acc_norm": 0.30434782608695654,
      "acc_norm_stderr": 0.09810018692482894
    },
    "Ceval-valid-civil_servant": {
      "acc": 0.14893617021276595,
      "acc_stderr": 0.05249310253140093,
      "acc_norm": 0.14893617021276595,
      "acc_norm_stderr": 0.05249310253140093
    },
    "Ceval-valid-clinical_medicine": {
      "acc": 0.18181818181818182,
      "acc_stderr": 0.08416546361568647,
      "acc_norm": 0.18181818181818182,
      "acc_norm_stderr": 0.08416546361568647
    },
    "Ceval-valid-college_chemistry": {
      "acc": 0.16666666666666666,
      "acc_stderr": 0.07770873402002615,
      "acc_norm": 0.16666666666666666,
      "acc_norm_stderr": 0.07770873402002615
    },
    "Ceval-valid-college_economics": {
      "acc": 0.36363636363636365,
      "acc_stderr": 0.06546202725664503,
      "acc_norm": 0.36363636363636365,
      "acc_norm_stderr": 0.06546202725664503
    },
    "Ceval-valid-college_physics": {
      "acc": 0.10526315789473684,
      "acc_stderr": 0.07233518641434492,
      "acc_norm": 0.10526315789473684,
      "acc_norm_stderr": 0.07233518641434492
    },
    "Ceval-valid-college_programming": {
      "acc": 0.2972972972972973,
      "acc_stderr": 0.07617808344724214,
      "acc_norm": 0.2972972972972973,
      "acc_norm_stderr": 0.07617808344724214
    },
    "Ceval-valid-computer_architecture": {
      "acc": 0.3333333333333333,
      "acc_stderr": 0.10540925533894598,
      "acc_norm": 0.3333333333333333,
      "acc_norm_stderr": 0.10540925533894598
    },
    "Ceval-valid-computer_network": {
      "acc": 0.15789473684210525,
      "acc_stderr": 0.085947008518708,
      "acc_norm": 0.15789473684210525,
      "acc_norm_stderr": 0.085947008518708
    },
    "Ceval-valid-discrete_mathematics": {
      "acc": 0.25,
      "acc_stderr": 0.11180339887498948,
      "acc_norm": 0.25,
      "acc_norm_stderr": 0.11180339887498948
    },
    "Ceval-valid-education_science": {
      "acc": 0.27586206896551724,
      "acc_stderr": 0.08446516354424752,
      "acc_norm": 0.27586206896551724,
      "acc_norm_stderr": 0.08446516354424752
    },
    "Ceval-valid-electrical_engineer": {
      "acc": 0.21621621621621623,
      "acc_stderr": 0.0686105685212965,
      "acc_norm": 0.21621621621621623,
      "acc_norm_stderr": 0.0686105685212965
    },
    "Ceval-valid-environmental_impact_assessment_engineer": {
      "acc": 0.16129032258064516,
      "acc_stderr": 0.06715051611181073,
      "acc_norm": 0.16129032258064516,
      "acc_norm_stderr": 0.06715051611181073
    },
    "Ceval-valid-fire_engineer": {
      "acc": 0.22580645161290322,
      "acc_stderr": 0.07633651333031764,
      "acc_norm": 0.22580645161290322,
      "acc_norm_stderr": 0.07633651333031764
    },
    "Ceval-valid-high_school_biology": {
      "acc": 0.15789473684210525,
      "acc_stderr": 0.08594700851870798,
      "acc_norm": 0.15789473684210525,
      "acc_norm_stderr": 0.08594700851870798
    },
    "Ceval-valid-high_school_chemistry": {
      "acc": 0.3157894736842105,
      "acc_stderr": 0.10956136839295434,
      "acc_norm": 0.3157894736842105,
      "acc_norm_stderr": 0.10956136839295434
    },
    "Ceval-valid-high_school_chinese": {
      "acc": 0.2631578947368421,
      "acc_stderr": 0.10379087338771256,
      "acc_norm": 0.2631578947368421,
      "acc_norm_stderr": 0.10379087338771256
    },
    "Ceval-valid-high_school_geography": {
      "acc": 0.2631578947368421,
      "acc_stderr": 0.10379087338771256,
      "acc_norm": 0.2631578947368421,
      "acc_norm_stderr": 0.10379087338771256
    },
    "Ceval-valid-high_school_history": {
      "acc": 0.05,
      "acc_stderr": 0.04999999999999998,
      "acc_norm": 0.05,
      "acc_norm_stderr": 0.04999999999999998
    },
    "Ceval-valid-high_school_mathematics": {
      "acc": 0.3333333333333333,
      "acc_stderr": 0.11433239009500591,
      "acc_norm": 0.3333333333333333,
      "acc_norm_stderr": 0.11433239009500591
    },
    "Ceval-valid-high_school_physics": {
      "acc": 0.21052631578947367,
      "acc_stderr": 0.0960916767552923,
      "acc_norm": 0.21052631578947367,
      "acc_norm_stderr": 0.0960916767552923
    },
    "Ceval-valid-high_school_politics": {
      "acc": 0.15789473684210525,
      "acc_stderr": 0.085947008518708,
      "acc_norm": 0.15789473684210525,
      "acc_norm_stderr": 0.085947008518708
    },
    "Ceval-valid-ideological_and_moral_cultivation": {
      "acc": 0.10526315789473684,
      "acc_stderr": 0.0723351864143449,
      "acc_norm": 0.10526315789473684,
      "acc_norm_stderr": 0.0723351864143449
    },
    "Ceval-valid-law": {
      "acc": 0.25,
      "acc_stderr": 0.09028938981432691,
      "acc_norm": 0.25,
      "acc_norm_stderr": 0.09028938981432691
    },
    "Ceval-valid-legal_professional": {
      "acc": 0.043478260869565216,
      "acc_stderr": 0.04347826086956523,
      "acc_norm": 0.043478260869565216,
      "acc_norm_stderr": 0.04347826086956523
    },
    "Ceval-valid-logic": {
      "acc": 0.2727272727272727,
      "acc_stderr": 0.0971859061499725,
      "acc_norm": 0.2727272727272727,
      "acc_norm_stderr": 0.0971859061499725
    },
    "Ceval-valid-mao_zedong_thought": {
      "acc": 0.20833333333333334,
      "acc_stderr": 0.08468112965594378,
      "acc_norm": 0.20833333333333334,
      "acc_norm_stderr": 0.08468112965594378
    },
    "Ceval-valid-marxism": {
      "acc": 0.21052631578947367,
      "acc_stderr": 0.0960916767552923,
      "acc_norm": 0.21052631578947367,
      "acc_norm_stderr": 0.0960916767552923
    },
    "Ceval-valid-metrology_engineer": {
      "acc": 0.3333333333333333,
      "acc_stderr": 0.0982946374365981,
      "acc_norm": 0.3333333333333333,
      "acc_norm_stderr": 0.0982946374365981
    },
    "Ceval-valid-middle_school_biology": {
      "acc": 0.23809523809523808,
      "acc_stderr": 0.09523809523809523,
      "acc_norm": 0.23809523809523808,
      "acc_norm_stderr": 0.09523809523809523
    },
    "Ceval-valid-middle_school_chemistry": {
      "acc": 0.2,
      "acc_stderr": 0.09176629354822471,
      "acc_norm": 0.2,
      "acc_norm_stderr": 0.09176629354822471
    },
    "Ceval-valid-middle_school_geography": {
      "acc": 0.3333333333333333,
      "acc_stderr": 0.14213381090374033,
      "acc_norm": 0.3333333333333333,
      "acc_norm_stderr": 0.14213381090374033
    },
    "Ceval-valid-middle_school_history": {
      "acc": 0.2727272727272727,
      "acc_stderr": 0.0971859061499725,
      "acc_norm": 0.2727272727272727,
      "acc_norm_stderr": 0.0971859061499725
    },
    "Ceval-valid-middle_school_mathematics": {
      "acc": 0.3157894736842105,
      "acc_stderr": 0.10956136839295433,
      "acc_norm": 0.3157894736842105,
      "acc_norm_stderr": 0.10956136839295433
    },
    "Ceval-valid-middle_school_physics": {
      "acc": 0.21052631578947367,
      "acc_stderr": 0.0960916767552923,
      "acc_norm": 0.21052631578947367,
      "acc_norm_stderr": 0.0960916767552923
    },
    "Ceval-valid-middle_school_politics": {
      "acc": 0.23809523809523808,
      "acc_stderr": 0.09523809523809523,
      "acc_norm": 0.23809523809523808,
      "acc_norm_stderr": 0.09523809523809523
    },
    "Ceval-valid-modern_chinese_history": {
      "acc": 0.4782608695652174,
      "acc_stderr": 0.10649955403405124,
      "acc_norm": 0.4782608695652174,
      "acc_norm_stderr": 0.10649955403405124
    },
    "Ceval-valid-operating_system": {
      "acc": 0.2631578947368421,
      "acc_stderr": 0.10379087338771256,
      "acc_norm": 0.2631578947368421,
      "acc_norm_stderr": 0.10379087338771256
    },
    "Ceval-valid-physician": {
      "acc": 0.2653061224489796,
      "acc_stderr": 0.06372446937141223,
      "acc_norm": 0.2653061224489796,
      "acc_norm_stderr": 0.06372446937141223
    },
    "Ceval-valid-plant_protection": {
      "acc": 0.18181818181818182,
      "acc_stderr": 0.08416546361568647,
      "acc_norm": 0.18181818181818182,
      "acc_norm_stderr": 0.08416546361568647
    },
    "Ceval-valid-probability_and_statistics": {
      "acc": 0.2222222222222222,
      "acc_stderr": 0.10083169033033672,
      "acc_norm": 0.2222222222222222,
      "acc_norm_stderr": 0.10083169033033672
    },
    "Ceval-valid-professional_tour_guide": {
      "acc": 0.20689655172413793,
      "acc_stderr": 0.07655305550699534,
      "acc_norm": 0.20689655172413793,
      "acc_norm_stderr": 0.07655305550699534
    },
    "Ceval-valid-sports_science": {
      "acc": 0.2631578947368421,
      "acc_stderr": 0.10379087338771256,
      "acc_norm": 0.2631578947368421,
      "acc_norm_stderr": 0.10379087338771256
    },
    "Ceval-valid-tax_accountant": {
      "acc": 0.1836734693877551,
      "acc_stderr": 0.055890056888282254,
      "acc_norm": 0.1836734693877551,
      "acc_norm_stderr": 0.055890056888282254
    },
    "Ceval-valid-teacher_qualification": {
      "acc": 0.2727272727272727,
      "acc_stderr": 0.06791703342160257,
      "acc_norm": 0.2727272727272727,
      "acc_norm_stderr": 0.06791703342160257
    },
    "Ceval-valid-urban_and_rural_planner": {
      "acc": 0.21739130434782608,
      "acc_stderr": 0.06148754619013454,
      "acc_norm": 0.21739130434782608,
      "acc_norm_stderr": 0.06148754619013454
    },
    "Ceval-valid-veterinary_medicine": {
      "acc": 0.17391304347826086,
      "acc_stderr": 0.08081046758996394,
      "acc_norm": 0.17391304347826086,
      "acc_norm_stderr": 0.08081046758996394
    }
  },
  "versions": {
    "Ceval-valid-accountant": 1,
    "Ceval-valid-advanced_mathematics": 1,
    "Ceval-valid-art_studies": 1,
    "Ceval-valid-basic_medicine": 1,
    "Ceval-valid-business_administration": 1,
    "Ceval-valid-chinese_language_and_literature": 1,
    "Ceval-valid-civil_servant": 1,
    "Ceval-valid-clinical_medicine": 1,
    "Ceval-valid-college_chemistry": 1,
    "Ceval-valid-college_economics": 1,
    "Ceval-valid-college_physics": 1,
    "Ceval-valid-college_programming": 1,
    "Ceval-valid-computer_architecture": 1,
    "Ceval-valid-computer_network": 1,
    "Ceval-valid-discrete_mathematics": 1,
    "Ceval-valid-education_science": 1,
    "Ceval-valid-electrical_engineer": 1,
    "Ceval-valid-environmental_impact_assessment_engineer": 1,
    "Ceval-valid-fire_engineer": 1,
    "Ceval-valid-high_school_biology": 1,
    "Ceval-valid-high_school_chemistry": 1,
    "Ceval-valid-high_school_chinese": 1,
    "Ceval-valid-high_school_geography": 1,
    "Ceval-valid-high_school_history": 1,
    "Ceval-valid-high_school_mathematics": 1,
    "Ceval-valid-high_school_physics": 1,
    "Ceval-valid-high_school_politics": 1,
    "Ceval-valid-ideological_and_moral_cultivation": 1,
    "Ceval-valid-law": 1,
    "Ceval-valid-legal_professional": 1,
    "Ceval-valid-logic": 1,
    "Ceval-valid-mao_zedong_thought": 1,
    "Ceval-valid-marxism": 1,
    "Ceval-valid-metrology_engineer": 1,
    "Ceval-valid-middle_school_biology": 1,
    "Ceval-valid-middle_school_chemistry": 1,
    "Ceval-valid-middle_school_geography": 1,
    "Ceval-valid-middle_school_history": 1,
    "Ceval-valid-middle_school_mathematics": 1,
    "Ceval-valid-middle_school_physics": 1,
    "Ceval-valid-middle_school_politics": 1,
    "Ceval-valid-modern_chinese_history": 1,
    "Ceval-valid-operating_system": 1,
    "Ceval-valid-physician": 1,
    "Ceval-valid-plant_protection": 1,
    "Ceval-valid-probability_and_statistics": 1,
    "Ceval-valid-professional_tour_guide": 1,
    "Ceval-valid-sports_science": 1,
    "Ceval-valid-tax_accountant": 1,
    "Ceval-valid-teacher_qualification": 1,
    "Ceval-valid-urban_and_rural_planner": 1,
    "Ceval-valid-veterinary_medicine": 1
  },
  "config": {
    "model": "transnormer2",
    "model_args": "path=/cpfs01/user/shenxuyang/LLM/Models/transnormerLLM-hf/7B-45000,max_gen_token=256,repetition_penalty=1.1,dtype=bfloat16",
    "num_fewshot": 5,
    "batch_size": "4",
    "batch_sizes": [],
    "device": "cuda:0",
    "no_cache": false,
    "limit": null,
    "bootstrap_iters": 100000,
    "description_dict": {}
  }
}