{
  "results": {
    "hendrycksTest-abstract_algebra": {
      "acc": 0.22,
      "acc_stderr": 0.04163331998932268,
      "acc_norm": 0.22,
      "acc_norm_stderr": 0.04163331998932268
    },
    "hendrycksTest-anatomy": {
      "acc": 0.2518518518518518,
      "acc_stderr": 0.03749850709174021,
      "acc_norm": 0.2518518518518518,
      "acc_norm_stderr": 0.03749850709174021
    },
    "hendrycksTest-astronomy": {
      "acc": 0.17763157894736842,
      "acc_stderr": 0.031103182383123398,
      "acc_norm": 0.17763157894736842,
      "acc_norm_stderr": 0.031103182383123398
    },
    "hendrycksTest-business_ethics": {
      "acc": 0.19,
      "acc_stderr": 0.03942772444036622,
      "acc_norm": 0.19,
      "acc_norm_stderr": 0.03942772444036622
    },
    "hendrycksTest-clinical_knowledge": {
      "acc": 0.24528301886792453,
      "acc_stderr": 0.0264803571798957,
      "acc_norm": 0.24528301886792453,
      "acc_norm_stderr": 0.0264803571798957
    },
    "hendrycksTest-college_biology": {
      "acc": 0.2569444444444444,
      "acc_stderr": 0.03653946969442099,
      "acc_norm": 0.2569444444444444,
      "acc_norm_stderr": 0.03653946969442099
    },
    "hendrycksTest-college_chemistry": {
      "acc": 0.21,
      "acc_stderr": 0.04093601807403326,
      "acc_norm": 0.21,
      "acc_norm_stderr": 0.04093601807403326
    },
    "hendrycksTest-college_computer_science": {
      "acc": 0.2,
      "acc_stderr": 0.040201512610368445,
      "acc_norm": 0.2,
      "acc_norm_stderr": 0.040201512610368445
    },
    "hendrycksTest-college_mathematics": {
      "acc": 0.19,
      "acc_stderr": 0.03942772444036623,
      "acc_norm": 0.19,
      "acc_norm_stderr": 0.03942772444036623
    },
    "hendrycksTest-college_medicine": {
      "acc": 0.19653179190751446,
      "acc_stderr": 0.030299574664788137,
      "acc_norm": 0.19653179190751446,
      "acc_norm_stderr": 0.030299574664788137
    },
    "hendrycksTest-college_physics": {
      "acc": 0.21568627450980393,
      "acc_stderr": 0.04092563958237654,
      "acc_norm": 0.21568627450980393,
      "acc_norm_stderr": 0.04092563958237654
    },
    "hendrycksTest-computer_security": {
      "acc": 0.27,
      "acc_stderr": 0.0446196043338474,
      "acc_norm": 0.27,
      "acc_norm_stderr": 0.0446196043338474
    },
    "hendrycksTest-conceptual_physics": {
      "acc": 0.3021276595744681,
      "acc_stderr": 0.030017554471880557,
      "acc_norm": 0.3021276595744681,
      "acc_norm_stderr": 0.030017554471880557
    },
    "hendrycksTest-econometrics": {
      "acc": 0.2543859649122807,
      "acc_stderr": 0.040969851398436695,
      "acc_norm": 0.2543859649122807,
      "acc_norm_stderr": 0.040969851398436695
    },
    "hendrycksTest-electrical_engineering": {
      "acc": 0.2482758620689655,
      "acc_stderr": 0.03600105692727772,
      "acc_norm": 0.2482758620689655,
      "acc_norm_stderr": 0.03600105692727772
    },
    "hendrycksTest-elementary_mathematics": {
      "acc": 0.24603174603174602,
      "acc_stderr": 0.022182037202948368,
      "acc_norm": 0.24603174603174602,
      "acc_norm_stderr": 0.022182037202948368
    },
    "hendrycksTest-formal_logic": {
      "acc": 0.16666666666666666,
      "acc_stderr": 0.03333333333333338,
      "acc_norm": 0.16666666666666666,
      "acc_norm_stderr": 0.03333333333333338
    },
    "hendrycksTest-global_facts": {
      "acc": 0.21,
      "acc_stderr": 0.040936018074033256,
      "acc_norm": 0.21,
      "acc_norm_stderr": 0.040936018074033256
    },
    "hendrycksTest-high_school_biology": {
      "acc": 0.1967741935483871,
      "acc_stderr": 0.022616409420742018,
      "acc_norm": 0.1967741935483871,
      "acc_norm_stderr": 0.022616409420742018
    },
    "hendrycksTest-high_school_chemistry": {
      "acc": 0.2660098522167488,
      "acc_stderr": 0.03108982600293752,
      "acc_norm": 0.2660098522167488,
      "acc_norm_stderr": 0.03108982600293752
    },
    "hendrycksTest-high_school_computer_science": {
      "acc": 0.26,
      "acc_stderr": 0.04408440022768079,
      "acc_norm": 0.26,
      "acc_norm_stderr": 0.04408440022768079
    },
    "hendrycksTest-high_school_european_history": {
      "acc": 0.2606060606060606,
      "acc_stderr": 0.034277431758165236,
      "acc_norm": 0.2606060606060606,
      "acc_norm_stderr": 0.034277431758165236
    },
    "hendrycksTest-high_school_geography": {
      "acc": 0.20202020202020202,
      "acc_stderr": 0.02860620428922987,
      "acc_norm": 0.20202020202020202,
      "acc_norm_stderr": 0.02860620428922987
    },
    "hendrycksTest-high_school_government_and_politics": {
      "acc": 0.25906735751295334,
      "acc_stderr": 0.03161877917935411,
      "acc_norm": 0.25906735751295334,
      "acc_norm_stderr": 0.03161877917935411
    },
    "hendrycksTest-high_school_macroeconomics": {
      "acc": 0.2076923076923077,
      "acc_stderr": 0.020567539567246797,
      "acc_norm": 0.2076923076923077,
      "acc_norm_stderr": 0.020567539567246797
    },
    "hendrycksTest-high_school_mathematics": {
      "acc": 0.24074074074074073,
      "acc_stderr": 0.026067159222275784,
      "acc_norm": 0.24074074074074073,
      "acc_norm_stderr": 0.026067159222275784
    },
    "hendrycksTest-high_school_microeconomics": {
      "acc": 0.2184873949579832,
      "acc_stderr": 0.02684151432295894,
      "acc_norm": 0.2184873949579832,
      "acc_norm_stderr": 0.02684151432295894
    },
    "hendrycksTest-high_school_physics": {
      "acc": 0.1986754966887417,
      "acc_stderr": 0.03257847384436776,
      "acc_norm": 0.1986754966887417,
      "acc_norm_stderr": 0.03257847384436776
    },
    "hendrycksTest-high_school_psychology": {
      "acc": 0.21651376146788992,
      "acc_stderr": 0.017658710594443138,
      "acc_norm": 0.21651376146788992,
      "acc_norm_stderr": 0.017658710594443138
    },
    "hendrycksTest-high_school_statistics": {
      "acc": 0.25462962962962965,
      "acc_stderr": 0.02971127586000533,
      "acc_norm": 0.25462962962962965,
      "acc_norm_stderr": 0.02971127586000533
    },
    "hendrycksTest-high_school_us_history": {
      "acc": 0.25,
      "acc_stderr": 0.03039153369274154,
      "acc_norm": 0.25,
      "acc_norm_stderr": 0.03039153369274154
    },
    "hendrycksTest-high_school_world_history": {
      "acc": 0.26582278481012656,
      "acc_stderr": 0.028756799629658332,
      "acc_norm": 0.26582278481012656,
      "acc_norm_stderr": 0.028756799629658332
    },
    "hendrycksTest-human_aging": {
      "acc": 0.21973094170403587,
      "acc_stderr": 0.0277901770643836,
      "acc_norm": 0.21973094170403587,
      "acc_norm_stderr": 0.0277901770643836
    },
    "hendrycksTest-human_sexuality": {
      "acc": 0.25190839694656486,
      "acc_stderr": 0.03807387116306086,
      "acc_norm": 0.25190839694656486,
      "acc_norm_stderr": 0.03807387116306086
    },
    "hendrycksTest-international_law": {
      "acc": 0.256198347107438,
      "acc_stderr": 0.03984979653302871,
      "acc_norm": 0.256198347107438,
      "acc_norm_stderr": 0.03984979653302871
    },
    "hendrycksTest-jurisprudence": {
      "acc": 0.2777777777777778,
      "acc_stderr": 0.04330043749650743,
      "acc_norm": 0.2777777777777778,
      "acc_norm_stderr": 0.04330043749650743
    },
    "hendrycksTest-logical_fallacies": {
      "acc": 0.25766871165644173,
      "acc_stderr": 0.03436150827846917,
      "acc_norm": 0.25766871165644173,
      "acc_norm_stderr": 0.03436150827846917
    },
    "hendrycksTest-machine_learning": {
      "acc": 0.22321428571428573,
      "acc_stderr": 0.039523019677025116,
      "acc_norm": 0.22321428571428573,
      "acc_norm_stderr": 0.039523019677025116
    },
    "hendrycksTest-management": {
      "acc": 0.18446601941747573,
      "acc_stderr": 0.03840423627288276,
      "acc_norm": 0.18446601941747573,
      "acc_norm_stderr": 0.03840423627288276
    },
    "hendrycksTest-marketing": {
      "acc": 0.2606837606837607,
      "acc_stderr": 0.028760348956523414,
      "acc_norm": 0.2606837606837607,
      "acc_norm_stderr": 0.028760348956523414
    },
    "hendrycksTest-medical_genetics": {
      "acc": 0.3,
      "acc_stderr": 0.046056618647183814,
      "acc_norm": 0.3,
      "acc_norm_stderr": 0.046056618647183814
    },
    "hendrycksTest-miscellaneous": {
      "acc": 0.2669220945083014,
      "acc_stderr": 0.01581845089477755,
      "acc_norm": 0.2669220945083014,
      "acc_norm_stderr": 0.01581845089477755
    },
    "hendrycksTest-moral_disputes": {
      "acc": 0.24277456647398843,
      "acc_stderr": 0.023083658586984204,
      "acc_norm": 0.24277456647398843,
      "acc_norm_stderr": 0.023083658586984204
    },
    "hendrycksTest-moral_scenarios": {
      "acc": 0.23798882681564246,
      "acc_stderr": 0.014242630070574915,
      "acc_norm": 0.23798882681564246,
      "acc_norm_stderr": 0.014242630070574915
    },
    "hendrycksTest-nutrition": {
      "acc": 0.2549019607843137,
      "acc_stderr": 0.024954184324879912,
      "acc_norm": 0.2549019607843137,
      "acc_norm_stderr": 0.024954184324879912
    },
    "hendrycksTest-philosophy": {
      "acc": 0.2315112540192926,
      "acc_stderr": 0.02395653276663914,
      "acc_norm": 0.2315112540192926,
      "acc_norm_stderr": 0.02395653276663914
    },
    "hendrycksTest-prehistory": {
      "acc": 0.21604938271604937,
      "acc_stderr": 0.0228991629184458,
      "acc_norm": 0.21604938271604937,
      "acc_norm_stderr": 0.0228991629184458
    },
    "hendrycksTest-professional_accounting": {
      "acc": 0.26595744680851063,
      "acc_stderr": 0.026358065698880592,
      "acc_norm": 0.26595744680851063,
      "acc_norm_stderr": 0.026358065698880592
    },
    "hendrycksTest-professional_law": {
      "acc": 0.24511082138200782,
      "acc_stderr": 0.010986307870045514,
      "acc_norm": 0.24511082138200782,
      "acc_norm_stderr": 0.010986307870045514
    },
    "hendrycksTest-professional_medicine": {
      "acc": 0.16911764705882354,
      "acc_stderr": 0.022770868010113004,
      "acc_norm": 0.16911764705882354,
      "acc_norm_stderr": 0.022770868010113004
    },
    "hendrycksTest-professional_psychology": {
      "acc": 0.25,
      "acc_stderr": 0.01751781884501444,
      "acc_norm": 0.25,
      "acc_norm_stderr": 0.01751781884501444
    },
    "hendrycksTest-public_relations": {
      "acc": 0.22727272727272727,
      "acc_stderr": 0.04013964554072775,
      "acc_norm": 0.22727272727272727,
      "acc_norm_stderr": 0.04013964554072775
    },
    "hendrycksTest-security_studies": {
      "acc": 0.2653061224489796,
      "acc_stderr": 0.028263889943784593,
      "acc_norm": 0.2653061224489796,
      "acc_norm_stderr": 0.028263889943784593
    },
    "hendrycksTest-sociology": {
      "acc": 0.24378109452736318,
      "acc_stderr": 0.03036049015401465,
      "acc_norm": 0.24378109452736318,
      "acc_norm_stderr": 0.03036049015401465
    },
    "hendrycksTest-us_foreign_policy": {
      "acc": 0.27,
      "acc_stderr": 0.04461960433384741,
      "acc_norm": 0.27,
      "acc_norm_stderr": 0.04461960433384741
    },
    "hendrycksTest-virology": {
      "acc": 0.2289156626506024,
      "acc_stderr": 0.03270745277352477,
      "acc_norm": 0.2289156626506024,
      "acc_norm_stderr": 0.03270745277352477
    },
    "hendrycksTest-world_religions": {
      "acc": 0.21637426900584794,
      "acc_stderr": 0.031581495393387345,
      "acc_norm": 0.21637426900584794,
      "acc_norm_stderr": 0.031581495393387345
    }
  },
  "versions": {
    "hendrycksTest-abstract_algebra": 1,
    "hendrycksTest-anatomy": 1,
    "hendrycksTest-astronomy": 1,
    "hendrycksTest-business_ethics": 1,
    "hendrycksTest-clinical_knowledge": 1,
    "hendrycksTest-college_biology": 1,
    "hendrycksTest-college_chemistry": 1,
    "hendrycksTest-college_computer_science": 1,
    "hendrycksTest-college_mathematics": 1,
    "hendrycksTest-college_medicine": 1,
    "hendrycksTest-college_physics": 1,
    "hendrycksTest-computer_security": 1,
    "hendrycksTest-conceptual_physics": 1,
    "hendrycksTest-econometrics": 1,
    "hendrycksTest-electrical_engineering": 1,
    "hendrycksTest-elementary_mathematics": 1,
    "hendrycksTest-formal_logic": 1,
    "hendrycksTest-global_facts": 1,
    "hendrycksTest-high_school_biology": 1,
    "hendrycksTest-high_school_chemistry": 1,
    "hendrycksTest-high_school_computer_science": 1,
    "hendrycksTest-high_school_european_history": 1,
    "hendrycksTest-high_school_geography": 1,
    "hendrycksTest-high_school_government_and_politics": 1,
    "hendrycksTest-high_school_macroeconomics": 1,
    "hendrycksTest-high_school_mathematics": 1,
    "hendrycksTest-high_school_microeconomics": 1,
    "hendrycksTest-high_school_physics": 1,
    "hendrycksTest-high_school_psychology": 1,
    "hendrycksTest-high_school_statistics": 1,
    "hendrycksTest-high_school_us_history": 1,
    "hendrycksTest-high_school_world_history": 1,
    "hendrycksTest-human_aging": 1,
    "hendrycksTest-human_sexuality": 1,
    "hendrycksTest-international_law": 1,
    "hendrycksTest-jurisprudence": 1,
    "hendrycksTest-logical_fallacies": 1,
    "hendrycksTest-machine_learning": 1,
    "hendrycksTest-management": 1,
    "hendrycksTest-marketing": 1,
    "hendrycksTest-medical_genetics": 1,
    "hendrycksTest-miscellaneous": 1,
    "hendrycksTest-moral_disputes": 1,
    "hendrycksTest-moral_scenarios": 1,
    "hendrycksTest-nutrition": 1,
    "hendrycksTest-philosophy": 1,
    "hendrycksTest-prehistory": 1,
    "hendrycksTest-professional_accounting": 1,
    "hendrycksTest-professional_law": 1,
    "hendrycksTest-professional_medicine": 1,
    "hendrycksTest-professional_psychology": 1,
    "hendrycksTest-public_relations": 1,
    "hendrycksTest-security_studies": 1,
    "hendrycksTest-sociology": 1,
    "hendrycksTest-us_foreign_policy": 1,
    "hendrycksTest-virology": 1,
    "hendrycksTest-world_religions": 1
  },
  "config": {
    "model": "transnormer2",
    "model_args": "path=/cpfs01/user/shenxuyang/LLM/Models/transnormerLLM-410m/hf/410m-300000,max_length=256,repetition_penalty=1.1,dtype=bfloat16",
    "num_fewshot": 5,
    "batch_size": "auto",
    "batch_sizes": [
      256
    ],
    "device": "cuda:0",
    "no_cache": false,
    "limit": null,
    "bootstrap_iters": 100000,
    "description_dict": {}
  }
}