{
  "results": {
    "Ceval-valid-accountant": {
      "acc": 0.30612244897959184,
      "acc_stderr": 0.06652247352247598,
      "acc_norm": 0.30612244897959184,
      "acc_norm_stderr": 0.06652247352247598
    },
    "Ceval-valid-advanced_mathematics": {
      "acc": 0.21052631578947367,
      "acc_stderr": 0.0960916767552923,
      "acc_norm": 0.21052631578947367,
      "acc_norm_stderr": 0.0960916767552923
    },
    "Ceval-valid-art_studies": {
      "acc": 0.36363636363636365,
      "acc_stderr": 0.08503766788122592,
      "acc_norm": 0.36363636363636365,
      "acc_norm_stderr": 0.08503766788122592
    },
    "Ceval-valid-basic_medicine": {
      "acc": 0.05263157894736842,
      "acc_stderr": 0.05263157894736841,
      "acc_norm": 0.05263157894736842,
      "acc_norm_stderr": 0.05263157894736841
    },
    "Ceval-valid-business_administration": {
      "acc": 0.21212121212121213,
      "acc_stderr": 0.07226812131946557,
      "acc_norm": 0.21212121212121213,
      "acc_norm_stderr": 0.07226812131946557
    },
    "Ceval-valid-chinese_language_and_literature": {
      "acc": 0.17391304347826086,
      "acc_stderr": 0.08081046758996392,
      "acc_norm": 0.17391304347826086,
      "acc_norm_stderr": 0.08081046758996392
    },
    "Ceval-valid-civil_servant": {
      "acc": 0.23404255319148937,
      "acc_stderr": 0.062426763436828826,
      "acc_norm": 0.23404255319148937,
      "acc_norm_stderr": 0.062426763436828826
    },
    "Ceval-valid-clinical_medicine": {
      "acc": 0.2727272727272727,
      "acc_stderr": 0.0971859061499725,
      "acc_norm": 0.2727272727272727,
      "acc_norm_stderr": 0.0971859061499725
    },
    "Ceval-valid-college_chemistry": {
      "acc": 0.3333333333333333,
      "acc_stderr": 0.0982946374365981,
      "acc_norm": 0.3333333333333333,
      "acc_norm_stderr": 0.0982946374365981
    },
    "Ceval-valid-college_economics": {
      "acc": 0.2727272727272727,
      "acc_stderr": 0.0606060606060606,
      "acc_norm": 0.2727272727272727,
      "acc_norm_stderr": 0.0606060606060606
    },
    "Ceval-valid-college_physics": {
      "acc": 0.2631578947368421,
      "acc_stderr": 0.10379087338771256,
      "acc_norm": 0.2631578947368421,
      "acc_norm_stderr": 0.10379087338771256
    },
    "Ceval-valid-college_programming": {
      "acc": 0.32432432432432434,
      "acc_stderr": 0.07802030664724673,
      "acc_norm": 0.32432432432432434,
      "acc_norm_stderr": 0.07802030664724673
    },
    "Ceval-valid-computer_architecture": {
      "acc": 0.2857142857142857,
      "acc_stderr": 0.10101525445522108,
      "acc_norm": 0.2857142857142857,
      "acc_norm_stderr": 0.10101525445522108
    },
    "Ceval-valid-computer_network": {
      "acc": 0.15789473684210525,
      "acc_stderr": 0.08594700851870798,
      "acc_norm": 0.15789473684210525,
      "acc_norm_stderr": 0.08594700851870798
    },
    "Ceval-valid-discrete_mathematics": {
      "acc": 0.375,
      "acc_stderr": 0.125,
      "acc_norm": 0.375,
      "acc_norm_stderr": 0.125
    },
    "Ceval-valid-education_science": {
      "acc": 0.1724137931034483,
      "acc_stderr": 0.07138609234576078,
      "acc_norm": 0.1724137931034483,
      "acc_norm_stderr": 0.07138609234576078
    },
    "Ceval-valid-electrical_engineer": {
      "acc": 0.16216216216216217,
      "acc_stderr": 0.06143325088732367,
      "acc_norm": 0.16216216216216217,
      "acc_norm_stderr": 0.06143325088732367
    },
    "Ceval-valid-environmental_impact_assessment_engineer": {
      "acc": 0.25806451612903225,
      "acc_stderr": 0.07988892740217943,
      "acc_norm": 0.25806451612903225,
      "acc_norm_stderr": 0.07988892740217943
    },
    "Ceval-valid-fire_engineer": {
      "acc": 0.1935483870967742,
      "acc_stderr": 0.07213122508063838,
      "acc_norm": 0.1935483870967742,
      "acc_norm_stderr": 0.07213122508063838
    },
    "Ceval-valid-high_school_biology": {
      "acc": 0.47368421052631576,
      "acc_stderr": 0.11768778828946262,
      "acc_norm": 0.47368421052631576,
      "acc_norm_stderr": 0.11768778828946262
    },
    "Ceval-valid-high_school_chemistry": {
      "acc": 0.3684210526315789,
      "acc_stderr": 0.1136972052352256,
      "acc_norm": 0.3684210526315789,
      "acc_norm_stderr": 0.1136972052352256
    },
    "Ceval-valid-high_school_chinese": {
      "acc": 0.3684210526315789,
      "acc_stderr": 0.11369720523522561,
      "acc_norm": 0.3684210526315789,
      "acc_norm_stderr": 0.11369720523522561
    },
    "Ceval-valid-high_school_geography": {
      "acc": 0.21052631578947367,
      "acc_stderr": 0.0960916767552923,
      "acc_norm": 0.21052631578947367,
      "acc_norm_stderr": 0.0960916767552923
    },
    "Ceval-valid-high_school_history": {
      "acc": 0.3,
      "acc_stderr": 0.10513149660756933,
      "acc_norm": 0.3,
      "acc_norm_stderr": 0.10513149660756933
    },
    "Ceval-valid-high_school_mathematics": {
      "acc": 0.2222222222222222,
      "acc_stderr": 0.10083169033033672,
      "acc_norm": 0.2222222222222222,
      "acc_norm_stderr": 0.10083169033033672
    },
    "Ceval-valid-high_school_physics": {
      "acc": 0.21052631578947367,
      "acc_stderr": 0.0960916767552923,
      "acc_norm": 0.21052631578947367,
      "acc_norm_stderr": 0.0960916767552923
    },
    "Ceval-valid-high_school_politics": {
      "acc": 0.3684210526315789,
      "acc_stderr": 0.1136972052352256,
      "acc_norm": 0.3684210526315789,
      "acc_norm_stderr": 0.1136972052352256
    },
    "Ceval-valid-ideological_and_moral_cultivation": {
      "acc": 0.2631578947368421,
      "acc_stderr": 0.10379087338771256,
      "acc_norm": 0.2631578947368421,
      "acc_norm_stderr": 0.10379087338771256
    },
    "Ceval-valid-law": {
      "acc": 0.125,
      "acc_stderr": 0.06895966054592131,
      "acc_norm": 0.125,
      "acc_norm_stderr": 0.06895966054592131
    },
    "Ceval-valid-legal_professional": {
      "acc": 0.043478260869565216,
      "acc_stderr": 0.04347826086956523,
      "acc_norm": 0.043478260869565216,
      "acc_norm_stderr": 0.04347826086956523
    },
    "Ceval-valid-logic": {
      "acc": 0.3181818181818182,
      "acc_stderr": 0.10163945352271772,
      "acc_norm": 0.3181818181818182,
      "acc_norm_stderr": 0.10163945352271772
    },
    "Ceval-valid-mao_zedong_thought": {
      "acc": 0.3333333333333333,
      "acc_stderr": 0.0982946374365981,
      "acc_norm": 0.3333333333333333,
      "acc_norm_stderr": 0.0982946374365981
    },
    "Ceval-valid-marxism": {
      "acc": 0.42105263157894735,
      "acc_stderr": 0.11637279966159299,
      "acc_norm": 0.42105263157894735,
      "acc_norm_stderr": 0.11637279966159299
    },
    "Ceval-valid-metrology_engineer": {
      "acc": 0.16666666666666666,
      "acc_stderr": 0.07770873402002615,
      "acc_norm": 0.16666666666666666,
      "acc_norm_stderr": 0.07770873402002615
    },
    "Ceval-valid-middle_school_biology": {
      "acc": 0.38095238095238093,
      "acc_stderr": 0.10858813572372741,
      "acc_norm": 0.38095238095238093,
      "acc_norm_stderr": 0.10858813572372741
    },
    "Ceval-valid-middle_school_chemistry": {
      "acc": 0.35,
      "acc_stderr": 0.1094243309804831,
      "acc_norm": 0.35,
      "acc_norm_stderr": 0.1094243309804831
    },
    "Ceval-valid-middle_school_geography": {
      "acc": 0.16666666666666666,
      "acc_stderr": 0.11236664374387367,
      "acc_norm": 0.16666666666666666,
      "acc_norm_stderr": 0.11236664374387367
    },
    "Ceval-valid-middle_school_history": {
      "acc": 0.2727272727272727,
      "acc_stderr": 0.09718590614997252,
      "acc_norm": 0.2727272727272727,
      "acc_norm_stderr": 0.09718590614997252
    },
    "Ceval-valid-middle_school_mathematics": {
      "acc": 0.15789473684210525,
      "acc_stderr": 0.08594700851870798,
      "acc_norm": 0.15789473684210525,
      "acc_norm_stderr": 0.08594700851870798
    },
    "Ceval-valid-middle_school_physics": {
      "acc": 0.3157894736842105,
      "acc_stderr": 0.10956136839295434,
      "acc_norm": 0.3157894736842105,
      "acc_norm_stderr": 0.10956136839295434
    },
    "Ceval-valid-middle_school_politics": {
      "acc": 0.2857142857142857,
      "acc_stderr": 0.10101525445522108,
      "acc_norm": 0.2857142857142857,
      "acc_norm_stderr": 0.10101525445522108
    },
    "Ceval-valid-modern_chinese_history": {
      "acc": 0.30434782608695654,
      "acc_stderr": 0.09810018692482896,
      "acc_norm": 0.30434782608695654,
      "acc_norm_stderr": 0.09810018692482896
    },
    "Ceval-valid-operating_system": {
      "acc": 0.2631578947368421,
      "acc_stderr": 0.10379087338771256,
      "acc_norm": 0.2631578947368421,
      "acc_norm_stderr": 0.10379087338771256
    },
    "Ceval-valid-physician": {
      "acc": 0.24489795918367346,
      "acc_stderr": 0.062069005411206336,
      "acc_norm": 0.24489795918367346,
      "acc_norm_stderr": 0.062069005411206336
    },
    "Ceval-valid-plant_protection": {
      "acc": 0.22727272727272727,
      "acc_stderr": 0.09144861547306321,
      "acc_norm": 0.22727272727272727,
      "acc_norm_stderr": 0.09144861547306321
    },
    "Ceval-valid-probability_and_statistics": {
      "acc": 0.2222222222222222,
      "acc_stderr": 0.10083169033033673,
      "acc_norm": 0.2222222222222222,
      "acc_norm_stderr": 0.10083169033033673
    },
    "Ceval-valid-professional_tour_guide": {
      "acc": 0.2413793103448276,
      "acc_stderr": 0.080869237238335,
      "acc_norm": 0.2413793103448276,
      "acc_norm_stderr": 0.080869237238335
    },
    "Ceval-valid-sports_science": {
      "acc": 0.10526315789473684,
      "acc_stderr": 0.0723351864143449,
      "acc_norm": 0.10526315789473684,
      "acc_norm_stderr": 0.0723351864143449
    },
    "Ceval-valid-tax_accountant": {
      "acc": 0.22448979591836735,
      "acc_stderr": 0.06022425581505364,
      "acc_norm": 0.22448979591836735,
      "acc_norm_stderr": 0.06022425581505364
    },
    "Ceval-valid-teacher_qualification": {
      "acc": 0.22727272727272727,
      "acc_stderr": 0.06390760676613885,
      "acc_norm": 0.22727272727272727,
      "acc_norm_stderr": 0.06390760676613885
    },
    "Ceval-valid-urban_and_rural_planner": {
      "acc": 0.17391304347826086,
      "acc_stderr": 0.05650315562208095,
      "acc_norm": 0.17391304347826086,
      "acc_norm_stderr": 0.05650315562208095
    },
    "Ceval-valid-veterinary_medicine": {
      "acc": 0.2608695652173913,
      "acc_stderr": 0.09361833424764436,
      "acc_norm": 0.2608695652173913,
      "acc_norm_stderr": 0.09361833424764436
    }
  },
  "versions": {
    "Ceval-valid-accountant": 1,
    "Ceval-valid-advanced_mathematics": 1,
    "Ceval-valid-art_studies": 1,
    "Ceval-valid-basic_medicine": 1,
    "Ceval-valid-business_administration": 1,
    "Ceval-valid-chinese_language_and_literature": 1,
    "Ceval-valid-civil_servant": 1,
    "Ceval-valid-clinical_medicine": 1,
    "Ceval-valid-college_chemistry": 1,
    "Ceval-valid-college_economics": 1,
    "Ceval-valid-college_physics": 1,
    "Ceval-valid-college_programming": 1,
    "Ceval-valid-computer_architecture": 1,
    "Ceval-valid-computer_network": 1,
    "Ceval-valid-discrete_mathematics": 1,
    "Ceval-valid-education_science": 1,
    "Ceval-valid-electrical_engineer": 1,
    "Ceval-valid-environmental_impact_assessment_engineer": 1,
    "Ceval-valid-fire_engineer": 1,
    "Ceval-valid-high_school_biology": 1,
    "Ceval-valid-high_school_chemistry": 1,
    "Ceval-valid-high_school_chinese": 1,
    "Ceval-valid-high_school_geography": 1,
    "Ceval-valid-high_school_history": 1,
    "Ceval-valid-high_school_mathematics": 1,
    "Ceval-valid-high_school_physics": 1,
    "Ceval-valid-high_school_politics": 1,
    "Ceval-valid-ideological_and_moral_cultivation": 1,
    "Ceval-valid-law": 1,
    "Ceval-valid-legal_professional": 1,
    "Ceval-valid-logic": 1,
    "Ceval-valid-mao_zedong_thought": 1,
    "Ceval-valid-marxism": 1,
    "Ceval-valid-metrology_engineer": 1,
    "Ceval-valid-middle_school_biology": 1,
    "Ceval-valid-middle_school_chemistry": 1,
    "Ceval-valid-middle_school_geography": 1,
    "Ceval-valid-middle_school_history": 1,
    "Ceval-valid-middle_school_mathematics": 1,
    "Ceval-valid-middle_school_physics": 1,
    "Ceval-valid-middle_school_politics": 1,
    "Ceval-valid-modern_chinese_history": 1,
    "Ceval-valid-operating_system": 1,
    "Ceval-valid-physician": 1,
    "Ceval-valid-plant_protection": 1,
    "Ceval-valid-probability_and_statistics": 1,
    "Ceval-valid-professional_tour_guide": 1,
    "Ceval-valid-sports_science": 1,
    "Ceval-valid-tax_accountant": 1,
    "Ceval-valid-teacher_qualification": 1,
    "Ceval-valid-urban_and_rural_planner": 1,
    "Ceval-valid-veterinary_medicine": 1
  },
  "config": {
    "model": "transnormer2",
    "model_args": "path=/cpfs01/user/shenxuyang/LLM/Models/transnormerLLM-410m/hf/410m-200000,max_length=2048,dtype=bfloat16",
    "num_fewshot": 5,
    "batch_size": "auto",
    "batch_sizes": [
      32
    ],
    "device": "cuda:1",
    "no_cache": false,
    "limit": null,
    "bootstrap_iters": 100000,
    "description_dict": {}
  }
}