{
  "results": {
    "hendrycksTest-abstract_algebra": {
      "acc": 0.24,
      "acc_stderr": 0.04292346959909281,
      "acc_norm": 0.24,
      "acc_norm_stderr": 0.04292346959909281
    },
    "hendrycksTest-anatomy": {
      "acc": 0.22962962962962963,
      "acc_stderr": 0.036333844140734636,
      "acc_norm": 0.22962962962962963,
      "acc_norm_stderr": 0.036333844140734636
    },
    "hendrycksTest-astronomy": {
      "acc": 0.2565789473684211,
      "acc_stderr": 0.0355418036802569,
      "acc_norm": 0.2565789473684211,
      "acc_norm_stderr": 0.0355418036802569
    },
    "hendrycksTest-business_ethics": {
      "acc": 0.24,
      "acc_stderr": 0.04292346959909283,
      "acc_norm": 0.24,
      "acc_norm_stderr": 0.04292346959909283
    },
    "hendrycksTest-clinical_knowledge": {
      "acc": 0.2981132075471698,
      "acc_stderr": 0.028152837942493854,
      "acc_norm": 0.2981132075471698,
      "acc_norm_stderr": 0.028152837942493854
    },
    "hendrycksTest-college_biology": {
      "acc": 0.2777777777777778,
      "acc_stderr": 0.037455547914624576,
      "acc_norm": 0.2777777777777778,
      "acc_norm_stderr": 0.037455547914624576
    },
    "hendrycksTest-college_chemistry": {
      "acc": 0.33,
      "acc_stderr": 0.04725815626252605,
      "acc_norm": 0.33,
      "acc_norm_stderr": 0.04725815626252605
    },
    "hendrycksTest-college_computer_science": {
      "acc": 0.27,
      "acc_stderr": 0.044619604333847394,
      "acc_norm": 0.27,
      "acc_norm_stderr": 0.044619604333847394
    },
    "hendrycksTest-college_mathematics": {
      "acc": 0.3,
      "acc_stderr": 0.046056618647183814,
      "acc_norm": 0.3,
      "acc_norm_stderr": 0.046056618647183814
    },
    "hendrycksTest-college_medicine": {
      "acc": 0.2832369942196532,
      "acc_stderr": 0.03435568056047874,
      "acc_norm": 0.2832369942196532,
      "acc_norm_stderr": 0.03435568056047874
    },
    "hendrycksTest-college_physics": {
      "acc": 0.22549019607843138,
      "acc_stderr": 0.04158307533083286,
      "acc_norm": 0.22549019607843138,
      "acc_norm_stderr": 0.04158307533083286
    },
    "hendrycksTest-computer_security": {
      "acc": 0.2,
      "acc_stderr": 0.04020151261036843,
      "acc_norm": 0.2,
      "acc_norm_stderr": 0.04020151261036843
    },
    "hendrycksTest-conceptual_physics": {
      "acc": 0.225531914893617,
      "acc_stderr": 0.027321078417387533,
      "acc_norm": 0.225531914893617,
      "acc_norm_stderr": 0.027321078417387533
    },
    "hendrycksTest-econometrics": {
      "acc": 0.2631578947368421,
      "acc_stderr": 0.041424397194893596,
      "acc_norm": 0.2631578947368421,
      "acc_norm_stderr": 0.041424397194893596
    },
    "hendrycksTest-electrical_engineering": {
      "acc": 0.23448275862068965,
      "acc_stderr": 0.035306258743465914,
      "acc_norm": 0.23448275862068965,
      "acc_norm_stderr": 0.035306258743465914
    },
    "hendrycksTest-elementary_mathematics": {
      "acc": 0.2671957671957672,
      "acc_stderr": 0.022789673145776564,
      "acc_norm": 0.2671957671957672,
      "acc_norm_stderr": 0.022789673145776564
    },
    "hendrycksTest-formal_logic": {
      "acc": 0.31746031746031744,
      "acc_stderr": 0.04163453031302859,
      "acc_norm": 0.31746031746031744,
      "acc_norm_stderr": 0.04163453031302859
    },
    "hendrycksTest-global_facts": {
      "acc": 0.32,
      "acc_stderr": 0.046882617226215034,
      "acc_norm": 0.32,
      "acc_norm_stderr": 0.046882617226215034
    },
    "hendrycksTest-high_school_biology": {
      "acc": 0.3032258064516129,
      "acc_stderr": 0.02614868593067175,
      "acc_norm": 0.3032258064516129,
      "acc_norm_stderr": 0.02614868593067175
    },
    "hendrycksTest-high_school_chemistry": {
      "acc": 0.27586206896551724,
      "acc_stderr": 0.03144712581678242,
      "acc_norm": 0.27586206896551724,
      "acc_norm_stderr": 0.03144712581678242
    },
    "hendrycksTest-high_school_computer_science": {
      "acc": 0.23,
      "acc_stderr": 0.04229525846816506,
      "acc_norm": 0.23,
      "acc_norm_stderr": 0.04229525846816506
    },
    "hendrycksTest-high_school_european_history": {
      "acc": 0.24848484848484848,
      "acc_stderr": 0.03374402644139404,
      "acc_norm": 0.24848484848484848,
      "acc_norm_stderr": 0.03374402644139404
    },
    "hendrycksTest-high_school_geography": {
      "acc": 0.25757575757575757,
      "acc_stderr": 0.031156269519646847,
      "acc_norm": 0.25757575757575757,
      "acc_norm_stderr": 0.031156269519646847
    },
    "hendrycksTest-high_school_government_and_politics": {
      "acc": 0.3471502590673575,
      "acc_stderr": 0.03435696168361355,
      "acc_norm": 0.3471502590673575,
      "acc_norm_stderr": 0.03435696168361355
    },
    "hendrycksTest-high_school_macroeconomics": {
      "acc": 0.3282051282051282,
      "acc_stderr": 0.023807633198657262,
      "acc_norm": 0.3282051282051282,
      "acc_norm_stderr": 0.023807633198657262
    },
    "hendrycksTest-high_school_mathematics": {
      "acc": 0.3074074074074074,
      "acc_stderr": 0.028133252578815635,
      "acc_norm": 0.3074074074074074,
      "acc_norm_stderr": 0.028133252578815635
    },
    "hendrycksTest-high_school_microeconomics": {
      "acc": 0.24369747899159663,
      "acc_stderr": 0.02788682807838057,
      "acc_norm": 0.24369747899159663,
      "acc_norm_stderr": 0.02788682807838057
    },
    "hendrycksTest-high_school_physics": {
      "acc": 0.26490066225165565,
      "acc_stderr": 0.03603038545360384,
      "acc_norm": 0.26490066225165565,
      "acc_norm_stderr": 0.03603038545360384
    },
    "hendrycksTest-high_school_psychology": {
      "acc": 0.3541284403669725,
      "acc_stderr": 0.02050472901382911,
      "acc_norm": 0.3541284403669725,
      "acc_norm_stderr": 0.02050472901382911
    },
    "hendrycksTest-high_school_statistics": {
      "acc": 0.27314814814814814,
      "acc_stderr": 0.030388051301678116,
      "acc_norm": 0.27314814814814814,
      "acc_norm_stderr": 0.030388051301678116
    },
    "hendrycksTest-high_school_us_history": {
      "acc": 0.24019607843137256,
      "acc_stderr": 0.02998373305591361,
      "acc_norm": 0.24019607843137256,
      "acc_norm_stderr": 0.02998373305591361
    },
    "hendrycksTest-high_school_world_history": {
      "acc": 0.27848101265822783,
      "acc_stderr": 0.029178682304842538,
      "acc_norm": 0.27848101265822783,
      "acc_norm_stderr": 0.029178682304842538
    },
    "hendrycksTest-human_aging": {
      "acc": 0.18385650224215247,
      "acc_stderr": 0.02599837909235651,
      "acc_norm": 0.18385650224215247,
      "acc_norm_stderr": 0.02599837909235651
    },
    "hendrycksTest-human_sexuality": {
      "acc": 0.24427480916030533,
      "acc_stderr": 0.037683359597287434,
      "acc_norm": 0.24427480916030533,
      "acc_norm_stderr": 0.037683359597287434
    },
    "hendrycksTest-international_law": {
      "acc": 0.2892561983471074,
      "acc_stderr": 0.041391127276354626,
      "acc_norm": 0.2892561983471074,
      "acc_norm_stderr": 0.041391127276354626
    },
    "hendrycksTest-jurisprudence": {
      "acc": 0.3055555555555556,
      "acc_stderr": 0.04453197507374984,
      "acc_norm": 0.3055555555555556,
      "acc_norm_stderr": 0.04453197507374984
    },
    "hendrycksTest-logical_fallacies": {
      "acc": 0.2822085889570552,
      "acc_stderr": 0.03536117886664743,
      "acc_norm": 0.2822085889570552,
      "acc_norm_stderr": 0.03536117886664743
    },
    "hendrycksTest-machine_learning": {
      "acc": 0.19642857142857142,
      "acc_stderr": 0.03770970049347019,
      "acc_norm": 0.19642857142857142,
      "acc_norm_stderr": 0.03770970049347019
    },
    "hendrycksTest-management": {
      "acc": 0.2815533980582524,
      "acc_stderr": 0.04453254836326469,
      "acc_norm": 0.2815533980582524,
      "acc_norm_stderr": 0.04453254836326469
    },
    "hendrycksTest-marketing": {
      "acc": 0.2777777777777778,
      "acc_stderr": 0.02934311479809446,
      "acc_norm": 0.2777777777777778,
      "acc_norm_stderr": 0.02934311479809446
    },
    "hendrycksTest-medical_genetics": {
      "acc": 0.32,
      "acc_stderr": 0.046882617226215034,
      "acc_norm": 0.32,
      "acc_norm_stderr": 0.046882617226215034
    },
    "hendrycksTest-miscellaneous": {
      "acc": 0.21711366538952745,
      "acc_stderr": 0.014743125394823284,
      "acc_norm": 0.21711366538952745,
      "acc_norm_stderr": 0.014743125394823284
    },
    "hendrycksTest-moral_disputes": {
      "acc": 0.2398843930635838,
      "acc_stderr": 0.022989592543123567,
      "acc_norm": 0.2398843930635838,
      "acc_norm_stderr": 0.022989592543123567
    },
    "hendrycksTest-moral_scenarios": {
      "acc": 0.2424581005586592,
      "acc_stderr": 0.014333522059217889,
      "acc_norm": 0.2424581005586592,
      "acc_norm_stderr": 0.014333522059217889
    },
    "hendrycksTest-nutrition": {
      "acc": 0.29411764705882354,
      "acc_stderr": 0.02609016250427905,
      "acc_norm": 0.29411764705882354,
      "acc_norm_stderr": 0.02609016250427905
    },
    "hendrycksTest-philosophy": {
      "acc": 0.2604501607717042,
      "acc_stderr": 0.02492672322484555,
      "acc_norm": 0.2604501607717042,
      "acc_norm_stderr": 0.02492672322484555
    },
    "hendrycksTest-prehistory": {
      "acc": 0.24691358024691357,
      "acc_stderr": 0.02399350170904212,
      "acc_norm": 0.24691358024691357,
      "acc_norm_stderr": 0.02399350170904212
    },
    "hendrycksTest-professional_accounting": {
      "acc": 0.23404255319148937,
      "acc_stderr": 0.025257861359432403,
      "acc_norm": 0.23404255319148937,
      "acc_norm_stderr": 0.025257861359432403
    },
    "hendrycksTest-professional_law": {
      "acc": 0.2457627118644068,
      "acc_stderr": 0.01099615663514269,
      "acc_norm": 0.2457627118644068,
      "acc_norm_stderr": 0.01099615663514269
    },
    "hendrycksTest-professional_medicine": {
      "acc": 0.35661764705882354,
      "acc_stderr": 0.029097209568411955,
      "acc_norm": 0.35661764705882354,
      "acc_norm_stderr": 0.029097209568411955
    },
    "hendrycksTest-professional_psychology": {
      "acc": 0.238562091503268,
      "acc_stderr": 0.017242385828779593,
      "acc_norm": 0.238562091503268,
      "acc_norm_stderr": 0.017242385828779593
    },
    "hendrycksTest-public_relations": {
      "acc": 0.3181818181818182,
      "acc_stderr": 0.04461272175910508,
      "acc_norm": 0.3181818181818182,
      "acc_norm_stderr": 0.04461272175910508
    },
    "hendrycksTest-security_studies": {
      "acc": 0.24897959183673468,
      "acc_stderr": 0.02768297952296022,
      "acc_norm": 0.24897959183673468,
      "acc_norm_stderr": 0.02768297952296022
    },
    "hendrycksTest-sociology": {
      "acc": 0.21393034825870647,
      "acc_stderr": 0.02899690969332891,
      "acc_norm": 0.21393034825870647,
      "acc_norm_stderr": 0.02899690969332891
    },
    "hendrycksTest-us_foreign_policy": {
      "acc": 0.21,
      "acc_stderr": 0.040936018074033256,
      "acc_norm": 0.21,
      "acc_norm_stderr": 0.040936018074033256
    },
    "hendrycksTest-virology": {
      "acc": 0.21084337349397592,
      "acc_stderr": 0.0317555478662992,
      "acc_norm": 0.21084337349397592,
      "acc_norm_stderr": 0.0317555478662992
    },
    "hendrycksTest-world_religions": {
      "acc": 0.2222222222222222,
      "acc_stderr": 0.03188578017686398,
      "acc_norm": 0.2222222222222222,
      "acc_norm_stderr": 0.03188578017686398
    }
  },
  "versions": {
    "hendrycksTest-abstract_algebra": 1,
    "hendrycksTest-anatomy": 1,
    "hendrycksTest-astronomy": 1,
    "hendrycksTest-business_ethics": 1,
    "hendrycksTest-clinical_knowledge": 1,
    "hendrycksTest-college_biology": 1,
    "hendrycksTest-college_chemistry": 1,
    "hendrycksTest-college_computer_science": 1,
    "hendrycksTest-college_mathematics": 1,
    "hendrycksTest-college_medicine": 1,
    "hendrycksTest-college_physics": 1,
    "hendrycksTest-computer_security": 1,
    "hendrycksTest-conceptual_physics": 1,
    "hendrycksTest-econometrics": 1,
    "hendrycksTest-electrical_engineering": 1,
    "hendrycksTest-elementary_mathematics": 1,
    "hendrycksTest-formal_logic": 1,
    "hendrycksTest-global_facts": 1,
    "hendrycksTest-high_school_biology": 1,
    "hendrycksTest-high_school_chemistry": 1,
    "hendrycksTest-high_school_computer_science": 1,
    "hendrycksTest-high_school_european_history": 1,
    "hendrycksTest-high_school_geography": 1,
    "hendrycksTest-high_school_government_and_politics": 1,
    "hendrycksTest-high_school_macroeconomics": 1,
    "hendrycksTest-high_school_mathematics": 1,
    "hendrycksTest-high_school_microeconomics": 1,
    "hendrycksTest-high_school_physics": 1,
    "hendrycksTest-high_school_psychology": 1,
    "hendrycksTest-high_school_statistics": 1,
    "hendrycksTest-high_school_us_history": 1,
    "hendrycksTest-high_school_world_history": 1,
    "hendrycksTest-human_aging": 1,
    "hendrycksTest-human_sexuality": 1,
    "hendrycksTest-international_law": 1,
    "hendrycksTest-jurisprudence": 1,
    "hendrycksTest-logical_fallacies": 1,
    "hendrycksTest-machine_learning": 1,
    "hendrycksTest-management": 1,
    "hendrycksTest-marketing": 1,
    "hendrycksTest-medical_genetics": 1,
    "hendrycksTest-miscellaneous": 1,
    "hendrycksTest-moral_disputes": 1,
    "hendrycksTest-moral_scenarios": 1,
    "hendrycksTest-nutrition": 1,
    "hendrycksTest-philosophy": 1,
    "hendrycksTest-prehistory": 1,
    "hendrycksTest-professional_accounting": 1,
    "hendrycksTest-professional_law": 1,
    "hendrycksTest-professional_medicine": 1,
    "hendrycksTest-professional_psychology": 1,
    "hendrycksTest-public_relations": 1,
    "hendrycksTest-security_studies": 1,
    "hendrycksTest-sociology": 1,
    "hendrycksTest-us_foreign_policy": 1,
    "hendrycksTest-virology": 1,
    "hendrycksTest-world_religions": 1
  },
  "config": {
    "model": "transnormer",
    "model_args": "path=/cpfs01/user/shenxuyang/LLM/Models/transnormerLLM-hf/7B-35000,max_length=256,dtype=bfloat16",
    "num_fewshot": 5,
    "batch_size": "32",
    "batch_sizes": [],
    "device": "cuda:0",
    "no_cache": false,
    "limit": null,
    "bootstrap_iters": 100000,
    "description_dict": {}
  }
}