{
  "results": {
    "hendrycksTest-abstract_algebra": {
      "acc": 0.21,
      "acc_stderr": 0.040936018074033256,
      "acc_norm": 0.21,
      "acc_norm_stderr": 0.040936018074033256
    },
    "hendrycksTest-anatomy": {
      "acc": 0.2962962962962963,
      "acc_stderr": 0.03944624162501117,
      "acc_norm": 0.2962962962962963,
      "acc_norm_stderr": 0.03944624162501117
    },
    "hendrycksTest-astronomy": {
      "acc": 0.17763157894736842,
      "acc_stderr": 0.031103182383123398,
      "acc_norm": 0.17763157894736842,
      "acc_norm_stderr": 0.031103182383123398
    },
    "hendrycksTest-business_ethics": {
      "acc": 0.3,
      "acc_stderr": 0.046056618647183814,
      "acc_norm": 0.3,
      "acc_norm_stderr": 0.046056618647183814
    },
    "hendrycksTest-clinical_knowledge": {
      "acc": 0.19622641509433963,
      "acc_stderr": 0.024442388131100837,
      "acc_norm": 0.19622641509433963,
      "acc_norm_stderr": 0.024442388131100837
    },
    "hendrycksTest-college_biology": {
      "acc": 0.2777777777777778,
      "acc_stderr": 0.03745554791462457,
      "acc_norm": 0.2777777777777778,
      "acc_norm_stderr": 0.03745554791462457
    },
    "hendrycksTest-college_chemistry": {
      "acc": 0.24,
      "acc_stderr": 0.042923469599092816,
      "acc_norm": 0.24,
      "acc_norm_stderr": 0.042923469599092816
    },
    "hendrycksTest-college_computer_science": {
      "acc": 0.22,
      "acc_stderr": 0.04163331998932269,
      "acc_norm": 0.22,
      "acc_norm_stderr": 0.04163331998932269
    },
    "hendrycksTest-college_mathematics": {
      "acc": 0.24,
      "acc_stderr": 0.04292346959909284,
      "acc_norm": 0.24,
      "acc_norm_stderr": 0.04292346959909284
    },
    "hendrycksTest-college_medicine": {
      "acc": 0.23699421965317918,
      "acc_stderr": 0.03242414757483098,
      "acc_norm": 0.23699421965317918,
      "acc_norm_stderr": 0.03242414757483098
    },
    "hendrycksTest-college_physics": {
      "acc": 0.20588235294117646,
      "acc_stderr": 0.04023382273617746,
      "acc_norm": 0.20588235294117646,
      "acc_norm_stderr": 0.04023382273617746
    },
    "hendrycksTest-computer_security": {
      "acc": 0.22,
      "acc_stderr": 0.04163331998932269,
      "acc_norm": 0.22,
      "acc_norm_stderr": 0.04163331998932269
    },
    "hendrycksTest-conceptual_physics": {
      "acc": 0.30638297872340425,
      "acc_stderr": 0.030135906478517563,
      "acc_norm": 0.30638297872340425,
      "acc_norm_stderr": 0.030135906478517563
    },
    "hendrycksTest-econometrics": {
      "acc": 0.2631578947368421,
      "acc_stderr": 0.041424397194893596,
      "acc_norm": 0.2631578947368421,
      "acc_norm_stderr": 0.041424397194893596
    },
    "hendrycksTest-electrical_engineering": {
      "acc": 0.296551724137931,
      "acc_stderr": 0.03806142687309993,
      "acc_norm": 0.296551724137931,
      "acc_norm_stderr": 0.03806142687309993
    },
    "hendrycksTest-elementary_mathematics": {
      "acc": 0.2698412698412698,
      "acc_stderr": 0.022860838309232072,
      "acc_norm": 0.2698412698412698,
      "acc_norm_stderr": 0.022860838309232072
    },
    "hendrycksTest-formal_logic": {
      "acc": 0.15079365079365079,
      "acc_stderr": 0.03200686497287394,
      "acc_norm": 0.15079365079365079,
      "acc_norm_stderr": 0.03200686497287394
    },
    "hendrycksTest-global_facts": {
      "acc": 0.18,
      "acc_stderr": 0.038612291966536934,
      "acc_norm": 0.18,
      "acc_norm_stderr": 0.038612291966536934
    },
    "hendrycksTest-high_school_biology": {
      "acc": 0.16451612903225807,
      "acc_stderr": 0.02109084774593932,
      "acc_norm": 0.16451612903225807,
      "acc_norm_stderr": 0.02109084774593932
    },
    "hendrycksTest-high_school_chemistry": {
      "acc": 0.21674876847290642,
      "acc_stderr": 0.028990331252516235,
      "acc_norm": 0.21674876847290642,
      "acc_norm_stderr": 0.028990331252516235
    },
    "hendrycksTest-high_school_computer_science": {
      "acc": 0.28,
      "acc_stderr": 0.04512608598542126,
      "acc_norm": 0.28,
      "acc_norm_stderr": 0.04512608598542126
    },
    "hendrycksTest-high_school_european_history": {
      "acc": 0.23636363636363636,
      "acc_stderr": 0.03317505930009179,
      "acc_norm": 0.23636363636363636,
      "acc_norm_stderr": 0.03317505930009179
    },
    "hendrycksTest-high_school_geography": {
      "acc": 0.1717171717171717,
      "acc_stderr": 0.026869716187429917,
      "acc_norm": 0.1717171717171717,
      "acc_norm_stderr": 0.026869716187429917
    },
    "hendrycksTest-high_school_government_and_politics": {
      "acc": 0.22797927461139897,
      "acc_stderr": 0.030276909945178263,
      "acc_norm": 0.22797927461139897,
      "acc_norm_stderr": 0.030276909945178263
    },
    "hendrycksTest-high_school_macroeconomics": {
      "acc": 0.30512820512820515,
      "acc_stderr": 0.023346335293325884,
      "acc_norm": 0.30512820512820515,
      "acc_norm_stderr": 0.023346335293325884
    },
    "hendrycksTest-high_school_mathematics": {
      "acc": 0.25555555555555554,
      "acc_stderr": 0.02659393910184407,
      "acc_norm": 0.25555555555555554,
      "acc_norm_stderr": 0.02659393910184407
    },
    "hendrycksTest-high_school_microeconomics": {
      "acc": 0.19327731092436976,
      "acc_stderr": 0.02564947026588919,
      "acc_norm": 0.19327731092436976,
      "acc_norm_stderr": 0.02564947026588919
    },
    "hendrycksTest-high_school_physics": {
      "acc": 0.23841059602649006,
      "acc_stderr": 0.034791855725996586,
      "acc_norm": 0.23841059602649006,
      "acc_norm_stderr": 0.034791855725996586
    },
    "hendrycksTest-high_school_psychology": {
      "acc": 0.1926605504587156,
      "acc_stderr": 0.01690927688493609,
      "acc_norm": 0.1926605504587156,
      "acc_norm_stderr": 0.01690927688493609
    },
    "hendrycksTest-high_school_statistics": {
      "acc": 0.18981481481481483,
      "acc_stderr": 0.026744714834691936,
      "acc_norm": 0.18981481481481483,
      "acc_norm_stderr": 0.026744714834691936
    },
    "hendrycksTest-high_school_us_history": {
      "acc": 0.28921568627450983,
      "acc_stderr": 0.031822318676475544,
      "acc_norm": 0.28921568627450983,
      "acc_norm_stderr": 0.031822318676475544
    },
    "hendrycksTest-high_school_world_history": {
      "acc": 0.2616033755274262,
      "acc_stderr": 0.028609516716994934,
      "acc_norm": 0.2616033755274262,
      "acc_norm_stderr": 0.028609516716994934
    },
    "hendrycksTest-human_aging": {
      "acc": 0.28699551569506726,
      "acc_stderr": 0.03036037971029195,
      "acc_norm": 0.28699551569506726,
      "acc_norm_stderr": 0.03036037971029195
    },
    "hendrycksTest-human_sexuality": {
      "acc": 0.25190839694656486,
      "acc_stderr": 0.03807387116306086,
      "acc_norm": 0.25190839694656486,
      "acc_norm_stderr": 0.03807387116306086
    },
    "hendrycksTest-international_law": {
      "acc": 0.2396694214876033,
      "acc_stderr": 0.03896878985070417,
      "acc_norm": 0.2396694214876033,
      "acc_norm_stderr": 0.03896878985070417
    },
    "hendrycksTest-jurisprudence": {
      "acc": 0.24074074074074073,
      "acc_stderr": 0.0413311944024384,
      "acc_norm": 0.24074074074074073,
      "acc_norm_stderr": 0.0413311944024384
    },
    "hendrycksTest-logical_fallacies": {
      "acc": 0.2331288343558282,
      "acc_stderr": 0.033220157957767414,
      "acc_norm": 0.2331288343558282,
      "acc_norm_stderr": 0.033220157957767414
    },
    "hendrycksTest-machine_learning": {
      "acc": 0.36607142857142855,
      "acc_stderr": 0.04572372358737431,
      "acc_norm": 0.36607142857142855,
      "acc_norm_stderr": 0.04572372358737431
    },
    "hendrycksTest-management": {
      "acc": 0.1941747572815534,
      "acc_stderr": 0.03916667762822584,
      "acc_norm": 0.1941747572815534,
      "acc_norm_stderr": 0.03916667762822584
    },
    "hendrycksTest-marketing": {
      "acc": 0.28205128205128205,
      "acc_stderr": 0.029480360549541194,
      "acc_norm": 0.28205128205128205,
      "acc_norm_stderr": 0.029480360549541194
    },
    "hendrycksTest-medical_genetics": {
      "acc": 0.31,
      "acc_stderr": 0.04648231987117316,
      "acc_norm": 0.31,
      "acc_norm_stderr": 0.04648231987117316
    },
    "hendrycksTest-miscellaneous": {
      "acc": 0.21966794380587484,
      "acc_stderr": 0.014805384478371163,
      "acc_norm": 0.21966794380587484,
      "acc_norm_stderr": 0.014805384478371163
    },
    "hendrycksTest-moral_disputes": {
      "acc": 0.2630057803468208,
      "acc_stderr": 0.023703099525258172,
      "acc_norm": 0.2630057803468208,
      "acc_norm_stderr": 0.023703099525258172
    },
    "hendrycksTest-moral_scenarios": {
      "acc": 0.23128491620111732,
      "acc_stderr": 0.014102223623152567,
      "acc_norm": 0.23128491620111732,
      "acc_norm_stderr": 0.014102223623152567
    },
    "hendrycksTest-nutrition": {
      "acc": 0.22875816993464052,
      "acc_stderr": 0.024051029739912248,
      "acc_norm": 0.22875816993464052,
      "acc_norm_stderr": 0.024051029739912248
    },
    "hendrycksTest-philosophy": {
      "acc": 0.19292604501607716,
      "acc_stderr": 0.022411516780911363,
      "acc_norm": 0.19292604501607716,
      "acc_norm_stderr": 0.022411516780911363
    },
    "hendrycksTest-prehistory": {
      "acc": 0.22530864197530864,
      "acc_stderr": 0.02324620264781975,
      "acc_norm": 0.22530864197530864,
      "acc_norm_stderr": 0.02324620264781975
    },
    "hendrycksTest-professional_accounting": {
      "acc": 0.23404255319148937,
      "acc_stderr": 0.025257861359432407,
      "acc_norm": 0.23404255319148937,
      "acc_norm_stderr": 0.025257861359432407
    },
    "hendrycksTest-professional_law": {
      "acc": 0.24641460234680573,
      "acc_stderr": 0.011005971399927232,
      "acc_norm": 0.24641460234680573,
      "acc_norm_stderr": 0.011005971399927232
    },
    "hendrycksTest-professional_medicine": {
      "acc": 0.3602941176470588,
      "acc_stderr": 0.029163128570670736,
      "acc_norm": 0.3602941176470588,
      "acc_norm_stderr": 0.029163128570670736
    },
    "hendrycksTest-professional_psychology": {
      "acc": 0.25326797385620914,
      "acc_stderr": 0.01759348689536683,
      "acc_norm": 0.25326797385620914,
      "acc_norm_stderr": 0.01759348689536683
    },
    "hendrycksTest-public_relations": {
      "acc": 0.24545454545454545,
      "acc_stderr": 0.04122066502878285,
      "acc_norm": 0.24545454545454545,
      "acc_norm_stderr": 0.04122066502878285
    },
    "hendrycksTest-security_studies": {
      "acc": 0.20816326530612245,
      "acc_stderr": 0.025991117672813296,
      "acc_norm": 0.20816326530612245,
      "acc_norm_stderr": 0.025991117672813296
    },
    "hendrycksTest-sociology": {
      "acc": 0.208955223880597,
      "acc_stderr": 0.028748298931728655,
      "acc_norm": 0.208955223880597,
      "acc_norm_stderr": 0.028748298931728655
    },
    "hendrycksTest-us_foreign_policy": {
      "acc": 0.26,
      "acc_stderr": 0.044084400227680794,
      "acc_norm": 0.26,
      "acc_norm_stderr": 0.044084400227680794
    },
    "hendrycksTest-virology": {
      "acc": 0.29518072289156627,
      "acc_stderr": 0.035509201856896294,
      "acc_norm": 0.29518072289156627,
      "acc_norm_stderr": 0.035509201856896294
    },
    "hendrycksTest-world_religions": {
      "acc": 0.30994152046783624,
      "acc_stderr": 0.035469769593931624,
      "acc_norm": 0.30994152046783624,
      "acc_norm_stderr": 0.035469769593931624
    }
  },
  "versions": {
    "hendrycksTest-abstract_algebra": 1,
    "hendrycksTest-anatomy": 1,
    "hendrycksTest-astronomy": 1,
    "hendrycksTest-business_ethics": 1,
    "hendrycksTest-clinical_knowledge": 1,
    "hendrycksTest-college_biology": 1,
    "hendrycksTest-college_chemistry": 1,
    "hendrycksTest-college_computer_science": 1,
    "hendrycksTest-college_mathematics": 1,
    "hendrycksTest-college_medicine": 1,
    "hendrycksTest-college_physics": 1,
    "hendrycksTest-computer_security": 1,
    "hendrycksTest-conceptual_physics": 1,
    "hendrycksTest-econometrics": 1,
    "hendrycksTest-electrical_engineering": 1,
    "hendrycksTest-elementary_mathematics": 1,
    "hendrycksTest-formal_logic": 1,
    "hendrycksTest-global_facts": 1,
    "hendrycksTest-high_school_biology": 1,
    "hendrycksTest-high_school_chemistry": 1,
    "hendrycksTest-high_school_computer_science": 1,
    "hendrycksTest-high_school_european_history": 1,
    "hendrycksTest-high_school_geography": 1,
    "hendrycksTest-high_school_government_and_politics": 1,
    "hendrycksTest-high_school_macroeconomics": 1,
    "hendrycksTest-high_school_mathematics": 1,
    "hendrycksTest-high_school_microeconomics": 1,
    "hendrycksTest-high_school_physics": 1,
    "hendrycksTest-high_school_psychology": 1,
    "hendrycksTest-high_school_statistics": 1,
    "hendrycksTest-high_school_us_history": 1,
    "hendrycksTest-high_school_world_history": 1,
    "hendrycksTest-human_aging": 1,
    "hendrycksTest-human_sexuality": 1,
    "hendrycksTest-international_law": 1,
    "hendrycksTest-jurisprudence": 1,
    "hendrycksTest-logical_fallacies": 1,
    "hendrycksTest-machine_learning": 1,
    "hendrycksTest-management": 1,
    "hendrycksTest-marketing": 1,
    "hendrycksTest-medical_genetics": 1,
    "hendrycksTest-miscellaneous": 1,
    "hendrycksTest-moral_disputes": 1,
    "hendrycksTest-moral_scenarios": 1,
    "hendrycksTest-nutrition": 1,
    "hendrycksTest-philosophy": 1,
    "hendrycksTest-prehistory": 1,
    "hendrycksTest-professional_accounting": 1,
    "hendrycksTest-professional_law": 1,
    "hendrycksTest-professional_medicine": 1,
    "hendrycksTest-professional_psychology": 1,
    "hendrycksTest-public_relations": 1,
    "hendrycksTest-security_studies": 1,
    "hendrycksTest-sociology": 1,
    "hendrycksTest-us_foreign_policy": 1,
    "hendrycksTest-virology": 1,
    "hendrycksTest-world_religions": 1
  },
  "config": {
    "model": "transnormer2",
    "model_args": "path=/cpfs01/user/shenxuyang/LLM/Models/transnormerLLM-hf/7B-45000,max_gen_token=128,repetition_penalty=1.1,dtype=bfloat16",
    "num_fewshot": 5,
    "batch_size": "1",
    "batch_sizes": [],
    "device": "cuda:0",
    "no_cache": false,
    "limit": null,
    "bootstrap_iters": 100000,
    "description_dict": {}
  }
}