{
  "results": {
    "Ceval-valid-accountant": {
      "acc": 0.16326530612244897,
      "acc_stderr": 0.05334825558285076,
      "acc_norm": 0.16326530612244897,
      "acc_norm_stderr": 0.05334825558285076
    },
    "Ceval-valid-advanced_mathematics": {
      "acc": 0.47368421052631576,
      "acc_stderr": 0.1176877882894626,
      "acc_norm": 0.47368421052631576,
      "acc_norm_stderr": 0.1176877882894626
    },
    "Ceval-valid-art_studies": {
      "acc": 0.45454545454545453,
      "acc_stderr": 0.08802234877744129,
      "acc_norm": 0.45454545454545453,
      "acc_norm_stderr": 0.08802234877744129
    },
    "Ceval-valid-basic_medicine": {
      "acc": 0.10526315789473684,
      "acc_stderr": 0.0723351864143449,
      "acc_norm": 0.10526315789473684,
      "acc_norm_stderr": 0.0723351864143449
    },
    "Ceval-valid-business_administration": {
      "acc": 0.3333333333333333,
      "acc_stderr": 0.08333333333333333,
      "acc_norm": 0.3333333333333333,
      "acc_norm_stderr": 0.08333333333333333
    },
    "Ceval-valid-chinese_language_and_literature": {
      "acc": 0.13043478260869565,
      "acc_stderr": 0.07180198468215396,
      "acc_norm": 0.13043478260869565,
      "acc_norm_stderr": 0.07180198468215396
    },
    "Ceval-valid-civil_servant": {
      "acc": 0.1276595744680851,
      "acc_stderr": 0.04920290896196929,
      "acc_norm": 0.1276595744680851,
      "acc_norm_stderr": 0.04920290896196929
    },
    "Ceval-valid-clinical_medicine": {
      "acc": 0.36363636363636365,
      "acc_stderr": 0.10497277621629558,
      "acc_norm": 0.36363636363636365,
      "acc_norm_stderr": 0.10497277621629558
    },
    "Ceval-valid-college_chemistry": {
      "acc": 0.2916666666666667,
      "acc_stderr": 0.09477598811252413,
      "acc_norm": 0.2916666666666667,
      "acc_norm_stderr": 0.09477598811252413
    },
    "Ceval-valid-college_economics": {
      "acc": 0.3090909090909091,
      "acc_stderr": 0.06288639360110458,
      "acc_norm": 0.3090909090909091,
      "acc_norm_stderr": 0.06288639360110458
    },
    "Ceval-valid-college_physics": {
      "acc": 0.42105263157894735,
      "acc_stderr": 0.11637279966159299,
      "acc_norm": 0.42105263157894735,
      "acc_norm_stderr": 0.11637279966159299
    },
    "Ceval-valid-college_programming": {
      "acc": 0.2972972972972973,
      "acc_stderr": 0.07617808344724215,
      "acc_norm": 0.2972972972972973,
      "acc_norm_stderr": 0.07617808344724215
    },
    "Ceval-valid-computer_architecture": {
      "acc": 0.19047619047619047,
      "acc_stderr": 0.08780518530755133,
      "acc_norm": 0.19047619047619047,
      "acc_norm_stderr": 0.08780518530755133
    },
    "Ceval-valid-computer_network": {
      "acc": 0.42105263157894735,
      "acc_stderr": 0.11637279966159299,
      "acc_norm": 0.42105263157894735,
      "acc_norm_stderr": 0.11637279966159299
    },
    "Ceval-valid-discrete_mathematics": {
      "acc": 0.1875,
      "acc_stderr": 0.10077822185373188,
      "acc_norm": 0.1875,
      "acc_norm_stderr": 0.10077822185373188
    },
    "Ceval-valid-education_science": {
      "acc": 0.20689655172413793,
      "acc_stderr": 0.07655305550699534,
      "acc_norm": 0.20689655172413793,
      "acc_norm_stderr": 0.07655305550699534
    },
    "Ceval-valid-electrical_engineer": {
      "acc": 0.21621621621621623,
      "acc_stderr": 0.0686105685212965,
      "acc_norm": 0.21621621621621623,
      "acc_norm_stderr": 0.0686105685212965
    },
    "Ceval-valid-environmental_impact_assessment_engineer": {
      "acc": 0.1935483870967742,
      "acc_stderr": 0.07213122508063838,
      "acc_norm": 0.1935483870967742,
      "acc_norm_stderr": 0.07213122508063838
    },
    "Ceval-valid-fire_engineer": {
      "acc": 0.1935483870967742,
      "acc_stderr": 0.07213122508063838,
      "acc_norm": 0.1935483870967742,
      "acc_norm_stderr": 0.07213122508063838
    },
    "Ceval-valid-high_school_biology": {
      "acc": 0.2631578947368421,
      "acc_stderr": 0.10379087338771256,
      "acc_norm": 0.2631578947368421,
      "acc_norm_stderr": 0.10379087338771256
    },
    "Ceval-valid-high_school_chemistry": {
      "acc": 0.3684210526315789,
      "acc_stderr": 0.11369720523522557,
      "acc_norm": 0.3684210526315789,
      "acc_norm_stderr": 0.11369720523522557
    },
    "Ceval-valid-high_school_chinese": {
      "acc": 0.15789473684210525,
      "acc_stderr": 0.08594700851870798,
      "acc_norm": 0.15789473684210525,
      "acc_norm_stderr": 0.08594700851870798
    },
    "Ceval-valid-high_school_geography": {
      "acc": 0.3684210526315789,
      "acc_stderr": 0.11369720523522561,
      "acc_norm": 0.3684210526315789,
      "acc_norm_stderr": 0.11369720523522561
    },
    "Ceval-valid-high_school_history": {
      "acc": 0.4,
      "acc_stderr": 0.11239029738980327,
      "acc_norm": 0.4,
      "acc_norm_stderr": 0.11239029738980327
    },
    "Ceval-valid-high_school_mathematics": {
      "acc": 0.3333333333333333,
      "acc_stderr": 0.11433239009500591,
      "acc_norm": 0.3333333333333333,
      "acc_norm_stderr": 0.11433239009500591
    },
    "Ceval-valid-high_school_physics": {
      "acc": 0.2631578947368421,
      "acc_stderr": 0.10379087338771256,
      "acc_norm": 0.2631578947368421,
      "acc_norm_stderr": 0.10379087338771256
    },
    "Ceval-valid-high_school_politics": {
      "acc": 0.42105263157894735,
      "acc_stderr": 0.11637279966159299,
      "acc_norm": 0.42105263157894735,
      "acc_norm_stderr": 0.11637279966159299
    },
    "Ceval-valid-ideological_and_moral_cultivation": {
      "acc": 0.3157894736842105,
      "acc_stderr": 0.10956136839295434,
      "acc_norm": 0.3157894736842105,
      "acc_norm_stderr": 0.10956136839295434
    },
    "Ceval-valid-law": {
      "acc": 0.3333333333333333,
      "acc_stderr": 0.0982946374365981,
      "acc_norm": 0.3333333333333333,
      "acc_norm_stderr": 0.0982946374365981
    },
    "Ceval-valid-legal_professional": {
      "acc": 0.21739130434782608,
      "acc_stderr": 0.08793911249520547,
      "acc_norm": 0.21739130434782608,
      "acc_norm_stderr": 0.08793911249520547
    },
    "Ceval-valid-logic": {
      "acc": 0.22727272727272727,
      "acc_stderr": 0.09144861547306322,
      "acc_norm": 0.22727272727272727,
      "acc_norm_stderr": 0.09144861547306322
    },
    "Ceval-valid-mao_zedong_thought": {
      "acc": 0.125,
      "acc_stderr": 0.06895966054592131,
      "acc_norm": 0.125,
      "acc_norm_stderr": 0.06895966054592131
    },
    "Ceval-valid-marxism": {
      "acc": 0.15789473684210525,
      "acc_stderr": 0.08594700851870798,
      "acc_norm": 0.15789473684210525,
      "acc_norm_stderr": 0.08594700851870798
    },
    "Ceval-valid-metrology_engineer": {
      "acc": 0.20833333333333334,
      "acc_stderr": 0.08468112965594378,
      "acc_norm": 0.20833333333333334,
      "acc_norm_stderr": 0.08468112965594378
    },
    "Ceval-valid-middle_school_biology": {
      "acc": 0.23809523809523808,
      "acc_stderr": 0.09523809523809523,
      "acc_norm": 0.23809523809523808,
      "acc_norm_stderr": 0.09523809523809523
    },
    "Ceval-valid-middle_school_chemistry": {
      "acc": 0.25,
      "acc_stderr": 0.09933992677987828,
      "acc_norm": 0.25,
      "acc_norm_stderr": 0.09933992677987828
    },
    "Ceval-valid-middle_school_geography": {
      "acc": 0.16666666666666666,
      "acc_stderr": 0.1123666437438737,
      "acc_norm": 0.16666666666666666,
      "acc_norm_stderr": 0.1123666437438737
    },
    "Ceval-valid-middle_school_history": {
      "acc": 0.18181818181818182,
      "acc_stderr": 0.08416546361568647,
      "acc_norm": 0.18181818181818182,
      "acc_norm_stderr": 0.08416546361568647
    },
    "Ceval-valid-middle_school_mathematics": {
      "acc": 0.2631578947368421,
      "acc_stderr": 0.10379087338771256,
      "acc_norm": 0.2631578947368421,
      "acc_norm_stderr": 0.10379087338771256
    },
    "Ceval-valid-middle_school_physics": {
      "acc": 0.2631578947368421,
      "acc_stderr": 0.10379087338771256,
      "acc_norm": 0.2631578947368421,
      "acc_norm_stderr": 0.10379087338771256
    },
    "Ceval-valid-middle_school_politics": {
      "acc": 0.38095238095238093,
      "acc_stderr": 0.10858813572372741,
      "acc_norm": 0.38095238095238093,
      "acc_norm_stderr": 0.10858813572372741
    },
    "Ceval-valid-modern_chinese_history": {
      "acc": 0.21739130434782608,
      "acc_stderr": 0.08793911249520547,
      "acc_norm": 0.21739130434782608,
      "acc_norm_stderr": 0.08793911249520547
    },
    "Ceval-valid-operating_system": {
      "acc": 0.2631578947368421,
      "acc_stderr": 0.10379087338771256,
      "acc_norm": 0.2631578947368421,
      "acc_norm_stderr": 0.10379087338771256
    },
    "Ceval-valid-physician": {
      "acc": 0.2653061224489796,
      "acc_stderr": 0.06372446937141223,
      "acc_norm": 0.2653061224489796,
      "acc_norm_stderr": 0.06372446937141223
    },
    "Ceval-valid-plant_protection": {
      "acc": 0.2727272727272727,
      "acc_stderr": 0.09718590614997252,
      "acc_norm": 0.2727272727272727,
      "acc_norm_stderr": 0.09718590614997252
    },
    "Ceval-valid-probability_and_statistics": {
      "acc": 0.2222222222222222,
      "acc_stderr": 0.10083169033033673,
      "acc_norm": 0.2222222222222222,
      "acc_norm_stderr": 0.10083169033033673
    },
    "Ceval-valid-professional_tour_guide": {
      "acc": 0.2413793103448276,
      "acc_stderr": 0.080869237238335,
      "acc_norm": 0.2413793103448276,
      "acc_norm_stderr": 0.080869237238335
    },
    "Ceval-valid-sports_science": {
      "acc": 0.05263157894736842,
      "acc_stderr": 0.05263157894736842,
      "acc_norm": 0.05263157894736842,
      "acc_norm_stderr": 0.05263157894736842
    },
    "Ceval-valid-tax_accountant": {
      "acc": 0.2653061224489796,
      "acc_stderr": 0.06372446937141223,
      "acc_norm": 0.2653061224489796,
      "acc_norm_stderr": 0.06372446937141223
    },
    "Ceval-valid-teacher_qualification": {
      "acc": 0.3181818181818182,
      "acc_stderr": 0.07102933373079211,
      "acc_norm": 0.3181818181818182,
      "acc_norm_stderr": 0.07102933373079211
    },
    "Ceval-valid-urban_and_rural_planner": {
      "acc": 0.2391304347826087,
      "acc_stderr": 0.06358669845936323,
      "acc_norm": 0.2391304347826087,
      "acc_norm_stderr": 0.06358669845936323
    },
    "Ceval-valid-veterinary_medicine": {
      "acc": 0.21739130434782608,
      "acc_stderr": 0.0879391124952055,
      "acc_norm": 0.21739130434782608,
      "acc_norm_stderr": 0.0879391124952055
    }
  },
  "versions": {
    "Ceval-valid-accountant": 1,
    "Ceval-valid-advanced_mathematics": 1,
    "Ceval-valid-art_studies": 1,
    "Ceval-valid-basic_medicine": 1,
    "Ceval-valid-business_administration": 1,
    "Ceval-valid-chinese_language_and_literature": 1,
    "Ceval-valid-civil_servant": 1,
    "Ceval-valid-clinical_medicine": 1,
    "Ceval-valid-college_chemistry": 1,
    "Ceval-valid-college_economics": 1,
    "Ceval-valid-college_physics": 1,
    "Ceval-valid-college_programming": 1,
    "Ceval-valid-computer_architecture": 1,
    "Ceval-valid-computer_network": 1,
    "Ceval-valid-discrete_mathematics": 1,
    "Ceval-valid-education_science": 1,
    "Ceval-valid-electrical_engineer": 1,
    "Ceval-valid-environmental_impact_assessment_engineer": 1,
    "Ceval-valid-fire_engineer": 1,
    "Ceval-valid-high_school_biology": 1,
    "Ceval-valid-high_school_chemistry": 1,
    "Ceval-valid-high_school_chinese": 1,
    "Ceval-valid-high_school_geography": 1,
    "Ceval-valid-high_school_history": 1,
    "Ceval-valid-high_school_mathematics": 1,
    "Ceval-valid-high_school_physics": 1,
    "Ceval-valid-high_school_politics": 1,
    "Ceval-valid-ideological_and_moral_cultivation": 1,
    "Ceval-valid-law": 1,
    "Ceval-valid-legal_professional": 1,
    "Ceval-valid-logic": 1,
    "Ceval-valid-mao_zedong_thought": 1,
    "Ceval-valid-marxism": 1,
    "Ceval-valid-metrology_engineer": 1,
    "Ceval-valid-middle_school_biology": 1,
    "Ceval-valid-middle_school_chemistry": 1,
    "Ceval-valid-middle_school_geography": 1,
    "Ceval-valid-middle_school_history": 1,
    "Ceval-valid-middle_school_mathematics": 1,
    "Ceval-valid-middle_school_physics": 1,
    "Ceval-valid-middle_school_politics": 1,
    "Ceval-valid-modern_chinese_history": 1,
    "Ceval-valid-operating_system": 1,
    "Ceval-valid-physician": 1,
    "Ceval-valid-plant_protection": 1,
    "Ceval-valid-probability_and_statistics": 1,
    "Ceval-valid-professional_tour_guide": 1,
    "Ceval-valid-sports_science": 1,
    "Ceval-valid-tax_accountant": 1,
    "Ceval-valid-teacher_qualification": 1,
    "Ceval-valid-urban_and_rural_planner": 1,
    "Ceval-valid-veterinary_medicine": 1
  },
  "config": {
    "model": "transnormer2",
    "model_args": "path=/cpfs01/user/shenxuyang/LLM/Models/transnormerLLM-1b/hf/1B-252000,max_length=256,repetition_penalty=1.1,dtype=bfloat16",
    "num_fewshot": 5,
    "batch_size": "auto",
    "batch_sizes": [
      128
    ],
    "device": "cuda:0",
    "no_cache": false,
    "limit": null,
    "bootstrap_iters": 100000,
    "description_dict": {}
  }
}